Phys432_Jupyter/Zeeman/green_B_on.csv

Model,MSO2024
Firmware Version,1.52

Point Format,Y
Horizontal Units,S
Horizontal Scale,0.01
Sample Interval,3.2e-05
Filter Frequency,2e+08
Record Length,3125
Gating,0.0% to 100.0%
Probe Attenuation,1
Vertical Units,V
Vertical Offset,0
Vertical Scale,1
Label,
TIME,CH1
7.2400e-03,1.04656
7.2720e-03,1.055
7.3040e-03,1.05203
7.3360e-03,1.06953
7.3680e-03,1.07141
7.4000e-03,1.08781
7.4320e-03,1.08672
7.4640e-03,1.10266
7.4960e-03,1.10438
7.5280e-03,1.09266
7.5600e-03,1.09031
7.5920e-03,1.09875
7.6240e-03,1.08562
7.6560e-03,1.0825
7.6880e-03,1.08094
7.7200e-03,1.0775
7.7520e-03,1.07828
7.7840e-03,1.07656
7.8160e-03,1.09016
7.8480e-03,1.08328
7.8800e-03,1.07437
7.9120e-03,1.05891
7.9440e-03,1.05313
7.9760e-03,1.05
8.0080e-03,1.05516
8.0400e-03,1.0525
8.0720e-03,1.04469
8.1040e-03,1.04125
8.1360e-03,1.03313
8.1680e-03,1.01484
8.2000e-03,1.01266
8.2320e-03,1.00719
8.2640e-03,0.990937
8.2960e-03,0.989844
8.3280e-03,0.9925
8.3600e-03,0.974375
8.3920e-03,0.953437
8.4240e-03,0.934375
8.4560e-03,0.922813
8.4880e-03,0.8975
8.5200e-03,0.893438
8.5520e-03,0.875312
8.5840e-03,0.871094
8.6160e-03,0.855781
8.6480e-03,0.847812
8.6800e-03,0.812187
8.7120e-03,0.811875
8.7440e-03,0.807344
8.7760e-03,0.789844
8.8080e-03,0.779688
8.8400e-03,0.772969
8.8720e-03,0.755625
8.9040e-03,0.747344
8.9360e-03,0.735625
8.9680e-03,0.718437
9.0000e-03,0.714531
9.0320e-03,0.7
9.0640e-03,0.691094
9.0960e-03,0.680469
9.1280e-03,0.670156
9.1600e-03,0.655
9.1920e-03,0.653281
9.2240e-03,0.655156
9.2560e-03,0.645625
9.2880e-03,0.639063
9.3200e-03,0.621563
9.3520e-03,0.62
9.3840e-03,0.609687
9.4160e-03,0.607656
9.4480e-03,0.613125
9.4800e-03,0.614062
9.5120e-03,0.594531
9.5440e-03,0.585469
9.5760e-03,0.582344
9.6080e-03,0.582344
9.6400e-03,0.579219
9.6720e-03,0.577187
9.7040e-03,0.5825
9.7360e-03,0.576719
9.7680e-03,0.571094
9.8000e-03,0.559219
9.8320e-03,0.553594
9.8640e-03,0.538438
9.8960e-03,0.540469
9.9280e-03,0.538906
9.9600e-03,0.539062
9.9920e-03,0.534219
1.0024e-02,0.534531
1.0056e-02,0.538125
1.0088e-02,0.523438
1.0120e-02,0.530469
1.0152e-02,0.514844
1.0184e-02,0.508125
1.0216e-02,0.508437
1.0248e-02,0.511406
1.0280e-02,0.519219
1.0312e-02,0.525625
1.0344e-02,0.532812
1.0376e-02,0.542031
1.0408e-02,0.549062
1.0440e-02,0.556094
1.0472e-02,0.564219
1.0504e-02,0.573906
1.0536e-02,0.572969
1.0568e-02,0.587344
1.0600e-02,0.6025
1.0632e-02,0.631562
1.0664e-02,0.665156
1.0696e-02,0.694219
1.0728e-02,0.722187
1.0760e-02,0.742031
1.0792e-02,0.760625
1.0824e-02,0.788125
1.0856e-02,0.83375
1.0888e-02,0.871563
1.0920e-02,0.922969
1.0952e-02,0.975469
1.0984e-02,1.03125
1.1016e-02,1.09906
1.1048e-02,1.17312
1.1080e-02,1.24734
1.1112e-02,1.325
1.1144e-02,1.37875
1.1176e-02,1.44797
1.1208e-02,1.52
1.1240e-02,1.58922
1.1272e-02,1.66922
1.1304e-02,1.76484
1.1336e-02,1.85188
1.1368e-02,1.9425
1.1400e-02,2.05922
1.1432e-02,2.15859
1.1464e-02,2.2575
1.1496e-02,2.36578
1.1528e-02,2.48297
1.1560e-02,2.60234
1.1592e-02,2.68172
1.1624e-02,2.77562
1.1656e-02,2.87719
1.1688e-02,2.97109
1.1720e-02,3.05187
1.1752e-02,3.10406
1.1784e-02,3.19859
1.1816e-02,3.27219
1.1848e-02,3.32844
1.1880e-02,3.39156
1.1912e-02,3.41266
1.1944e-02,3.41625
1.1976e-02,3.44203
1.2008e-02,3.44734
1.2040e-02,3.41562
1.2072e-02,3.39469
1.2104e-02,3.33422
1.2136e-02,3.30344
1.2168e-02,3.24625
1.2200e-02,3.185
1.2232e-02,3.10594
1.2264e-02,3.00516
1.2296e-02,2.91391
1.2328e-02,2.80656
1.2360e-02,2.69766
1.2392e-02,2.55969
1.2424e-02,2.43656
1.2456e-02,2.30687
1.2488e-02,2.17938
1.2520e-02,2.05922
1.2552e-02,1.93
1.2584e-02,1.82344
1.2616e-02,1.69953
1.2648e-02,1.58078
1.2680e-02,1.47953
1.2712e-02,1.38109
1.2744e-02,1.28547
1.2776e-02,1.19234
1.2808e-02,1.11391
1.2840e-02,1.04969
1.2872e-02,0.974063
1.2904e-02,0.909063
1.2936e-02,0.870312
1.2968e-02,0.827969
1.3000e-02,0.769687
1.3032e-02,0.726719
1.3064e-02,0.688594
1.3096e-02,0.669844
1.3128e-02,0.63875
1.3160e-02,0.615937
1.3192e-02,0.600938
1.3224e-02,0.583906
1.3256e-02,0.575156
1.3288e-02,0.573906
1.3320e-02,0.555625
1.3352e-02,0.550781
1.3384e-02,0.540781
1.3416e-02,0.54
1.3448e-02,0.542344
1.3480e-02,0.536719
1.3512e-02,0.526406
1.3544e-02,0.535937
1.3576e-02,0.524687
1.3608e-02,0.544687
1.3640e-02,0.562187
1.3672e-02,0.5875
1.3704e-02,0.592031
1.3736e-02,0.610781
1.3768e-02,0.640312
1.3800e-02,0.661406
1.3832e-02,0.690937
1.3864e-02,0.728125
1.3896e-02,0.768438
1.3928e-02,0.820625
1.3960e-02,0.865781
1.3992e-02,0.910312
1.4024e-02,0.98
1.4056e-02,1.06422
1.4088e-02,1.13813
1.4120e-02,1.22797
1.4152e-02,1.30547
1.4184e-02,1.39391
1.4216e-02,1.49609
1.4248e-02,1.59609
1.4280e-02,1.68547
1.4312e-02,1.77875
1.4344e-02,1.87078
1.4376e-02,1.96609
1.4408e-02,2.03719
1.4440e-02,2.10984
1.4472e-02,2.17625
1.4504e-02,2.23937
1.4536e-02,2.32156
1.4568e-02,2.36609
1.4600e-02,2.41531
1.4632e-02,2.44172
1.4664e-02,2.46859
1.4696e-02,2.47469
1.4728e-02,2.47
1.4760e-02,2.43156
1.4792e-02,2.41266
1.4824e-02,2.37859
1.4856e-02,2.31062
1.4888e-02,2.26469
1.4920e-02,2.21625
1.4952e-02,2.13125
1.4984e-02,2.02453
1.5016e-02,1.93469
1.5048e-02,1.86984
1.5080e-02,1.77687
1.5112e-02,1.69281
1.5144e-02,1.5925
1.5176e-02,1.51187
1.5208e-02,1.43063
1.5240e-02,1.37438
1.5272e-02,1.28687
1.5304e-02,1.21516
1.5336e-02,1.17203
1.5368e-02,1.12688
1.5400e-02,1.08312
1.5432e-02,1.04906
1.5464e-02,1.00891
1.5496e-02,0.975156
1.5528e-02,0.954063
1.5560e-02,0.942813
1.5592e-02,0.930312
1.5624e-02,0.915469
1.5656e-02,0.905156
1.5688e-02,0.912187
1.5720e-02,0.909844
1.5752e-02,0.933906
1.5784e-02,0.936406
1.5816e-02,0.962656
1.5848e-02,0.976562
1.5880e-02,0.988594
1.5912e-02,1.00578
1.5944e-02,1.01063
1.5976e-02,1.04094
1.6008e-02,1.05406
1.6040e-02,1.08047
1.6072e-02,1.10547
1.6104e-02,1.12187
1.6136e-02,1.14312
1.6168e-02,1.155
1.6200e-02,1.19516
1.6232e-02,1.22891
1.6264e-02,1.25234
1.6296e-02,1.28234
1.6328e-02,1.30797
1.6360e-02,1.34391
1.6392e-02,1.37547
1.6424e-02,1.40813
1.6456e-02,1.45812
1.6488e-02,1.50891
1.6520e-02,1.58047
1.6552e-02,1.63062
1.6584e-02,1.72469
1.6616e-02,1.80797
1.6648e-02,1.91641
1.6680e-02,2.01625
1.6712e-02,2.14969
1.6744e-02,2.26953
1.6776e-02,2.43219
1.6808e-02,2.60516
1.6840e-02,2.74453
1.6872e-02,2.88156
1.6904e-02,3.03766
1.6936e-02,3.18156
1.6968e-02,3.30437
1.7000e-02,3.40281
1.7032e-02,3.50859
1.7064e-02,3.62422
1.7096e-02,3.69828
1.7128e-02,3.76641
1.7160e-02,3.79891
1.7192e-02,3.81
1.7224e-02,3.79828
1.7256e-02,3.76578
1.7288e-02,3.72672
1.7320e-02,3.6425
1.7352e-02,3.53719
1.7384e-02,3.42781
1.7416e-02,3.28922
1.7448e-02,3.14781
1.7480e-02,2.98734
1.7512e-02,2.82
1.7544e-02,2.65641
1.7576e-02,2.48266
1.7608e-02,2.29453
1.7640e-02,2.13219
1.7672e-02,1.96094
1.7704e-02,1.80875
1.7736e-02,1.65859
1.7768e-02,1.51531
1.7800e-02,1.39828
1.7832e-02,1.29766
1.7864e-02,1.21891
1.7896e-02,1.13234
1.7928e-02,1.05844
1.7960e-02,1.01703
1.7992e-02,0.961875
1.8024e-02,0.938594
1.8056e-02,0.914375
1.8088e-02,0.895781
1.8120e-02,0.872187
1.8152e-02,0.863437
1.8184e-02,0.844844
1.8216e-02,0.835938
1.8248e-02,0.826094
1.8280e-02,0.821562
1.8312e-02,0.817813
1.8344e-02,0.821562
1.8376e-02,0.796094
1.8408e-02,0.780781
1.8440e-02,0.773125
1.8472e-02,0.775781
1.8504e-02,0.741563
1.8536e-02,0.736875
1.8568e-02,0.739688
1.8600e-02,0.725938
1.8632e-02,0.738281
1.8664e-02,0.716094
1.8696e-02,0.7225
1.8728e-02,0.736719
1.8760e-02,0.741719
1.8792e-02,0.759062
1.8824e-02,0.786563
1.8856e-02,0.812656
1.8888e-02,0.843125
1.8920e-02,0.893438
1.8952e-02,0.964688
1.8984e-02,1.02703
1.9016e-02,1.10484
1.9048e-02,1.19969
1.9080e-02,1.28797
1.9112e-02,1.38578
1.9144e-02,1.47313
1.9176e-02,1.56859
1.9208e-02,1.68781
1.9240e-02,1.79562
1.9272e-02,1.89516
1.9304e-02,1.96359
1.9336e-02,2.07625
1.9368e-02,2.13719
1.9400e-02,2.20469
1.9432e-02,2.275
1.9464e-02,2.33312
1.9496e-02,2.39578
1.9528e-02,2.41703
1.9560e-02,2.43063
1.9592e-02,2.42156
1.9624e-02,2.40422
1.9656e-02,2.39266
1.9688e-02,2.35656
1.9720e-02,2.3025
1.9752e-02,2.26281
1.9784e-02,2.18203
1.9816e-02,2.09766
1.9848e-02,2.01625
1.9880e-02,1.91266
1.9912e-02,1.81594
1.9944e-02,1.70219
1.9976e-02,1.61703
2.0008e-02,1.50297
2.0040e-02,1.40156
2.0072e-02,1.31047
2.0104e-02,1.23422
2.0136e-02,1.16578
2.0168e-02,1.12
2.0200e-02,1.06312
2.0232e-02,1.01172
2.0264e-02,0.969062
2.0296e-02,0.933125
2.0328e-02,0.914531
2.0360e-02,0.899219
2.0392e-02,0.897969
2.0424e-02,0.887031
2.0456e-02,0.870625
2.0488e-02,0.872344
2.0520e-02,0.873125
2.0552e-02,0.858437
2.0584e-02,0.83875
2.0616e-02,0.842969
2.0648e-02,0.835
2.0680e-02,0.826563
2.0712e-02,0.82
2.0744e-02,0.819062
2.0776e-02,0.821094
2.0808e-02,0.823594
2.0840e-02,0.819844
2.0872e-02,0.813906
2.0904e-02,0.821875
2.0936e-02,0.831875
2.0968e-02,0.85625
2.1000e-02,0.896406
2.1032e-02,0.927344
2.1064e-02,0.980938
2.1096e-02,1.0375
2.1128e-02,1.08625
2.1160e-02,1.16047
2.1192e-02,1.24172
2.1224e-02,1.32687
2.1256e-02,1.41828
2.1288e-02,1.525
2.1320e-02,1.62703
2.1352e-02,1.73422
2.1384e-02,1.85672
2.1416e-02,1.96453
2.1448e-02,2.0975
2.1480e-02,2.22047
2.1512e-02,2.33812
2.1544e-02,2.44953
2.1576e-02,2.58312
2.1608e-02,2.68547
2.1640e-02,2.79203
2.1672e-02,2.91609
2.1704e-02,2.98937
2.1736e-02,3.04297
2.1768e-02,3.11844
2.1800e-02,3.14359
2.1832e-02,3.14562
2.1864e-02,3.16547
2.1896e-02,3.13859
2.1928e-02,3.10281
2.1960e-02,3.05578
2.1992e-02,2.97141
2.2024e-02,2.87984
2.2056e-02,2.78828
2.2088e-02,2.66219
2.2120e-02,2.53891
2.2152e-02,2.40484
2.2184e-02,2.26047
2.2216e-02,2.12078
2.2248e-02,1.96719
2.2280e-02,1.80797
2.2312e-02,1.645
2.2344e-02,1.48562
2.2376e-02,1.34594
2.2408e-02,1.22016
2.2440e-02,1.10406
2.2472e-02,0.997187
2.2504e-02,0.90375
2.2536e-02,0.818906
2.2568e-02,0.741719
2.2600e-02,0.682031
2.2632e-02,0.623125
2.2664e-02,0.571406
2.2696e-02,0.534531
2.2728e-02,0.506406
2.2760e-02,0.483906
2.2792e-02,0.466406
2.2824e-02,0.452031
2.2856e-02,0.450781
2.2888e-02,0.434375
2.2920e-02,0.429688
2.2952e-02,0.424844
2.2984e-02,0.431406
2.3016e-02,0.447812
2.3048e-02,0.446562
2.3080e-02,0.450625
2.3112e-02,0.461719
2.3144e-02,0.468437
2.3176e-02,0.489219
2.3208e-02,0.504687
2.3240e-02,0.514531
2.3272e-02,0.515
2.3304e-02,0.538125
2.3336e-02,0.552656
2.3368e-02,0.590469
2.3400e-02,0.605313
2.3432e-02,0.636094
2.3464e-02,0.664062
2.3496e-02,0.693437
2.3528e-02,0.717188
2.3560e-02,0.768438
2.3592e-02,0.817031
2.3624e-02,0.857344
2.3656e-02,0.890469
2.3688e-02,0.951406
2.3720e-02,1.01172
2.3752e-02,1.0475
2.3784e-02,1.11734
2.3816e-02,1.1825
2.3848e-02,1.23984
2.3880e-02,1.28641
2.3912e-02,1.33812
2.3944e-02,1.375
2.3976e-02,1.41406
2.4008e-02,1.46594
2.4040e-02,1.48656
2.4072e-02,1.51391
2.4104e-02,1.52234
2.4136e-02,1.52984
2.4168e-02,1.51172
2.4200e-02,1.51953
2.4232e-02,1.48922
2.4264e-02,1.44766
2.4296e-02,1.40594
2.4328e-02,1.35859
2.4360e-02,1.28281
2.4392e-02,1.22844
2.4424e-02,1.15219
2.4456e-02,1.08578
2.4488e-02,1.01687
2.4520e-02,0.941562
2.4552e-02,0.890469
2.4584e-02,0.827187
2.4616e-02,0.763281
2.4648e-02,0.701406
2.4680e-02,0.647656
2.4712e-02,0.593906
2.4744e-02,0.547813
2.4776e-02,0.499062
2.4808e-02,0.454687
2.4840e-02,0.424844
2.4872e-02,0.394531
2.4904e-02,0.370781
2.4936e-02,0.349219
2.4968e-02,0.330625
2.5000e-02,0.317344
2.5032e-02,0.297187
2.5064e-02,0.291875
2.5096e-02,0.295469
2.5128e-02,0.272187
2.5160e-02,0.260469
2.5192e-02,0.261875
2.5224e-02,0.2625
2.5256e-02,0.252656
2.5288e-02,0.236719
2.5320e-02,0.249687
2.5352e-02,0.251562
2.5384e-02,0.25125
2.5416e-02,0.256719
2.5448e-02,0.25375
2.5480e-02,0.260469
2.5512e-02,0.271406
2.5544e-02,0.270625
2.5576e-02,0.269062
2.5608e-02,0.274062
2.5640e-02,0.279531
2.5672e-02,0.287187
2.5704e-02,0.296406
2.5736e-02,0.305
2.5768e-02,0.318125
2.5800e-02,0.32875
2.5832e-02,0.344375
2.5864e-02,0.362969
2.5896e-02,0.382188
2.5928e-02,0.383125
2.5960e-02,0.405
2.5992e-02,0.427812
2.6024e-02,0.437344
2.6056e-02,0.456875
2.6088e-02,0.480781
2.6120e-02,0.493906
2.6152e-02,0.508437
2.6184e-02,0.522344
2.6216e-02,0.537187
2.6248e-02,0.546406
2.6280e-02,0.553281
2.6312e-02,0.548594
2.6344e-02,0.558906
2.6376e-02,0.566094
2.6408e-02,0.569375
2.6440e-02,0.558438
2.6472e-02,0.549062
2.6504e-02,0.540781
2.6536e-02,0.535937
2.6568e-02,0.515
2.6600e-02,0.490625
2.6632e-02,0.477344
2.6664e-02,0.460781
2.6696e-02,0.441562
2.6728e-02,0.417187
2.6760e-02,0.399219
2.6792e-02,0.377969
2.6824e-02,0.349687
2.6856e-02,0.326563
2.6888e-02,0.313594
2.6920e-02,0.293281
2.6952e-02,0.272344
2.6984e-02,0.253437
2.7016e-02,0.240469
2.7048e-02,0.219219
2.7080e-02,0.210625
2.7112e-02,0.197344
2.7144e-02,0.179219
2.7176e-02,0.176094
2.7208e-02,0.172656
2.7240e-02,0.163906
2.7272e-02,0.149687
2.7304e-02,0.139844
2.7336e-02,0.141406
2.7368e-02,0.142187
2.7400e-02,0.141563
2.7432e-02,0.140625
2.7464e-02,0.141875
2.7496e-02,0.143438
2.7528e-02,0.144062
2.7560e-02,0.142031
2.7592e-02,0.141094
2.7624e-02,0.143125
2.7656e-02,0.142187
2.7688e-02,0.141719
2.7720e-02,0.140937
2.7752e-02,0.141719
2.7784e-02,0.142969
2.7816e-02,0.140781
2.7848e-02,0.14125
2.7880e-02,0.141094
2.7912e-02,0.140781
2.7944e-02,0.140781
2.7976e-02,0.139687
2.8008e-02,0.139687
2.8040e-02,0.139219
2.8072e-02,0.139531
2.8104e-02,0.139844
2.8136e-02,0.139844
2.8168e-02,0.140469
2.8200e-02,0.140312
2.8232e-02,0.142187
2.8264e-02,0.141406
2.8296e-02,0.140937
2.8328e-02,0.140781
2.8360e-02,0.14125
2.8392e-02,0.140625
2.8424e-02,0.140781
2.8456e-02,0.144844
2.8488e-02,0.148125
2.8520e-02,0.150625
2.8552e-02,0.15125
2.8584e-02,0.157812
2.8616e-02,0.165938
2.8648e-02,0.16625
2.8680e-02,0.182969
2.8712e-02,0.190469
2.8744e-02,0.202656
2.8776e-02,0.217031
2.8808e-02,0.232031
2.8840e-02,0.249531
2.8872e-02,0.2675
2.8904e-02,0.282812
2.8936e-02,0.299062
2.8968e-02,0.32125
2.9000e-02,0.345
2.9032e-02,0.362656
2.9064e-02,0.395
2.9096e-02,0.427656
2.9128e-02,0.450469
2.9160e-02,0.480156
2.9192e-02,0.497187
2.9224e-02,0.526562
2.9256e-02,0.544531
2.9288e-02,0.566406
2.9320e-02,0.607656
2.9352e-02,0.632656
2.9384e-02,0.64625
2.9416e-02,0.663438
2.9448e-02,0.686875
2.9480e-02,0.693437
2.9512e-02,0.697969
2.9544e-02,0.700156
2.9576e-02,0.702344
2.9608e-02,0.701563
2.9640e-02,0.674688
2.9672e-02,0.68
2.9704e-02,0.653594
2.9736e-02,0.632969
2.9768e-02,0.614375
2.9800e-02,0.580625
2.9832e-02,0.547813
2.9864e-02,0.52875
2.9896e-02,0.498438
2.9928e-02,0.482813
2.9960e-02,0.462813
2.9992e-02,0.425312
3.0024e-02,0.40375
3.0056e-02,0.370781
3.0088e-02,0.343281
3.0120e-02,0.33125
3.0152e-02,0.313906
3.0184e-02,0.301094
3.0216e-02,0.299531
3.0248e-02,0.295781
3.0280e-02,0.282969
3.0312e-02,0.269219
3.0344e-02,0.267031
3.0376e-02,0.273594
3.0408e-02,0.277031
3.0440e-02,0.282656
3.0472e-02,0.285625
3.0504e-02,0.293906
3.0536e-02,0.304531
3.0568e-02,0.312344
3.0600e-02,0.3225
3.0632e-02,0.330781
3.0664e-02,0.344062
3.0696e-02,0.348906
3.0728e-02,0.363125
3.0760e-02,0.383594
3.0792e-02,0.393281
3.0824e-02,0.415312
3.0856e-02,0.435156
3.0888e-02,0.454687
3.0920e-02,0.477969
3.0952e-02,0.509531
3.0984e-02,0.537656
3.1016e-02,0.581562
3.1048e-02,0.62
3.1080e-02,0.653281
3.1112e-02,0.698594
3.1144e-02,0.752344
3.1176e-02,0.793438
3.1208e-02,0.832031
3.1240e-02,0.896562
3.1272e-02,0.959219
3.1304e-02,1.0175
3.1336e-02,1.0725
3.1368e-02,1.11984
3.1400e-02,1.16109
3.1432e-02,1.20187
3.1464e-02,1.23844
3.1496e-02,1.27859
3.1528e-02,1.31484
3.1560e-02,1.3375
3.1592e-02,1.33688
3.1624e-02,1.34281
3.1656e-02,1.32984
3.1688e-02,1.32313
3.1720e-02,1.3075
3.1752e-02,1.30375
3.1784e-02,1.28391
3.1816e-02,1.23438
3.1848e-02,1.20578
3.1880e-02,1.16812
3.1912e-02,1.10266
3.1944e-02,1.06812
3.1976e-02,1.02281
3.2008e-02,0.975938
3.2040e-02,0.921406
3.2072e-02,0.885937
3.2104e-02,0.8525
3.2136e-02,0.816406
3.2168e-02,0.779531
3.2200e-02,0.737031
3.2232e-02,0.696719
3.2264e-02,0.665781
3.2296e-02,0.647656
3.2328e-02,0.625312
3.2360e-02,0.606094
3.2392e-02,0.580156
3.2424e-02,0.569531
3.2456e-02,0.552812
3.2488e-02,0.542656
3.2520e-02,0.544844
3.2552e-02,0.543906
3.2584e-02,0.52625
3.2616e-02,0.509844
3.2648e-02,0.508281
3.2680e-02,0.513906
3.2712e-02,0.518281
3.2744e-02,0.518906
3.2776e-02,0.536875
3.2808e-02,0.549531
3.2840e-02,0.580625
3.2872e-02,0.595625
3.2904e-02,0.625781
3.2936e-02,0.665312
3.2968e-02,0.710625
3.3000e-02,0.754219
3.3032e-02,0.805625
3.3064e-02,0.870781
3.3096e-02,0.944531
3.3128e-02,1.02188
3.3160e-02,1.12266
3.3192e-02,1.21391
3.3224e-02,1.31109
3.3256e-02,1.42781
3.3288e-02,1.55766
3.3320e-02,1.68391
3.3352e-02,1.82594
3.3384e-02,1.98219
3.3416e-02,2.13016
3.3448e-02,2.2825
3.3480e-02,2.43281
3.3512e-02,2.56078
3.3544e-02,2.70094
3.3576e-02,2.82531
3.3608e-02,2.93141
3.3640e-02,3.01156
3.3672e-02,3.09891
3.3704e-02,3.16156
3.3736e-02,3.20797
3.3768e-02,3.23828
3.3800e-02,3.23375
3.3832e-02,3.225
3.3864e-02,3.18641
3.3896e-02,3.13969
3.3928e-02,3.06937
3.3960e-02,2.99313
3.3992e-02,2.87844
3.4024e-02,2.75578
3.4056e-02,2.61875
3.4088e-02,2.50094
3.4120e-02,2.36469
3.4152e-02,2.21859
3.4184e-02,2.07266
3.4216e-02,1.93109
3.4248e-02,1.77266
3.4280e-02,1.63109
3.4312e-02,1.495
3.4344e-02,1.37688
3.4376e-02,1.25562
3.4408e-02,1.13922
3.4440e-02,1.04719
3.4472e-02,0.974063
3.4504e-02,0.8775
3.4536e-02,0.818281
3.4568e-02,0.771875
3.4600e-02,0.723281
3.4632e-02,0.677188
3.4664e-02,0.653906
3.4696e-02,0.615469
3.4728e-02,0.583281
3.4760e-02,0.576094
3.4792e-02,0.563594
3.4824e-02,0.544062
3.4856e-02,0.544844
3.4888e-02,0.531406
3.4920e-02,0.541562
3.4952e-02,0.553437
3.4984e-02,0.568594
3.5016e-02,0.5975
3.5048e-02,0.619375
3.5080e-02,0.642031
3.5112e-02,0.674531
3.5144e-02,0.714062
3.5176e-02,0.757188
3.5208e-02,0.818906
3.5240e-02,0.887656
3.5272e-02,0.968437
3.5304e-02,1.05375
3.5336e-02,1.14875
3.5368e-02,1.23281
3.5400e-02,1.33266
3.5432e-02,1.44188
3.5464e-02,1.52781
3.5496e-02,1.62547
3.5528e-02,1.71547
3.5560e-02,1.81844
3.5592e-02,1.92281
3.5624e-02,2.01187
3.5656e-02,2.08188
3.5688e-02,2.15
3.5720e-02,2.19703
3.5752e-02,2.24594
3.5784e-02,2.27562
3.5816e-02,2.28406
3.5848e-02,2.27156
3.5880e-02,2.28234
3.5912e-02,2.26219
3.5944e-02,2.23953
3.5976e-02,2.17984
3.6008e-02,2.14938
3.6040e-02,2.07984
3.6072e-02,2.00438
3.6104e-02,1.92625
3.6136e-02,1.84297
3.6168e-02,1.74703
3.6200e-02,1.65641
3.6232e-02,1.55828
3.6264e-02,1.4775
3.6296e-02,1.38797
3.6328e-02,1.31797
3.6360e-02,1.24531
3.6392e-02,1.17234
3.6424e-02,1.12281
3.6456e-02,1.06094
3.6488e-02,1.01781
3.6520e-02,0.993437
3.6552e-02,0.976875
3.6584e-02,0.946719
3.6616e-02,0.946562
3.6648e-02,0.942344
3.6680e-02,0.949219
3.6712e-02,0.949375
3.6744e-02,0.971094
3.6776e-02,0.982031
3.6808e-02,0.97875
3.6840e-02,0.997031
3.6872e-02,1.01797
3.6904e-02,1.02859
3.6936e-02,1.05969
3.6968e-02,1.08953
3.7000e-02,1.10172
3.7032e-02,1.12234
3.7064e-02,1.15203
3.7096e-02,1.19094
3.7128e-02,1.23219
3.7160e-02,1.275
3.7192e-02,1.31578
3.7224e-02,1.37656
3.7256e-02,1.44047
3.7288e-02,1.51109
3.7320e-02,1.59234
3.7352e-02,1.67766
3.7384e-02,1.78437
3.7416e-02,1.90797
3.7448e-02,2.01641
3.7480e-02,2.15078
3.7512e-02,2.26016
3.7544e-02,2.39078
3.7576e-02,2.54172
3.7608e-02,2.68594
3.7640e-02,2.83516
3.7672e-02,2.99547
3.7704e-02,3.11219
3.7736e-02,3.19844
3.7768e-02,3.29047
3.7800e-02,3.37766
3.7832e-02,3.42719
3.7864e-02,3.47625
3.7896e-02,3.50484
3.7928e-02,3.49875
3.7960e-02,3.49812
3.7992e-02,3.48562
3.8024e-02,3.415
3.8056e-02,3.33781
3.8088e-02,3.22063
3.8120e-02,3.09391
3.8152e-02,2.94859
3.8184e-02,2.82688
3.8216e-02,2.67719
3.8248e-02,2.52047
3.8280e-02,2.33937
3.8312e-02,2.17766
3.8344e-02,2.02328
3.8376e-02,1.86891
3.8408e-02,1.72734
3.8440e-02,1.59766
3.8472e-02,1.45797
3.8504e-02,1.33906
3.8536e-02,1.24141
3.8568e-02,1.15516
3.8600e-02,1.07375
3.8632e-02,1.00422
3.8664e-02,0.955625
3.8696e-02,0.927656
3.8728e-02,0.890937
3.8760e-02,0.864062
3.8792e-02,0.834062
3.8824e-02,0.806406
3.8856e-02,0.80625
3.8888e-02,0.779375
3.8920e-02,0.778437
3.8952e-02,0.772969
3.8984e-02,0.739844
3.9016e-02,0.735781
3.9048e-02,0.738281
3.9080e-02,0.740312
3.9112e-02,0.73
3.9144e-02,0.748906
3.9176e-02,0.764531
3.9208e-02,0.762344
3.9240e-02,0.766719
3.9272e-02,0.783125
3.9304e-02,0.815469
3.9336e-02,0.864375
3.9368e-02,0.927188
3.9400e-02,0.988437
3.9432e-02,1.05844
3.9464e-02,1.13219
3.9496e-02,1.20594
3.9528e-02,1.28281
3.9560e-02,1.38125
3.9592e-02,1.46953
3.9624e-02,1.56297
3.9656e-02,1.66391
3.9688e-02,1.78641
3.9720e-02,1.88078
3.9752e-02,1.97406
3.9784e-02,2.06219
