Phys432_Jupyter/Zeeman/green_B_on_vertical.csv

Model,MSO2024
Firmware Version,1.52

Point Format,Y
Horizontal Units,S
Horizontal Scale,0.01
Sample Interval,3.2e-05
Filter Frequency,2e+08
Record Length,3125
Gating,0.0% to 100.0%
Probe Attenuation,1
Vertical Units,V
Vertical Offset,0
Vertical Scale,0.5
Label,
TIME,CH1
7.2400e-03,0.317344
7.2720e-03,0.328359
7.3040e-03,0.329531
7.3360e-03,0.325156
7.3680e-03,0.32625
7.4000e-03,0.33
7.4320e-03,0.327969
7.4640e-03,0.326562
7.4960e-03,0.324219
7.5280e-03,0.328516
7.5600e-03,0.327578
7.5920e-03,0.317813
7.6240e-03,0.323906
7.6560e-03,0.319687
7.6880e-03,0.320625
7.7200e-03,0.316172
7.7520e-03,0.316719
7.7840e-03,0.310937
7.8160e-03,0.310547
7.8480e-03,0.317266
7.8800e-03,0.320469
7.9120e-03,0.312266
7.9440e-03,0.315859
7.9760e-03,0.315703
8.0080e-03,0.32
8.0400e-03,0.312969
8.0720e-03,0.308906
8.1040e-03,0.311016
8.1360e-03,0.31
8.1680e-03,0.310781
8.2000e-03,0.314609
8.2320e-03,0.311797
8.2640e-03,0.313281
8.2960e-03,0.313594
8.3280e-03,0.316484
8.3600e-03,0.315703
8.3920e-03,0.310078
8.4240e-03,0.306953
8.4560e-03,0.309141
8.4880e-03,0.30875
8.5200e-03,0.310625
8.5520e-03,0.31125
8.5840e-03,0.309297
8.6160e-03,0.316797
8.6480e-03,0.316406
8.6800e-03,0.318125
8.7120e-03,0.311562
8.7440e-03,0.316641
8.7760e-03,0.312188
8.8080e-03,0.306875
8.8400e-03,0.304609
8.8720e-03,0.3025
8.9040e-03,0.316484
8.9360e-03,0.315781
8.9680e-03,0.324766
9.0000e-03,0.330703
9.0320e-03,0.331172
9.0640e-03,0.334219
9.0960e-03,0.343203
9.1280e-03,0.346484
9.1600e-03,0.350625
9.1920e-03,0.355938
9.2240e-03,0.367188
9.2560e-03,0.374453
9.2880e-03,0.386641
9.3200e-03,0.395469
9.3520e-03,0.399844
9.3840e-03,0.403906
9.4160e-03,0.415781
9.4480e-03,0.425937
9.4800e-03,0.439297
9.5120e-03,0.457578
9.5440e-03,0.468672
9.5760e-03,0.476875
9.6080e-03,0.503281
9.6400e-03,0.510312
9.6720e-03,0.534453
9.7040e-03,0.558203
9.7360e-03,0.584766
9.7680e-03,0.617969
9.8000e-03,0.64
9.8320e-03,0.667266
9.8640e-03,0.692109
9.8960e-03,0.717812
9.9280e-03,0.756953
9.9600e-03,0.786094
9.9920e-03,0.81375
1.0024e-02,0.849219
1.0056e-02,0.882656
1.0088e-02,0.910234
1.0120e-02,0.95125
1.0152e-02,0.990781
1.0184e-02,1.02578
1.0216e-02,1.07414
1.0248e-02,1.13055
1.0280e-02,1.18297
1.0312e-02,1.22641
1.0344e-02,1.25211
1.0376e-02,1.30164
1.0408e-02,1.34367
1.0440e-02,1.40023
1.0472e-02,1.42984
1.0504e-02,1.47578
1.0536e-02,1.52
1.0568e-02,1.56734
1.0600e-02,1.60406
1.0632e-02,1.62695
1.0664e-02,1.66602
1.0696e-02,1.70211
1.0728e-02,1.72914
1.0760e-02,1.74172
1.0792e-02,1.7882
1.0824e-02,1.77539
1.0856e-02,1.78094
1.0888e-02,1.79594
1.0920e-02,1.81969
1.0952e-02,1.82664
1.0984e-02,1.82398
1.1016e-02,1.80461
1.1048e-02,1.7632
1.1080e-02,1.74664
1.1112e-02,1.7382
1.1144e-02,1.70953
1.1176e-02,1.66133
1.1208e-02,1.59813
1.1240e-02,1.55
1.1272e-02,1.50344
1.1304e-02,1.46141
1.1336e-02,1.39719
1.1368e-02,1.34398
1.1400e-02,1.28789
1.1432e-02,1.22352
1.1464e-02,1.16633
1.1496e-02,1.11797
1.1528e-02,1.05383
1.1560e-02,0.997187
1.1592e-02,0.935859
1.1624e-02,0.871719
1.1656e-02,0.811172
1.1688e-02,0.762578
1.1720e-02,0.721094
1.1752e-02,0.672031
1.1784e-02,0.626953
1.1816e-02,0.576641
1.1848e-02,0.533047
1.1880e-02,0.494687
1.1912e-02,0.456875
1.1944e-02,0.418984
1.1976e-02,0.395
1.2008e-02,0.3725
1.2040e-02,0.344609
1.2072e-02,0.318359
1.2104e-02,0.29625
1.2136e-02,0.283125
1.2168e-02,0.260469
1.2200e-02,0.240859
1.2232e-02,0.222656
1.2264e-02,0.209922
1.2296e-02,0.202813
1.2328e-02,0.184063
1.2360e-02,0.169766
1.2392e-02,0.161328
1.2424e-02,0.158438
1.2456e-02,0.14875
1.2488e-02,0.148672
1.2520e-02,0.142422
1.2552e-02,0.132969
1.2584e-02,0.128516
1.2616e-02,0.128281
1.2648e-02,0.124141
1.2680e-02,0.1225
1.2712e-02,0.1125
1.2744e-02,0.113203
1.2776e-02,0.113437
1.2808e-02,0.110313
1.2840e-02,0.110469
1.2872e-02,0.106875
1.2904e-02,0.108359
1.2936e-02,0.102344
1.2968e-02,0.108047
1.3000e-02,0.10375
1.3032e-02,0.0973438
1.3064e-02,0.100703
1.3096e-02,0.0965625
1.3128e-02,0.0945312
1.3160e-02,0.0896875
1.3192e-02,0.0902344
1.3224e-02,0.0921875
1.3256e-02,0.0902344
1.3288e-02,0.0902344
1.3320e-02,0.09
1.3352e-02,0.0903906
1.3384e-02,0.0905469
1.3416e-02,0.0900781
1.3448e-02,0.0900781
1.3480e-02,0.0898438
1.3512e-02,0.0895313
1.3544e-02,0.0854687
1.3576e-02,0.0858594
1.3608e-02,0.08875
1.3640e-02,0.0889062
1.3672e-02,0.0899219
1.3704e-02,0.0859375
1.3736e-02,0.0877344
1.3768e-02,0.0836719
1.3800e-02,0.081875
1.3832e-02,0.0842188
1.3864e-02,0.0827344
1.3896e-02,0.0858594
1.3928e-02,0.0845312
1.3960e-02,0.0842188
1.3992e-02,0.0813281
1.4024e-02,0.0794531
1.4056e-02,0.0823437
1.4088e-02,0.08625
1.4120e-02,0.0879687
1.4152e-02,0.0886719
1.4184e-02,0.0892187
1.4216e-02,0.0859375
1.4248e-02,0.0821094
1.4280e-02,0.079375
1.4312e-02,0.0736719
1.4344e-02,0.0754687
1.4376e-02,0.0724219
1.4408e-02,0.0702344
1.4440e-02,0.0707031
1.4472e-02,0.0753906
1.4504e-02,0.0753125
1.4536e-02,0.0735156
1.4568e-02,0.0719531
1.4600e-02,0.0742969
1.4632e-02,0.0747656
1.4664e-02,0.0760156
1.4696e-02,0.0777344
1.4728e-02,0.0769531
1.4760e-02,0.0758594
1.4792e-02,0.0714062
1.4824e-02,0.0699219
1.4856e-02,0.0700781
1.4888e-02,0.07125
1.4920e-02,0.0750781
1.4952e-02,0.0714844
1.4984e-02,0.0711719
1.5016e-02,0.0698437
1.5048e-02,0.0703125
1.5080e-02,0.070625
1.5112e-02,0.0703125
1.5144e-02,0.0702344
1.5176e-02,0.07
1.5208e-02,0.0701562
1.5240e-02,0.0728906
1.5272e-02,0.0723437
1.5304e-02,0.0739063
1.5336e-02,0.0735937
1.5368e-02,0.07
1.5400e-02,0.0699219
1.5432e-02,0.07125
1.5464e-02,0.0716406
1.5496e-02,0.0709375
1.5528e-02,0.0711719
1.5560e-02,0.073125
1.5592e-02,0.0770312
1.5624e-02,0.0804687
1.5656e-02,0.0726562
1.5688e-02,0.0719531
1.5720e-02,0.0723437
1.5752e-02,0.0717188
1.5784e-02,0.0710156
1.5816e-02,0.07125
1.5848e-02,0.0717188
1.5880e-02,0.0710156
1.5912e-02,0.0703906
1.5944e-02,0.0714062
1.5976e-02,0.0719531
1.6008e-02,0.0736719
1.6040e-02,0.0760937
1.6072e-02,0.0810156
1.6104e-02,0.0811719
1.6136e-02,0.0822656
1.6168e-02,0.0817188
1.6200e-02,0.083125
1.6232e-02,0.08
1.6264e-02,0.0821094
1.6296e-02,0.0785938
1.6328e-02,0.0798437
1.6360e-02,0.0792969
1.6392e-02,0.0782031
1.6424e-02,0.0813281
1.6456e-02,0.0807031
1.6488e-02,0.0795313
1.6520e-02,0.0816406
1.6552e-02,0.0842188
1.6584e-02,0.0796094
1.6616e-02,0.0809375
1.6648e-02,0.0804687
1.6680e-02,0.08
1.6712e-02,0.0746094
1.6744e-02,0.075
1.6776e-02,0.0759375
1.6808e-02,0.0708594
1.6840e-02,0.07125
1.6872e-02,0.0742969
1.6904e-02,0.0726562
1.6936e-02,0.0716406
1.6968e-02,0.0735156
1.7000e-02,0.070625
1.7032e-02,0.0701562
1.7064e-02,0.0700781
1.7096e-02,0.0700781
1.7128e-02,0.0700781
1.7160e-02,0.0711719
1.7192e-02,0.07
1.7224e-02,0.0704687
1.7256e-02,0.0707813
1.7288e-02,0.0708594
1.7320e-02,0.0734375
1.7352e-02,0.0723437
1.7384e-02,0.0715625
1.7416e-02,0.0735156
1.7448e-02,0.0728906
1.7480e-02,0.0750781
1.7512e-02,0.0797656
1.7544e-02,0.076875
1.7576e-02,0.0746875
1.7608e-02,0.0751563
1.7640e-02,0.0782031
1.7672e-02,0.0775781
1.7704e-02,0.0820312
1.7736e-02,0.0772656
1.7768e-02,0.0823437
1.7800e-02,0.08125
1.7832e-02,0.0810937
1.7864e-02,0.0841406
1.7896e-02,0.0804687
1.7928e-02,0.081875
1.7960e-02,0.085
1.7992e-02,0.0844531
1.8024e-02,0.0789844
1.8056e-02,0.0808594
1.8088e-02,0.0792969
1.8120e-02,0.0828906
1.8152e-02,0.0800781
1.8184e-02,0.0839063
1.8216e-02,0.085625
1.8248e-02,0.09
1.8280e-02,0.0900781
1.8312e-02,0.0909375
1.8344e-02,0.0905469
1.8376e-02,0.0925781
1.8408e-02,0.0942188
1.8440e-02,0.0975
1.8472e-02,0.0958594
1.8504e-02,0.0921094
1.8536e-02,0.0963281
1.8568e-02,0.0971094
1.8600e-02,0.0988281
1.8632e-02,0.101406
1.8664e-02,0.099375
1.8696e-02,0.103125
1.8728e-02,0.104609
1.8760e-02,0.110313
1.8792e-02,0.109766
1.8824e-02,0.110156
1.8856e-02,0.112344
1.8888e-02,0.109219
1.8920e-02,0.110625
1.8952e-02,0.113437
1.8984e-02,0.114844
1.9016e-02,0.121172
1.9048e-02,0.12375
1.9080e-02,0.131016
1.9112e-02,0.131406
1.9144e-02,0.133906
1.9176e-02,0.140781
1.9208e-02,0.143906
1.9240e-02,0.150937
1.9272e-02,0.157422
1.9304e-02,0.168281
1.9336e-02,0.179453
1.9368e-02,0.189922
1.9400e-02,0.19625
1.9432e-02,0.214297
1.9464e-02,0.227969
1.9496e-02,0.235781
1.9528e-02,0.255391
1.9560e-02,0.262422
1.9592e-02,0.280156
1.9624e-02,0.294219
1.9656e-02,0.304297
1.9688e-02,0.312344
1.9720e-02,0.315078
1.9752e-02,0.322578
1.9784e-02,0.324375
1.9816e-02,0.333203
1.9848e-02,0.343047
1.9880e-02,0.355469
1.9912e-02,0.355
1.9944e-02,0.362109
1.9976e-02,0.361875
2.0008e-02,0.361797
2.0040e-02,0.370937
2.0072e-02,0.372031
2.0104e-02,0.378672
2.0136e-02,0.383672
2.0168e-02,0.395781
2.0200e-02,0.407734
2.0232e-02,0.424687
2.0264e-02,0.446484
2.0296e-02,0.475547
2.0328e-02,0.496953
2.0360e-02,0.535234
2.0392e-02,0.557422
2.0424e-02,0.591641
2.0456e-02,0.632187
2.0488e-02,0.671484
2.0520e-02,0.724687
2.0552e-02,0.782422
2.0584e-02,0.832578
2.0616e-02,0.898125
2.0648e-02,0.968047
2.0680e-02,1.04273
2.0712e-02,1.11383
2.0744e-02,1.18883
2.0776e-02,1.25492
2.0808e-02,1.3282
2.0840e-02,1.37859
2.0872e-02,1.41992
2.0904e-02,1.48141
2.0936e-02,1.55766
2.0968e-02,1.59445
2.1000e-02,1.64586
2.1032e-02,1.69055
2.1064e-02,1.71992
2.1096e-02,1.71297
2.1128e-02,1.69961
2.1160e-02,1.69742
2.1192e-02,1.68648
2.1224e-02,1.63953
2.1256e-02,1.59125
2.1288e-02,1.56516
2.1320e-02,1.50141
2.1352e-02,1.43883
2.1384e-02,1.37281
2.1416e-02,1.29664
2.1448e-02,1.24555
2.1480e-02,1.17859
2.1512e-02,1.09352
2.1544e-02,1.01453
2.1576e-02,0.921953
2.1608e-02,0.840859
2.1640e-02,0.766563
2.1672e-02,0.696641
2.1704e-02,0.630391
2.1736e-02,0.573984
2.1768e-02,0.524922
2.1800e-02,0.469219
2.1832e-02,0.431953
2.1864e-02,0.395312
2.1896e-02,0.358281
2.1928e-02,0.341172
2.1960e-02,0.323359
2.1992e-02,0.307344
2.2024e-02,0.30125
2.2056e-02,0.291641
2.2088e-02,0.277969
2.2120e-02,0.269453
2.2152e-02,0.264531
2.2184e-02,0.262188
2.2216e-02,0.258125
2.2248e-02,0.255078
2.2280e-02,0.258516
2.2312e-02,0.264609
2.2344e-02,0.268828
2.2376e-02,0.276172
2.2408e-02,0.293672
2.2440e-02,0.299375
2.2472e-02,0.309141
2.2504e-02,0.318125
2.2536e-02,0.326562
2.2568e-02,0.341562
2.2600e-02,0.345469
2.2632e-02,0.35375
2.2664e-02,0.358906
2.2696e-02,0.365938
2.2728e-02,0.390781
2.2760e-02,0.416875
2.2792e-02,0.443125
2.2824e-02,0.4575
2.2856e-02,0.477344
2.2888e-02,0.500547
2.2920e-02,0.533672
2.2952e-02,0.567656
2.2984e-02,0.601172
2.3016e-02,0.621328
2.3048e-02,0.66125
2.3080e-02,0.699219
2.3112e-02,0.72875
2.3144e-02,0.7475
2.3176e-02,0.793906
2.3208e-02,0.824297
2.3240e-02,0.854844
2.3272e-02,0.871563
2.3304e-02,0.885781
2.3336e-02,0.895312
2.3368e-02,0.898594
2.3400e-02,0.910859
2.3432e-02,0.906484
2.3464e-02,0.899844
2.3496e-02,0.888984
2.3528e-02,0.869297
2.3560e-02,0.845312
2.3592e-02,0.818281
2.3624e-02,0.778281
2.3656e-02,0.750156
2.3688e-02,0.724375
2.3720e-02,0.675859
2.3752e-02,0.6375
2.3784e-02,0.594766
2.3816e-02,0.547891
2.3848e-02,0.507187
2.3880e-02,0.479062
2.3912e-02,0.437656
2.3944e-02,0.399062
2.3976e-02,0.365781
2.4008e-02,0.332031
2.4040e-02,0.310469
2.4072e-02,0.285469
2.4104e-02,0.267578
2.4136e-02,0.246172
2.4168e-02,0.2325
2.4200e-02,0.225313
2.4232e-02,0.212344
2.4264e-02,0.207344
2.4296e-02,0.19125
2.4328e-02,0.185703
2.4360e-02,0.178203
2.4392e-02,0.169766
2.4424e-02,0.169375
2.4456e-02,0.167109
2.4488e-02,0.157891
2.4520e-02,0.16375
2.4552e-02,0.154687
2.4584e-02,0.154062
2.4616e-02,0.157734
2.4648e-02,0.156016
2.4680e-02,0.164453
2.4712e-02,0.161172
2.4744e-02,0.165156
2.4776e-02,0.166953
2.4808e-02,0.171719
2.4840e-02,0.174766
2.4872e-02,0.180703
2.4904e-02,0.190469
2.4936e-02,0.196641
2.4968e-02,0.200937
2.5000e-02,0.202422
2.5032e-02,0.203984
2.5064e-02,0.201328
2.5096e-02,0.215703
2.5128e-02,0.216484
2.5160e-02,0.225156
2.5192e-02,0.230312
2.5224e-02,0.240938
2.5256e-02,0.254531
2.5288e-02,0.260781
2.5320e-02,0.269844
2.5352e-02,0.281719
2.5384e-02,0.296719
2.5416e-02,0.308203
2.5448e-02,0.316797
2.5480e-02,0.324375
2.5512e-02,0.334062
2.5544e-02,0.337031
2.5576e-02,0.330937
2.5608e-02,0.333594
2.5640e-02,0.338984
2.5672e-02,0.334297
2.5704e-02,0.330625
2.5736e-02,0.331484
2.5768e-02,0.331328
2.5800e-02,0.332656
2.5832e-02,0.330156
2.5864e-02,0.309844
2.5896e-02,0.293047
2.5928e-02,0.292109
2.5960e-02,0.276016
2.5992e-02,0.266328
2.6024e-02,0.249844
2.6056e-02,0.244844
2.6088e-02,0.229922
2.6120e-02,0.214922
2.6152e-02,0.201797
2.6184e-02,0.196719
2.6216e-02,0.179062
2.6248e-02,0.166094
2.6280e-02,0.154141
2.6312e-02,0.148906
2.6344e-02,0.132031
2.6376e-02,0.127734
2.6408e-02,0.118437
2.6440e-02,0.110078
2.6472e-02,0.108437
2.6504e-02,0.109375
2.6536e-02,0.104922
2.6568e-02,0.104219
2.6600e-02,0.100781
2.6632e-02,0.0959375
2.6664e-02,0.0971094
2.6696e-02,0.0967969
2.6728e-02,0.0963281
2.6760e-02,0.100859
2.6792e-02,0.101953
2.6824e-02,0.0992969
2.6856e-02,0.0951563
2.6888e-02,0.0932812
2.6920e-02,0.09625
2.6952e-02,0.100937
2.6984e-02,0.100937
2.7016e-02,0.0991406
2.7048e-02,0.09625
2.7080e-02,0.0980469
2.7112e-02,0.098125
2.7144e-02,0.100469
2.7176e-02,0.100937
2.7208e-02,0.103125
2.7240e-02,0.101875
2.7272e-02,0.103984
2.7304e-02,0.100313
2.7336e-02,0.101641
2.7368e-02,0.0988281
2.7400e-02,0.09875
2.7432e-02,0.10375
2.7464e-02,0.0975
2.7496e-02,0.0934375
2.7528e-02,0.0919531
2.7560e-02,0.0907031
2.7592e-02,0.0928906
2.7624e-02,0.0975781
2.7656e-02,0.0996094
2.7688e-02,0.0992187
2.7720e-02,0.0983594
2.7752e-02,0.0989062
2.7784e-02,0.106562
2.7816e-02,0.106641
2.7848e-02,0.105781
2.7880e-02,0.111016
2.7912e-02,0.11625
2.7944e-02,0.116953
2.7976e-02,0.121484
2.8008e-02,0.125859
2.8040e-02,0.131016
2.8072e-02,0.138672
2.8104e-02,0.145547
2.8136e-02,0.150625
2.8168e-02,0.161406
2.8200e-02,0.172031
2.8232e-02,0.182656
2.8264e-02,0.185937
2.8296e-02,0.197109
2.8328e-02,0.220938
2.8360e-02,0.237656
2.8392e-02,0.249375
2.8424e-02,0.265078
2.8456e-02,0.27375
2.8488e-02,0.283594
2.8520e-02,0.297187
2.8552e-02,0.314062
2.8584e-02,0.336797
2.8616e-02,0.358203
2.8648e-02,0.380391
2.8680e-02,0.387734
2.8712e-02,0.400547
2.8744e-02,0.413594
2.8776e-02,0.418594
2.8808e-02,0.430547
2.8840e-02,0.429219
2.8872e-02,0.425625
2.8904e-02,0.414375
2.8936e-02,0.427031
2.8968e-02,0.419844
2.9000e-02,0.408438
2.9032e-02,0.4
2.9064e-02,0.389297
2.9096e-02,0.37625
2.9128e-02,0.366328
2.9160e-02,0.347891
2.9192e-02,0.332812
2.9224e-02,0.312656
2.9256e-02,0.292188
2.9288e-02,0.274219
2.9320e-02,0.262578
2.9352e-02,0.242266
2.9384e-02,0.231875
2.9416e-02,0.223672
2.9448e-02,0.211172
2.9480e-02,0.199609
2.9512e-02,0.191875
2.9544e-02,0.188125
2.9576e-02,0.179141
2.9608e-02,0.178516
2.9640e-02,0.1725
2.9672e-02,0.174375
2.9704e-02,0.176484
2.9736e-02,0.179844
2.9768e-02,0.187578
2.9800e-02,0.19
2.9832e-02,0.191953
2.9864e-02,0.193437
2.9896e-02,0.198516
2.9928e-02,0.21
2.9960e-02,0.210312
2.9992e-02,0.214219
3.0024e-02,0.220781
3.0056e-02,0.228672
3.0088e-02,0.238828
3.0120e-02,0.247187
3.0152e-02,0.256719
3.0184e-02,0.259219
3.0216e-02,0.278594
3.0248e-02,0.295547
3.0280e-02,0.320937
3.0312e-02,0.344297
3.0344e-02,0.363594
3.0376e-02,0.386562
3.0408e-02,0.402266
3.0440e-02,0.418672
3.0472e-02,0.449062
3.0504e-02,0.483359
3.0536e-02,0.513828
3.0568e-02,0.542578
3.0600e-02,0.565
3.0632e-02,0.584922
3.0664e-02,0.628203
3.0696e-02,0.661563
3.0728e-02,0.683437
3.0760e-02,0.710938
3.0792e-02,0.740859
3.0824e-02,0.758203
3.0856e-02,0.778359
3.0888e-02,0.784141
3.0920e-02,0.784844
3.0952e-02,0.7925
3.0984e-02,0.789297
3.1016e-02,0.789453
3.1048e-02,0.787109
3.1080e-02,0.7675
3.1112e-02,0.741953
3.1144e-02,0.723359
3.1176e-02,0.712422
3.1208e-02,0.682656
3.1240e-02,0.659062
3.1272e-02,0.642813
3.1304e-02,0.607812
3.1336e-02,0.584219
3.1368e-02,0.547031
3.1400e-02,0.527187
3.1432e-02,0.514609
3.1464e-02,0.483672
3.1496e-02,0.456016
3.1528e-02,0.439453
3.1560e-02,0.414453
3.1592e-02,0.401875
3.1624e-02,0.381328
3.1656e-02,0.356484
3.1688e-02,0.349141
3.1720e-02,0.345547
3.1752e-02,0.3375
3.1784e-02,0.329609
3.1816e-02,0.325078
3.1848e-02,0.318047
3.1880e-02,0.317656
3.1912e-02,0.319375
3.1944e-02,0.316016
3.1976e-02,0.304922
3.2008e-02,0.312656
3.2040e-02,0.311016
3.2072e-02,0.3225
3.2104e-02,0.323281
3.2136e-02,0.333438
3.2168e-02,0.342891
3.2200e-02,0.355391
3.2232e-02,0.370547
3.2264e-02,0.382109
3.2296e-02,0.398672
3.2328e-02,0.429688
3.2360e-02,0.463516
3.2392e-02,0.500938
3.2424e-02,0.539453
3.2456e-02,0.597109
3.2488e-02,0.649844
3.2520e-02,0.706484
3.2552e-02,0.776641
3.2584e-02,0.84125
3.2616e-02,0.907656
3.2648e-02,0.961797
3.2680e-02,1.04211
3.2712e-02,1.12477
3.2744e-02,1.19836
3.2776e-02,1.2707
3.2808e-02,1.33758
3.2840e-02,1.41008
3.2872e-02,1.47859
3.2904e-02,1.5382
3.2936e-02,1.58602
3.2968e-02,1.63883
3.3000e-02,1.65398
3.3032e-02,1.6768
3.3064e-02,1.68102
3.3096e-02,1.68578
3.3128e-02,1.67406
3.3160e-02,1.64953
3.3192e-02,1.63523
3.3224e-02,1.61164
3.3256e-02,1.57375
3.3288e-02,1.53805
3.3320e-02,1.48984
3.3352e-02,1.43391
3.3384e-02,1.36453
3.3416e-02,1.28313
3.3448e-02,1.18938
3.3480e-02,1.10539
3.3512e-02,1.025
3.3544e-02,0.943437
3.3576e-02,0.866484
3.3608e-02,0.787422
3.3640e-02,0.709297
3.3672e-02,0.650391
3.3704e-02,0.579922
3.3736e-02,0.515781
3.3768e-02,0.468359
3.3800e-02,0.423672
3.3832e-02,0.383359
3.3864e-02,0.343281
3.3896e-02,0.310703
3.3928e-02,0.286172
3.3960e-02,0.259453
3.3992e-02,0.232266
3.4024e-02,0.218047
3.4056e-02,0.204766
3.4088e-02,0.182578
3.4120e-02,0.167188
3.4152e-02,0.148672
3.4184e-02,0.147031
3.4216e-02,0.143203
3.4248e-02,0.136719
3.4280e-02,0.129609
3.4312e-02,0.129375
3.4344e-02,0.126562
3.4376e-02,0.115312
3.4408e-02,0.111094
3.4440e-02,0.109766
3.4472e-02,0.107656
3.4504e-02,0.110078
3.4536e-02,0.11
3.4568e-02,0.102266
3.4600e-02,0.0975
3.4632e-02,0.095625
3.4664e-02,0.0920313
3.4696e-02,0.0923437
3.4728e-02,0.0913281
3.4760e-02,0.0903125
3.4792e-02,0.0901562
3.4824e-02,0.0932812
3.4856e-02,0.0920313
3.4888e-02,0.094375
3.4920e-02,0.091875
3.4952e-02,0.0904687
3.4984e-02,0.0910937
3.5016e-02,0.090625
3.5048e-02,0.0882031
3.5080e-02,0.0854687
3.5112e-02,0.0835937
3.5144e-02,0.0819531
3.5176e-02,0.0775
3.5208e-02,0.0727344
3.5240e-02,0.0795313
3.5272e-02,0.0782031
3.5304e-02,0.0791406
3.5336e-02,0.0817188
3.5368e-02,0.08
3.5400e-02,0.0817188
3.5432e-02,0.0847656
3.5464e-02,0.0848437
3.5496e-02,0.0834375
3.5528e-02,0.0863281
3.5560e-02,0.0835937
3.5592e-02,0.0752344
3.5624e-02,0.0764844
3.5656e-02,0.0760937
3.5688e-02,0.0717969
3.5720e-02,0.0742188
3.5752e-02,0.0729688
3.5784e-02,0.0764844
3.5816e-02,0.0732031
3.5848e-02,0.0721875
3.5880e-02,0.0710156
3.5912e-02,0.0702344
3.5944e-02,0.0703906
3.5976e-02,0.0703125
3.6008e-02,0.0702344
3.6040e-02,0.0698437
3.6072e-02,0.0709375
3.6104e-02,0.0703125
3.6136e-02,0.0720312
3.6168e-02,0.0711719
3.6200e-02,0.0741406
3.6232e-02,0.0747656
3.6264e-02,0.0767187
3.6296e-02,0.0770312
3.6328e-02,0.0705469
3.6360e-02,0.0719531
3.6392e-02,0.0711719
3.6424e-02,0.0705469
3.6456e-02,0.0711719
3.6488e-02,0.0705469
3.6520e-02,0.0710156
3.6552e-02,0.07
3.6584e-02,0.0701562
3.6616e-02,0.0720312
3.6648e-02,0.0752344
3.6680e-02,0.0735937
3.6712e-02,0.0703125
3.6744e-02,0.0702344
3.6776e-02,0.0719531
3.6808e-02,0.0766406
3.6840e-02,0.0757812
3.6872e-02,0.0767187
3.6904e-02,0.0760937
3.6936e-02,0.0751563
3.6968e-02,0.0760156
3.7000e-02,0.0746094
3.7032e-02,0.0740625
3.7064e-02,0.0764844
3.7096e-02,0.0778125
3.7128e-02,0.07625
3.7160e-02,0.0764844
3.7192e-02,0.0822656
3.7224e-02,0.0796094
3.7256e-02,0.0807031
3.7288e-02,0.0833594
3.7320e-02,0.0884375
3.7352e-02,0.0827344
3.7384e-02,0.0817188
3.7416e-02,0.0877344
3.7448e-02,0.0852344
3.7480e-02,0.0777344
3.7512e-02,0.0763281
3.7544e-02,0.0742188
3.7576e-02,0.0722656
3.7608e-02,0.0725
3.7640e-02,0.0750781
3.7672e-02,0.0732812
3.7704e-02,0.0770312
3.7736e-02,0.0777344
3.7768e-02,0.0721094
3.7800e-02,0.0796875
3.7832e-02,0.0771094
3.7864e-02,0.0711719
3.7896e-02,0.0700781
3.7928e-02,0.070625
3.7960e-02,0.071875
3.7992e-02,0.0732031
3.8024e-02,0.0732812
3.8056e-02,0.0754687
3.8088e-02,0.0744531
3.8120e-02,0.0735937
3.8152e-02,0.0763281
3.8184e-02,0.0784375
3.8216e-02,0.0777344
3.8248e-02,0.075625
3.8280e-02,0.0752344
3.8312e-02,0.07625
3.8344e-02,0.0733594
3.8376e-02,0.0732812
3.8408e-02,0.0735156
3.8440e-02,0.0739063
3.8472e-02,0.0776562
3.8504e-02,0.0778125
3.8536e-02,0.0771875
3.8568e-02,0.0786719
3.8600e-02,0.0840625
3.8632e-02,0.0799219
3.8664e-02,0.0785938
3.8696e-02,0.0840625
3.8728e-02,0.0776562
