Phys432_Jupyter/Zeeman/green_B_on_horizontal.csv

Model,MSO2024
Firmware Version,1.52

Point Format,Y
Horizontal Units,S
Horizontal Scale,0.01
Sample Interval,3.2e-05
Filter Frequency,2e+08
Record Length,3125
Gating,0.0% to 100.0%
Probe Attenuation,1
Vertical Units,V
Vertical Offset,0
Vertical Scale,0.5
Label,
TIME,CH1
7.2400e-03,0.0867187
7.2720e-03,0.0879687
7.3040e-03,0.0917969
7.3360e-03,0.0978906
7.3680e-03,0.0936719
7.4000e-03,0.0908594
7.4320e-03,0.090625
7.4640e-03,0.0891406
7.4960e-03,0.0882812
7.5280e-03,0.0875
7.5600e-03,0.0895313
7.5920e-03,0.09
7.6240e-03,0.0902344
7.6560e-03,0.0880469
7.6880e-03,0.0885938
7.7200e-03,0.0903906
7.7520e-03,0.0890625
7.7840e-03,0.0880469
7.8160e-03,0.0867969
7.8480e-03,0.0866406
7.8800e-03,0.0877344
7.9120e-03,0.089375
7.9440e-03,0.09125
7.9760e-03,0.0900781
8.0080e-03,0.0896875
8.0400e-03,0.0871875
8.0720e-03,0.0886719
8.1040e-03,0.0851563
8.1360e-03,0.08875
8.1680e-03,0.0911719
8.2000e-03,0.0947656
8.2320e-03,0.0978906
8.2640e-03,0.0996094
8.2960e-03,0.0957812
8.3280e-03,0.0954687
8.3600e-03,0.0908594
8.3920e-03,0.0963281
8.4240e-03,0.0959375
8.4560e-03,0.0941406
8.4880e-03,0.0910156
8.5200e-03,0.0989062
8.5520e-03,0.0971875
8.5840e-03,0.0975
8.6160e-03,0.102891
8.6480e-03,0.101484
8.6800e-03,0.101719
8.7120e-03,0.107187
8.7440e-03,0.108281
8.7760e-03,0.106797
8.8080e-03,0.107266
8.8400e-03,0.110625
8.8720e-03,0.11125
8.9040e-03,0.115625
8.9360e-03,0.11625
8.9680e-03,0.113594
9.0000e-03,0.11125
9.0320e-03,0.112109
9.0640e-03,0.112734
9.0960e-03,0.114375
9.1280e-03,0.124219
9.1600e-03,0.124531
9.1920e-03,0.124609
9.2240e-03,0.127578
9.2560e-03,0.128281
9.2880e-03,0.131406
9.3200e-03,0.138281
9.3520e-03,0.137891
9.3840e-03,0.149766
9.4160e-03,0.150859
9.4480e-03,0.156016
9.4800e-03,0.159922
9.5120e-03,0.159062
9.5440e-03,0.165156
9.5760e-03,0.171484
9.6080e-03,0.180391
9.6400e-03,0.187578
9.6720e-03,0.191172
9.7040e-03,0.197734
9.7360e-03,0.213906
9.7680e-03,0.215391
9.8000e-03,0.228906
9.8320e-03,0.231875
9.8640e-03,0.238906
9.8960e-03,0.252891
9.9280e-03,0.253672
9.9600e-03,0.262344
9.9920e-03,0.275156
1.0024e-02,0.275156
1.0056e-02,0.288437
1.0088e-02,0.301016
1.0120e-02,0.303359
1.0152e-02,0.310547
1.0184e-02,0.316641
1.0216e-02,0.335469
1.0248e-02,0.342344
1.0280e-02,0.349531
1.0312e-02,0.353125
1.0344e-02,0.362734
1.0376e-02,0.364141
1.0408e-02,0.36
1.0440e-02,0.368828
1.0472e-02,0.369375
1.0504e-02,0.370078
1.0536e-02,0.366094
1.0568e-02,0.363203
1.0600e-02,0.364609
1.0632e-02,0.360703
1.0664e-02,0.354609
1.0696e-02,0.348203
1.0728e-02,0.351875
1.0760e-02,0.346797
1.0792e-02,0.346328
1.0824e-02,0.326875
1.0856e-02,0.315469
1.0888e-02,0.3075
1.0920e-02,0.303828
1.0952e-02,0.292344
1.0984e-02,0.278906
1.1016e-02,0.258984
1.1048e-02,0.247734
1.1080e-02,0.247578
1.1112e-02,0.245391
1.1144e-02,0.237109
1.1176e-02,0.227266
1.1208e-02,0.225937
1.1240e-02,0.234063
1.1272e-02,0.229375
1.1304e-02,0.225156
1.1336e-02,0.219453
1.1368e-02,0.218828
1.1400e-02,0.212969
1.1432e-02,0.211172
1.1464e-02,0.208906
1.1496e-02,0.213516
1.1528e-02,0.213203
1.1560e-02,0.2175
1.1592e-02,0.2225
1.1624e-02,0.22375
1.1656e-02,0.227266
1.1688e-02,0.230234
1.1720e-02,0.238125
1.1752e-02,0.236094
1.1784e-02,0.242031
1.1816e-02,0.239062
1.1848e-02,0.234766
1.1880e-02,0.248828
1.1912e-02,0.254766
1.1944e-02,0.262266
1.1976e-02,0.262812
1.2008e-02,0.266719
1.2040e-02,0.272031
1.2072e-02,0.277266
1.2104e-02,0.291094
1.2136e-02,0.295781
1.2168e-02,0.299297
1.2200e-02,0.315937
1.2232e-02,0.330469
1.2264e-02,0.347187
1.2296e-02,0.356875
1.2328e-02,0.375703
1.2360e-02,0.396172
1.2392e-02,0.405
1.2424e-02,0.425937
1.2456e-02,0.464375
1.2488e-02,0.509297
1.2520e-02,0.539453
1.2552e-02,0.583125
1.2584e-02,0.615938
1.2616e-02,0.655312
1.2648e-02,0.697188
1.2680e-02,0.743437
1.2712e-02,0.789453
1.2744e-02,0.829453
1.2776e-02,0.877969
1.2808e-02,0.943984
1.2840e-02,0.979453
1.2872e-02,1.04414
1.2904e-02,1.07937
1.2936e-02,1.13906
1.2968e-02,1.18906
1.3000e-02,1.24219
1.3032e-02,1.29742
1.3064e-02,1.33297
1.3096e-02,1.37547
1.3128e-02,1.42539
1.3160e-02,1.43289
1.3192e-02,1.47266
1.3224e-02,1.44836
1.3256e-02,1.47023
1.3288e-02,1.46656
1.3320e-02,1.4707
1.3352e-02,1.46914
1.3384e-02,1.48469
1.3416e-02,1.45
1.3448e-02,1.42219
1.3480e-02,1.36789
1.3512e-02,1.3307
1.3544e-02,1.28422
1.3576e-02,1.25891
1.3608e-02,1.22797
1.3640e-02,1.17906
1.3672e-02,1.13148
1.3704e-02,1.08648
1.3736e-02,1.01859
1.3768e-02,0.961016
1.3800e-02,0.919922
1.3832e-02,0.8725
1.3864e-02,0.839375
1.3896e-02,0.794297
1.3928e-02,0.751328
1.3960e-02,0.718906
1.3992e-02,0.681328
1.4024e-02,0.663594
1.4056e-02,0.642344
1.4088e-02,0.619844
1.4120e-02,0.597578
1.4152e-02,0.5825
1.4184e-02,0.567734
1.4216e-02,0.565937
1.4248e-02,0.569375
1.4280e-02,0.56125
1.4312e-02,0.559375
1.4344e-02,0.552344
1.4376e-02,0.554297
1.4408e-02,0.553828
1.4440e-02,0.560469
1.4472e-02,0.576875
1.4504e-02,0.578125
1.4536e-02,0.595859
1.4568e-02,0.600859
1.4600e-02,0.620234
1.4632e-02,0.629453
1.4664e-02,0.637422
1.4696e-02,0.644453
1.4728e-02,0.663594
1.4760e-02,0.688047
1.4792e-02,0.701094
1.4824e-02,0.700781
1.4856e-02,0.719297
1.4888e-02,0.733594
1.4920e-02,0.761875
1.4952e-02,0.780781
1.4984e-02,0.790156
1.5016e-02,0.812891
1.5048e-02,0.834141
1.5080e-02,0.838828
1.5112e-02,0.848984
1.5144e-02,0.880469
1.5176e-02,0.898672
1.5208e-02,0.955547
1.5240e-02,1.00203
1.5272e-02,1.0443
1.5304e-02,1.10734
1.5336e-02,1.1718
1.5368e-02,1.22789
1.5400e-02,1.29312
1.5432e-02,1.37414
1.5464e-02,1.4507
1.5496e-02,1.56414
1.5528e-02,1.63305
1.5560e-02,1.70906
1.5592e-02,1.79461
1.5624e-02,1.85844
1.5656e-02,1.95531
1.5688e-02,2.04391
1.5720e-02,2.10984
1.5752e-02,2.17547
1.5784e-02,2.23945
1.5816e-02,2.27227
1.5848e-02,2.27312
1.5880e-02,2.27711
1.5912e-02,2.28328
1.5944e-02,2.28094
1.5976e-02,2.26195
1.6008e-02,2.23594
1.6040e-02,2.1925
1.6072e-02,2.13758
1.6104e-02,2.0668
1.6136e-02,1.98789
1.6168e-02,1.89273
1.6200e-02,1.80289
1.6232e-02,1.69578
1.6264e-02,1.59273
1.6296e-02,1.49398
1.6328e-02,1.39195
1.6360e-02,1.30008
1.6392e-02,1.18672
1.6424e-02,1.0882
1.6456e-02,1.01609
1.6488e-02,0.938047
1.6520e-02,0.863047
1.6552e-02,0.807969
1.6584e-02,0.747344
1.6616e-02,0.690547
1.6648e-02,0.640313
1.6680e-02,0.614219
1.6712e-02,0.593047
1.6744e-02,0.56625
1.6776e-02,0.545156
1.6808e-02,0.526563
1.6840e-02,0.519688
1.6872e-02,0.515625
1.6904e-02,0.512188
1.6936e-02,0.497109
1.6968e-02,0.491016
1.7000e-02,0.491562
1.7032e-02,0.493984
1.7064e-02,0.491875
1.7096e-02,0.4775
1.7128e-02,0.462422
1.7160e-02,0.456641
1.7192e-02,0.452187
1.7224e-02,0.450391
1.7256e-02,0.449688
1.7288e-02,0.449688
1.7320e-02,0.445078
1.7352e-02,0.44125
1.7384e-02,0.424531
1.7416e-02,0.415391
1.7448e-02,0.410391
1.7480e-02,0.41125
1.7512e-02,0.419375
1.7544e-02,0.451797
1.7576e-02,0.470859
1.7608e-02,0.495078
1.7640e-02,0.525547
1.7672e-02,0.558359
1.7704e-02,0.589297
1.7736e-02,0.641953
1.7768e-02,0.694844
1.7800e-02,0.736484
1.7832e-02,0.798672
1.7864e-02,0.852422
1.7896e-02,0.895234
1.7928e-02,0.955391
1.7960e-02,1.03828
1.7992e-02,1.09102
1.8024e-02,1.1293
1.8056e-02,1.19781
1.8088e-02,1.25055
1.8120e-02,1.2932
1.8152e-02,1.34477
1.8184e-02,1.37008
1.8216e-02,1.38328
1.8248e-02,1.41906
1.8280e-02,1.44492
1.8312e-02,1.46992
1.8344e-02,1.46156
1.8376e-02,1.43477
1.8408e-02,1.41984
1.8440e-02,1.39086
1.8472e-02,1.36602
1.8504e-02,1.35219
1.8536e-02,1.31344
1.8568e-02,1.24562
1.8600e-02,1.17211
1.8632e-02,1.11883
1.8664e-02,1.05531
1.8696e-02,1.01281
1.8728e-02,0.955781
1.8760e-02,0.890156
1.8792e-02,0.818359
1.8824e-02,0.755
1.8856e-02,0.689453
1.8888e-02,0.621406
1.8920e-02,0.561094
1.8952e-02,0.505156
1.8984e-02,0.465469
1.9016e-02,0.428828
1.9048e-02,0.401016
1.9080e-02,0.370313
1.9112e-02,0.345547
1.9144e-02,0.323906
1.9176e-02,0.295234
1.9208e-02,0.278672
1.9240e-02,0.265625
1.9272e-02,0.256094
1.9304e-02,0.247031
1.9336e-02,0.243516
1.9368e-02,0.235469
1.9400e-02,0.228594
1.9432e-02,0.210703
1.9464e-02,0.201797
1.9496e-02,0.196094
1.9528e-02,0.190703
1.9560e-02,0.183359
1.9592e-02,0.1775
1.9624e-02,0.175234
1.9656e-02,0.16875
1.9688e-02,0.173437
1.9720e-02,0.176875
1.9752e-02,0.174141
1.9784e-02,0.177109
1.9816e-02,0.176406
1.9848e-02,0.176797
1.9880e-02,0.181406
1.9912e-02,0.182969
1.9944e-02,0.179141
1.9976e-02,0.181094
2.0008e-02,0.181172
2.0040e-02,0.186797
2.0072e-02,0.186719
2.0104e-02,0.188828
2.0136e-02,0.204141
2.0168e-02,0.210547
2.0200e-02,0.215547
2.0232e-02,0.219766
2.0264e-02,0.228203
2.0296e-02,0.235625
2.0328e-02,0.244687
2.0360e-02,0.247812
2.0392e-02,0.243125
2.0424e-02,0.24375
2.0456e-02,0.246563
2.0488e-02,0.250469
2.0520e-02,0.251797
2.0552e-02,0.255625
2.0584e-02,0.256484
2.0616e-02,0.264531
2.0648e-02,0.267187
2.0680e-02,0.269219
2.0712e-02,0.267891
2.0744e-02,0.26625
2.0776e-02,0.253594
2.0808e-02,0.245391
2.0840e-02,0.229766
2.0872e-02,0.228281
2.0904e-02,0.219531
2.0936e-02,0.205937
2.0968e-02,0.196875
2.1000e-02,0.187344
2.1032e-02,0.17625
2.1064e-02,0.163516
2.1096e-02,0.148125
2.1128e-02,0.143516
2.1160e-02,0.129375
2.1192e-02,0.121328
2.1224e-02,0.111875
2.1256e-02,0.103203
2.1288e-02,0.0975
2.1320e-02,0.0898438
2.1352e-02,0.0890625
2.1384e-02,0.0858594
2.1416e-02,0.0815625
2.1448e-02,0.0814062
2.1480e-02,0.0819531
2.1512e-02,0.0820312
2.1544e-02,0.0783594
2.1576e-02,0.0780469
2.1608e-02,0.0764844
2.1640e-02,0.0707813
2.1672e-02,0.0697656
2.1704e-02,0.0673438
2.1736e-02,0.0695313
2.1768e-02,0.0692187
2.1800e-02,0.0692969
2.1832e-02,0.0683594
2.1864e-02,0.0673438
2.1896e-02,0.0663281
2.1928e-02,0.0609375
2.1960e-02,0.0621875
2.1992e-02,0.0646875
2.2024e-02,0.0661719
2.2056e-02,0.0619531
2.2088e-02,0.0664062
2.2120e-02,0.0657812
2.2152e-02,0.0645312
2.2184e-02,0.0616406
2.2216e-02,0.0607813
2.2248e-02,0.0595313
2.2280e-02,0.0665625
2.2312e-02,0.0696875
2.2344e-02,0.0677344
2.2376e-02,0.066875
2.2408e-02,0.0685938
2.2440e-02,0.0663281
2.2472e-02,0.0649219
2.2504e-02,0.0661719
2.2536e-02,0.0675
2.2568e-02,0.06375
2.2600e-02,0.0671094
2.2632e-02,0.0701562
2.2664e-02,0.0675781
2.2696e-02,0.0698437
2.2728e-02,0.07
2.2760e-02,0.0699219
2.2792e-02,0.0732812
2.2824e-02,0.0725
2.2856e-02,0.0750781
2.2888e-02,0.0745312
2.2920e-02,0.0725781
2.2952e-02,0.0703125
2.2984e-02,0.0753125
2.3016e-02,0.0698437
2.3048e-02,0.0683594
2.3080e-02,0.0671094
2.3112e-02,0.0697656
2.3144e-02,0.0689062
2.3176e-02,0.0657812
2.3208e-02,0.0609375
2.3240e-02,0.0575781
2.3272e-02,0.0614062
2.3304e-02,0.0628125
2.3336e-02,0.0640625
2.3368e-02,0.0634375
2.3400e-02,0.0640625
2.3432e-02,0.0610937
2.3464e-02,0.0602344
2.3496e-02,0.0603125
2.3528e-02,0.0620312
2.3560e-02,0.0573438
2.3592e-02,0.0565625
2.3624e-02,0.0571875
2.3656e-02,0.0567187
2.3688e-02,0.0530469
2.3720e-02,0.0548437
2.3752e-02,0.0528906
2.3784e-02,0.0553125
2.3816e-02,0.0533594
2.3848e-02,0.0517188
2.3880e-02,0.0553125
2.3912e-02,0.0516406
2.3944e-02,0.0520312
2.3976e-02,0.050625
2.4008e-02,0.0534375
2.4040e-02,0.0527344
2.4072e-02,0.055
2.4104e-02,0.0547656
2.4136e-02,0.0560156
2.4168e-02,0.0544531
2.4200e-02,0.0508594
2.4232e-02,0.0499219
2.4264e-02,0.0511719
2.4296e-02,0.0523437
2.4328e-02,0.0541406
2.4360e-02,0.0571875
2.4392e-02,0.0601562
2.4424e-02,0.0585938
2.4456e-02,0.05875
2.4488e-02,0.0570312
2.4520e-02,0.0558594
2.4552e-02,0.0544531
2.4584e-02,0.0582031
2.4616e-02,0.0613281
2.4648e-02,0.0594531
2.4680e-02,0.0571094
2.4712e-02,0.0570312
2.4744e-02,0.0564844
2.4776e-02,0.0588281
2.4808e-02,0.0565625
2.4840e-02,0.056875
2.4872e-02,0.0588281
2.4904e-02,0.0598437
2.4936e-02,0.058125
2.4968e-02,0.05625
2.5000e-02,0.064375
2.5032e-02,0.0660938
2.5064e-02,0.0635156
2.5096e-02,0.0607031
2.5128e-02,0.0625
2.5160e-02,0.0609375
2.5192e-02,0.0619531
2.5224e-02,0.0616406
2.5256e-02,0.0592187
2.5288e-02,0.0616406
2.5320e-02,0.0639063
2.5352e-02,0.0659375
2.5384e-02,0.068125
2.5416e-02,0.0679687
2.5448e-02,0.069375
2.5480e-02,0.0676562
2.5512e-02,0.0660156
2.5544e-02,0.0661719
2.5576e-02,0.0659375
2.5608e-02,0.0635156
2.5640e-02,0.0657031
2.5672e-02,0.0625781
2.5704e-02,0.0601562
2.5736e-02,0.0639063
2.5768e-02,0.0625781
2.5800e-02,0.0614062
2.5832e-02,0.0620312
2.5864e-02,0.0622656
2.5896e-02,0.0621875
2.5928e-02,0.0597656
2.5960e-02,0.0597656
2.5992e-02,0.0603906
2.6024e-02,0.0609375
2.6056e-02,0.0582031
2.6088e-02,0.0567969
2.6120e-02,0.0573438
2.6152e-02,0.05375
2.6184e-02,0.053125
2.6216e-02,0.0545312
2.6248e-02,0.0549219
2.6280e-02,0.0574219
2.6312e-02,0.0547656
2.6344e-02,0.0511719
2.6376e-02,0.0546094
2.6408e-02,0.0542969
2.6440e-02,0.0504688
2.6472e-02,0.0519531
2.6504e-02,0.0536719
2.6536e-02,0.0589062
2.6568e-02,0.0582031
2.6600e-02,0.054375
2.6632e-02,0.0547656
2.6664e-02,0.0560938
2.6696e-02,0.0503906
2.6728e-02,0.0503906
2.6760e-02,0.05
2.6792e-02,0.0491406
2.6824e-02,0.0505469
2.6856e-02,0.0503906
2.6888e-02,0.0501562
2.6920e-02,0.0548437
2.6952e-02,0.0566406
2.6984e-02,0.0528125
2.7016e-02,0.0541406
2.7048e-02,0.0538281
2.7080e-02,0.0535937
2.7112e-02,0.0516406
2.7144e-02,0.0498437
2.7176e-02,0.0499219
2.7208e-02,0.0498437
2.7240e-02,0.05
2.7272e-02,0.0517969
2.7304e-02,0.0504688
2.7336e-02,0.0503906
2.7368e-02,0.05
2.7400e-02,0.0516406
2.7432e-02,0.0510937
2.7464e-02,0.0507812
2.7496e-02,0.05
2.7528e-02,0.0500781
2.7560e-02,0.0503125
2.7592e-02,0.0534375
2.7624e-02,0.0569531
2.7656e-02,0.0555469
2.7688e-02,0.0539063
2.7720e-02,0.0535156
2.7752e-02,0.0523437
2.7784e-02,0.0510937
2.7816e-02,0.0514062
2.7848e-02,0.0535937
2.7880e-02,0.0527344
2.7912e-02,0.0541406
2.7944e-02,0.0575
2.7976e-02,0.0563281
2.8008e-02,0.0570312
2.8040e-02,0.0539844
2.8072e-02,0.0522656
2.8104e-02,0.0547656
2.8136e-02,0.0577344
2.8168e-02,0.0567969
2.8200e-02,0.0580469
2.8232e-02,0.0552344
2.8264e-02,0.0550781
2.8296e-02,0.0588281
2.8328e-02,0.0590625
2.8360e-02,0.0595313
2.8392e-02,0.0542187
2.8424e-02,0.059375
2.8456e-02,0.0564844
2.8488e-02,0.0536719
2.8520e-02,0.0538281
2.8552e-02,0.0549219
2.8584e-02,0.054375
2.8616e-02,0.0553906
2.8648e-02,0.0578906
2.8680e-02,0.0546094
2.8712e-02,0.0567969
2.8744e-02,0.0522656
2.8776e-02,0.055625
2.8808e-02,0.0567969
2.8840e-02,0.055625
2.8872e-02,0.0521875
2.8904e-02,0.0546094
2.8936e-02,0.0534375
2.8968e-02,0.0526562
2.9000e-02,0.0566406
2.9032e-02,0.0526562
2.9064e-02,0.0507812
2.9096e-02,0.0578906
2.9128e-02,0.0557031
2.9160e-02,0.0535937
2.9192e-02,0.0538281
2.9224e-02,0.0560156
2.9256e-02,0.0557812
2.9288e-02,0.054375
2.9320e-02,0.053125
2.9352e-02,0.0535937
2.9384e-02,0.056875
2.9416e-02,0.0547656
2.9448e-02,0.0528906
2.9480e-02,0.0538281
2.9512e-02,0.0557031
2.9544e-02,0.0607813
2.9576e-02,0.0585938
2.9608e-02,0.0534375
2.9640e-02,0.0546094
2.9672e-02,0.058125
2.9704e-02,0.0540625
2.9736e-02,0.0569531
2.9768e-02,0.0567969
2.9800e-02,0.0560156
2.9832e-02,0.0559375
2.9864e-02,0.059375
2.9896e-02,0.06
2.9928e-02,0.0589062
2.9960e-02,0.0614844
2.9992e-02,0.0638281
3.0024e-02,0.0628906
3.0056e-02,0.0654687
3.0088e-02,0.0619531
3.0120e-02,0.0636719
3.0152e-02,0.0667969
3.0184e-02,0.0675
3.0216e-02,0.0667969
3.0248e-02,0.07
3.0280e-02,0.0703125
3.0312e-02,0.0710156
3.0344e-02,0.0732031
3.0376e-02,0.0730469
3.0408e-02,0.07125
3.0440e-02,0.0732031
3.0472e-02,0.0701562
3.0504e-02,0.0682031
3.0536e-02,0.0661719
3.0568e-02,0.068125
3.0600e-02,0.0700781
3.0632e-02,0.070625
3.0664e-02,0.0710156
3.0696e-02,0.0704687
3.0728e-02,0.0701562
3.0760e-02,0.0696094
3.0792e-02,0.0654687
3.0824e-02,0.0698437
3.0856e-02,0.066875
3.0888e-02,0.0642969
3.0920e-02,0.0672656
3.0952e-02,0.0689062
3.0984e-02,0.0685938
3.1016e-02,0.0659375
3.1048e-02,0.0635156
3.1080e-02,0.0614062
3.1112e-02,0.06125
3.1144e-02,0.0600781
3.1176e-02,0.0664062
3.1208e-02,0.0684375
3.1240e-02,0.0692969
3.1272e-02,0.0699219
3.1304e-02,0.0696875
3.1336e-02,0.0723437
3.1368e-02,0.0710156
3.1400e-02,0.0696875
3.1432e-02,0.0698437
3.1464e-02,0.0664062
3.1496e-02,0.0692187
3.1528e-02,0.0703125
3.1560e-02,0.0713281
3.1592e-02,0.0733594
3.1624e-02,0.0785938
3.1656e-02,0.0784375
3.1688e-02,0.0795313
3.1720e-02,0.0744531
3.1752e-02,0.0740625
3.1784e-02,0.0764844
3.1816e-02,0.0778906
3.1848e-02,0.08375
3.1880e-02,0.0841406
3.1912e-02,0.0835937
3.1944e-02,0.0873438
3.1976e-02,0.0925
3.2008e-02,0.0952344
3.2040e-02,0.0996094
3.2072e-02,0.0985156
3.2104e-02,0.102031
3.2136e-02,0.105781
3.2168e-02,0.110703
3.2200e-02,0.121406
3.2232e-02,0.125781
3.2264e-02,0.134375
3.2296e-02,0.148281
3.2328e-02,0.159531
3.2360e-02,0.169297
3.2392e-02,0.186875
3.2424e-02,0.202578
3.2456e-02,0.211719
3.2488e-02,0.223359
3.2520e-02,0.241484
3.2552e-02,0.254844
3.2584e-02,0.271016
3.2616e-02,0.285312
3.2648e-02,0.295625
3.2680e-02,0.296484
3.2712e-02,0.301953
3.2744e-02,0.310469
3.2776e-02,0.311406
3.2808e-02,0.320234
3.2840e-02,0.325937
3.2872e-02,0.3325
3.2904e-02,0.332109
3.2936e-02,0.326641
3.2968e-02,0.318906
3.3000e-02,0.327109
3.3032e-02,0.319453
3.3064e-02,0.304531
3.3096e-02,0.28875
3.3128e-02,0.280625
3.3160e-02,0.276641
3.3192e-02,0.263672
3.3224e-02,0.261016
3.3256e-02,0.254062
3.3288e-02,0.240703
3.3320e-02,0.232031
3.3352e-02,0.228125
3.3384e-02,0.21875
3.3416e-02,0.214141
3.3448e-02,0.208047
3.3480e-02,0.209141
3.3512e-02,0.2075
3.3544e-02,0.210156
3.3576e-02,0.21
3.3608e-02,0.220469
3.3640e-02,0.230703
3.3672e-02,0.234063
3.3704e-02,0.243594
3.3736e-02,0.251953
3.3768e-02,0.261953
3.3800e-02,0.266328
3.3832e-02,0.275391
3.3864e-02,0.293984
3.3896e-02,0.298672
3.3928e-02,0.319063
3.3960e-02,0.346328
3.3992e-02,0.371016
3.4024e-02,0.399844
3.4056e-02,0.430391
3.4088e-02,0.469062
3.4120e-02,0.495234
3.4152e-02,0.546484
3.4184e-02,0.591484
3.4216e-02,0.654687
3.4248e-02,0.719844
3.4280e-02,0.763203
3.4312e-02,0.831484
3.4344e-02,0.895156
3.4376e-02,0.959375
3.4408e-02,1.02234
3.4440e-02,1.07297
3.4472e-02,1.14812
3.4504e-02,1.20437
3.4536e-02,1.23672
3.4568e-02,1.26352
3.4600e-02,1.30711
3.4632e-02,1.35383
3.4664e-02,1.37133
3.4696e-02,1.37914
3.4728e-02,1.37242
3.4760e-02,1.37031
3.4792e-02,1.36805
3.4824e-02,1.36172
3.4856e-02,1.34477
3.4888e-02,1.32859
3.4920e-02,1.29367
3.4952e-02,1.25695
3.4984e-02,1.21711
3.5016e-02,1.15977
3.5048e-02,1.11102
3.5080e-02,1.05758
3.5112e-02,1.00602
3.5144e-02,0.956562
3.5176e-02,0.902891
3.5208e-02,0.855547
3.5240e-02,0.807422
3.5272e-02,0.771328
3.5304e-02,0.720234
3.5336e-02,0.68
3.5368e-02,0.638906
3.5400e-02,0.626172
3.5432e-02,0.608828
3.5464e-02,0.590859
3.5496e-02,0.583984
3.5528e-02,0.577813
3.5560e-02,0.567187
3.5592e-02,0.570391
3.5624e-02,0.584844
3.5656e-02,0.596406
3.5688e-02,0.595391
3.5720e-02,0.612891
3.5752e-02,0.631875
3.5784e-02,0.635625
3.5816e-02,0.645781
3.5848e-02,0.653437
3.5880e-02,0.672578
3.5912e-02,0.68625
3.5944e-02,0.709062
3.5976e-02,0.718594
3.6008e-02,0.722031
3.6040e-02,0.745937
3.6072e-02,0.770078
3.6104e-02,0.822656
3.6136e-02,0.874141
3.6168e-02,0.908984
3.6200e-02,0.944141
3.6232e-02,1.00625
3.6264e-02,1.05047
3.6296e-02,1.11437
3.6328e-02,1.17898
3.6360e-02,1.26766
3.6392e-02,1.34969
3.6424e-02,1.41922
3.6456e-02,1.50234
3.6488e-02,1.57617
3.6520e-02,1.66195
3.6552e-02,1.72578
3.6584e-02,1.81422
3.6616e-02,1.90086
3.6648e-02,1.9543
3.6680e-02,1.99273
3.6712e-02,2.04562
3.6744e-02,2.08695
3.6776e-02,2.11828
3.6808e-02,2.12844
3.6840e-02,2.11578
3.6872e-02,2.10883
3.6904e-02,2.04859
3.6936e-02,2.02219
3.6968e-02,1.9757
3.7000e-02,1.93383
3.7032e-02,1.88109
3.7064e-02,1.80992
3.7096e-02,1.70625
3.7128e-02,1.62523
3.7160e-02,1.53531
3.7192e-02,1.44031
3.7224e-02,1.35055
3.7256e-02,1.24867
3.7288e-02,1.14234
3.7320e-02,1.05203
3.7352e-02,0.966719
3.7384e-02,0.906953
3.7416e-02,0.840234
3.7448e-02,0.767813
3.7480e-02,0.703984
3.7512e-02,0.66
3.7544e-02,0.620313
3.7576e-02,0.579531
3.7608e-02,0.550156
3.7640e-02,0.536328
3.7672e-02,0.513125
3.7704e-02,0.494063
3.7736e-02,0.478203
3.7768e-02,0.481562
3.7800e-02,0.473594
3.7832e-02,0.465859
3.7864e-02,0.455937
3.7896e-02,0.459688
3.7928e-02,0.461484
3.7960e-02,0.461094
3.7992e-02,0.467187
3.8024e-02,0.463984
3.8056e-02,0.465625
3.8088e-02,0.450547
3.8120e-02,0.451797
3.8152e-02,0.460859
3.8184e-02,0.491484
3.8216e-02,0.514141
3.8248e-02,0.536172
3.8280e-02,0.563594
3.8312e-02,0.591406
3.8344e-02,0.625078
3.8376e-02,0.678516
3.8408e-02,0.729141
3.8440e-02,0.779375
3.8472e-02,0.831406
3.8504e-02,0.910703
3.8536e-02,0.950703
3.8568e-02,0.999219
3.8600e-02,1.05563
3.8632e-02,1.12133
3.8664e-02,1.18992
3.8696e-02,1.2075
