Phys432_Jupyter/Zeeman/green_B_off.csv

Model,MSO2024
Firmware Version,1.52

Point Format,Y
Horizontal Units,S
Horizontal Scale,0.01
Sample Interval,3.2e-05
Filter Frequency,2e+08
Record Length,3125
Gating,0.0% to 100.0%
Probe Attenuation,1
Vertical Units,V
Vertical Offset,0
Vertical Scale,2
Label,
TIME,CH1
8.6000e-03,0.240313
8.6320e-03,0.24
8.6640e-03,0.239375
8.6960e-03,0.235625
8.7280e-03,0.224375
8.7600e-03,0.227813
8.7920e-03,0.213438
8.8240e-03,0.20875
8.8560e-03,0.20625
8.8880e-03,0.196875
8.9200e-03,0.190625
8.9520e-03,0.19375
8.9840e-03,0.189063
9.0160e-03,0.185
9.0480e-03,0.18375
9.0800e-03,0.173125
9.1120e-03,0.171563
9.1440e-03,0.170938
9.1760e-03,0.161875
9.2080e-03,0.16
9.2400e-03,0.16
9.2720e-03,0.16
9.3040e-03,0.16
9.3360e-03,0.16
9.3680e-03,0.159688
9.4000e-03,0.16
9.4320e-03,0.159688
9.4640e-03,0.16
9.4960e-03,0.160313
9.5280e-03,0.160313
9.5600e-03,0.154688
9.5920e-03,0.159688
9.6240e-03,0.159688
9.6560e-03,0.157813
9.6880e-03,0.157188
9.7200e-03,0.148438
9.7520e-03,0.150625
9.7840e-03,0.14375
9.8160e-03,0.144375
9.8480e-03,0.15
9.8800e-03,0.149688
9.9120e-03,0.143438
9.9440e-03,0.154063
9.9760e-03,0.15
1.0008e-02,0.1375
1.0040e-02,0.135938
1.0072e-02,0.140313
1.0104e-02,0.142188
1.0136e-02,0.135313
1.0168e-02,0.145938
1.0200e-02,0.14875
1.0232e-02,0.1375
1.0264e-02,0.135625
1.0296e-02,0.126875
1.0328e-02,0.136563
1.0360e-02,0.135
1.0392e-02,0.132813
1.0424e-02,0.142188
1.0456e-02,0.14375
1.0488e-02,0.139375
1.0520e-02,0.1375
1.0552e-02,0.136563
1.0584e-02,0.13375
1.0616e-02,0.139688
1.0648e-02,0.14
1.0680e-02,0.13125
1.0712e-02,0.136563
1.0744e-02,0.14
1.0776e-02,0.13125
1.0808e-02,0.135313
1.0840e-02,0.129375
1.0872e-02,0.125938
1.0904e-02,0.128125
1.0936e-02,0.128125
1.0968e-02,0.13375
1.1000e-02,0.1325
1.1032e-02,0.130625
1.1064e-02,0.13375
1.1096e-02,0.138125
1.1128e-02,0.135938
1.1160e-02,0.128438
1.1192e-02,0.131875
1.1224e-02,0.129375
1.1256e-02,0.1225
1.1288e-02,0.130938
1.1320e-02,0.125313
1.1352e-02,0.121875
1.1384e-02,0.124375
1.1416e-02,0.12375
1.1448e-02,0.121875
1.1480e-02,0.11875
1.1512e-02,0.125313
1.1544e-02,0.125625
1.1576e-02,0.122188
1.1608e-02,0.117813
1.1640e-02,0.125625
1.1672e-02,0.12375
1.1704e-02,0.123125
1.1736e-02,0.12375
1.1768e-02,0.13125
1.1800e-02,0.130625
1.1832e-02,0.1325
1.1864e-02,0.128125
1.1896e-02,0.12625
1.1928e-02,0.132813
1.1960e-02,0.123125
1.1992e-02,0.127813
1.2024e-02,0.123438
1.2056e-02,0.125938
1.2088e-02,0.123125
1.2120e-02,0.116563
1.2152e-02,0.116875
1.2184e-02,0.118438
1.2216e-02,0.12375
1.2248e-02,0.128438
1.2280e-02,0.127813
1.2312e-02,0.120625
1.2344e-02,0.125313
1.2376e-02,0.130313
1.2408e-02,0.1325
1.2440e-02,0.129375
1.2472e-02,0.12125
1.2504e-02,0.116563
1.2536e-02,0.119375
1.2568e-02,0.123438
1.2600e-02,0.126875
1.2632e-02,0.1175
1.2664e-02,0.125
1.2696e-02,0.122188
1.2728e-02,0.120313
1.2760e-02,0.115938
1.2792e-02,0.124375
1.2824e-02,0.113438
1.2856e-02,0.114375
1.2888e-02,0.115
1.2920e-02,0.123438
1.2952e-02,0.124063
1.2984e-02,0.123125
1.3016e-02,0.121563
1.3048e-02,0.115938
1.3080e-02,0.118438
1.3112e-02,0.120938
1.3144e-02,0.1225
1.3176e-02,0.118438
1.3208e-02,0.11875
1.3240e-02,0.120938
1.3272e-02,0.115938
1.3304e-02,0.114375
1.3336e-02,0.116875
1.3368e-02,0.120625
1.3400e-02,0.127188
1.3432e-02,0.136563
1.3464e-02,0.127813
1.3496e-02,0.127188
1.3528e-02,0.127188
1.3560e-02,0.122188
1.3592e-02,0.123438
1.3624e-02,0.127813
1.3656e-02,0.1225
1.3688e-02,0.135313
1.3720e-02,0.130625
1.3752e-02,0.1375
1.3784e-02,0.125938
1.3816e-02,0.122188
1.3848e-02,0.118125
1.3880e-02,0.118438
1.3912e-02,0.113125
1.3944e-02,0.121563
1.3976e-02,0.115313
1.4008e-02,0.12
1.4040e-02,0.124375
1.4072e-02,0.122188
1.4104e-02,0.11625
1.4136e-02,0.123438
1.4168e-02,0.12125
1.4200e-02,0.1225
1.4232e-02,0.130313
1.4264e-02,0.125625
1.4296e-02,0.13
1.4328e-02,0.123438
1.4360e-02,0.124375
1.4392e-02,0.110625
1.4424e-02,0.111563
1.4456e-02,0.110625
1.4488e-02,0.111563
1.4520e-02,0.11875
1.4552e-02,0.1125
1.4584e-02,0.111875
1.4616e-02,0.115625
1.4648e-02,0.120625
1.4680e-02,0.1225
1.4712e-02,0.12
1.4744e-02,0.120313
1.4776e-02,0.11375
1.4808e-02,0.122813
1.4840e-02,0.121563
1.4872e-02,0.123438
1.4904e-02,0.120938
1.4936e-02,0.112813
1.4968e-02,0.117188
1.5000e-02,0.12125
1.5032e-02,0.122188
1.5064e-02,0.116563
1.5096e-02,0.114063
1.5128e-02,0.112188
1.5160e-02,0.11875
1.5192e-02,0.12
1.5224e-02,0.119375
1.5256e-02,0.120625
1.5288e-02,0.1225
1.5320e-02,0.116875
1.5352e-02,0.114063
1.5384e-02,0.111563
1.5416e-02,0.109375
1.5448e-02,0.11375
1.5480e-02,0.116875
1.5512e-02,0.117813
1.5544e-02,0.120313
1.5576e-02,0.123125
1.5608e-02,0.120625
1.5640e-02,0.12375
1.5672e-02,0.126875
1.5704e-02,0.126875
1.5736e-02,0.122813
1.5768e-02,0.125938
1.5800e-02,0.12875
1.5832e-02,0.128438
1.5864e-02,0.125625
1.5896e-02,0.12
1.5928e-02,0.116875
1.5960e-02,0.124688
1.5992e-02,0.121875
1.6024e-02,0.128125
1.6056e-02,0.120313
1.6088e-02,0.121563
1.6120e-02,0.11625
1.6152e-02,0.114063
1.6184e-02,0.116563
1.6216e-02,0.116875
1.6248e-02,0.116875
1.6280e-02,0.1175
1.6312e-02,0.114063
1.6344e-02,0.117813
1.6376e-02,0.125938
1.6408e-02,0.123125
1.6440e-02,0.118438
1.6472e-02,0.124063
1.6504e-02,0.12625
1.6536e-02,0.124688
1.6568e-02,0.12875
1.6600e-02,0.12875
1.6632e-02,0.124063
1.6664e-02,0.128438
1.6696e-02,0.1275
1.6728e-02,0.126563
1.6760e-02,0.129688
1.6792e-02,0.122813
1.6824e-02,0.124375
1.6856e-02,0.127813
1.6888e-02,0.12125
1.6920e-02,0.12
1.6952e-02,0.116875
1.6984e-02,0.115
1.7016e-02,0.124375
1.7048e-02,0.12625
1.7080e-02,0.128125
1.7112e-02,0.1275
1.7144e-02,0.125938
1.7176e-02,0.119688
1.7208e-02,0.120938
1.7240e-02,0.128438
1.7272e-02,0.123125
1.7304e-02,0.121563
1.7336e-02,0.130938
1.7368e-02,0.12375
1.7400e-02,0.127188
1.7432e-02,0.125938
1.7464e-02,0.124063
1.7496e-02,0.119063
1.7528e-02,0.120625
1.7560e-02,0.12125
1.7592e-02,0.12375
1.7624e-02,0.120313
1.7656e-02,0.122188
1.7688e-02,0.11875
1.7720e-02,0.116875
1.7752e-02,0.1175
1.7784e-02,0.117188
1.7816e-02,0.12
1.7848e-02,0.122813
1.7880e-02,0.122188
1.7912e-02,0.1225
1.7944e-02,0.125625
1.7976e-02,0.125625
1.8008e-02,0.1225
1.8040e-02,0.129688
1.8072e-02,0.1275
1.8104e-02,0.132813
1.8136e-02,0.125
1.8168e-02,0.130625
1.8200e-02,0.130625
1.8232e-02,0.13375
1.8264e-02,0.127813
1.8296e-02,0.135313
1.8328e-02,0.127813
1.8360e-02,0.129063
1.8392e-02,0.13125
1.8424e-02,0.130938
1.8456e-02,0.125625
1.8488e-02,0.12875
1.8520e-02,0.134063
1.8552e-02,0.128125
1.8584e-02,0.132813
1.8616e-02,0.128125
1.8648e-02,0.12875
1.8680e-02,0.124688
1.8712e-02,0.126563
1.8744e-02,0.1325
1.8776e-02,0.131563
1.8808e-02,0.122188
1.8840e-02,0.125313
1.8872e-02,0.126875
1.8904e-02,0.125625
1.8936e-02,0.131563
1.8968e-02,0.130313
1.9000e-02,0.128438
1.9032e-02,0.128438
1.9064e-02,0.12
1.9096e-02,0.124375
1.9128e-02,0.123438
1.9160e-02,0.128125
1.9192e-02,0.127813
1.9224e-02,0.137188
1.9256e-02,0.134375
1.9288e-02,0.13875
1.9320e-02,0.13625
1.9352e-02,0.12875
1.9384e-02,0.134375
1.9416e-02,0.134375
1.9448e-02,0.13125
1.9480e-02,0.125313
1.9512e-02,0.126875
1.9544e-02,0.134688
1.9576e-02,0.140625
1.9608e-02,0.139688
1.9640e-02,0.132813
1.9672e-02,0.13625
1.9704e-02,0.137813
1.9736e-02,0.134063
1.9768e-02,0.138125
1.9800e-02,0.141563
1.9832e-02,0.1375
1.9864e-02,0.141563
1.9896e-02,0.139375
1.9928e-02,0.14
1.9960e-02,0.139375
1.9992e-02,0.138125
2.0024e-02,0.142188
2.0056e-02,0.148438
2.0088e-02,0.15125
2.0120e-02,0.146563
2.0152e-02,0.150313
2.0184e-02,0.152188
2.0216e-02,0.1475
2.0248e-02,0.139688
2.0280e-02,0.1475
2.0312e-02,0.153125
2.0344e-02,0.150938
2.0376e-02,0.154688
2.0408e-02,0.1475
2.0440e-02,0.160313
2.0472e-02,0.16
2.0504e-02,0.156563
2.0536e-02,0.16
2.0568e-02,0.160313
2.0600e-02,0.160625
2.0632e-02,0.16125
2.0664e-02,0.160625
2.0696e-02,0.160625
2.0728e-02,0.162188
2.0760e-02,0.161563
2.0792e-02,0.16375
2.0824e-02,0.161563
2.0856e-02,0.160313
2.0888e-02,0.159688
2.0920e-02,0.1625
2.0952e-02,0.165625
2.0984e-02,0.164688
2.1016e-02,0.16125
2.1048e-02,0.161563
2.1080e-02,0.160625
2.1112e-02,0.16125
2.1144e-02,0.16625
2.1176e-02,0.177188
2.1208e-02,0.17
2.1240e-02,0.163438
2.1272e-02,0.172813
2.1304e-02,0.168125
2.1336e-02,0.163438
2.1368e-02,0.165
2.1400e-02,0.160625
2.1432e-02,0.166563
2.1464e-02,0.172813
2.1496e-02,0.179063
2.1528e-02,0.173125
2.1560e-02,0.174688
2.1592e-02,0.170313
2.1624e-02,0.183125
2.1656e-02,0.186875
2.1688e-02,0.189063
2.1720e-02,0.194688
2.1752e-02,0.196563
2.1784e-02,0.196875
2.1816e-02,0.191563
2.1848e-02,0.199375
2.1880e-02,0.202188
2.1912e-02,0.211875
2.1944e-02,0.219375
2.1976e-02,0.225938
2.2008e-02,0.2325
2.2040e-02,0.234688
2.2072e-02,0.241563
2.2104e-02,0.242188
2.2136e-02,0.244688
2.2168e-02,0.246563
2.2200e-02,0.255
2.2232e-02,0.272188
2.2264e-02,0.27375
2.2296e-02,0.292188
2.2328e-02,0.298125
2.2360e-02,0.304375
2.2392e-02,0.31875
2.2424e-02,0.322188
2.2456e-02,0.323438
2.2488e-02,0.329375
2.2520e-02,0.360313
2.2552e-02,0.378125
2.2584e-02,0.39125
2.2616e-02,0.402188
2.2648e-02,0.4075
2.2680e-02,0.413125
2.2712e-02,0.435938
2.2744e-02,0.4575
2.2776e-02,0.471563
2.2808e-02,0.484375
2.2840e-02,0.494688
2.2872e-02,0.515938
2.2904e-02,0.511875
2.2936e-02,0.535313
2.2968e-02,0.5625
2.3000e-02,0.560313
2.3032e-02,0.56125
2.3064e-02,0.573125
2.3096e-02,0.596875
2.3128e-02,0.608438
2.3160e-02,0.609063
2.3192e-02,0.610313
2.3224e-02,0.640313
2.3256e-02,0.634375
2.3288e-02,0.642813
2.3320e-02,0.644375
2.3352e-02,0.649375
2.3384e-02,0.662188
2.3416e-02,0.7075
2.3448e-02,0.724688
2.3480e-02,0.746563
2.3512e-02,0.76625
2.3544e-02,0.809063
2.3576e-02,0.835938
2.3608e-02,0.880313
2.3640e-02,0.912188
2.3672e-02,0.950625
2.3704e-02,1.00938
2.3736e-02,1.07875
2.3768e-02,1.10219
2.3800e-02,1.13438
2.3832e-02,1.18719
2.3864e-02,1.21813
2.3896e-02,1.27375
2.3928e-02,1.33031
2.3960e-02,1.37938
2.3992e-02,1.40625
2.4024e-02,1.45844
2.4056e-02,1.5125
2.4088e-02,1.56125
2.4120e-02,1.61563
2.4152e-02,1.6275
2.4184e-02,1.63219
2.4216e-02,1.64844
2.4248e-02,1.6425
2.4280e-02,1.63281
2.4312e-02,1.65719
2.4344e-02,1.65688
2.4376e-02,1.60688
2.4408e-02,1.60875
2.4440e-02,1.63469
2.4472e-02,1.61156
2.4504e-02,1.5975
2.4536e-02,1.60063
2.4568e-02,1.58813
2.4600e-02,1.58781
2.4632e-02,1.58719
2.4664e-02,1.58594
2.4696e-02,1.60688
2.4728e-02,1.59719
2.4760e-02,1.63188
2.4792e-02,1.64813
2.4824e-02,1.67531
2.4856e-02,1.67938
2.4888e-02,1.69531
2.4920e-02,1.76219
2.4952e-02,1.85031
2.4984e-02,1.91438
2.5016e-02,2.01656
2.5048e-02,2.01906
2.5080e-02,2.09781
2.5112e-02,2.20469
2.5144e-02,2.32375
2.5176e-02,2.43813
2.5208e-02,2.54813
2.5240e-02,2.71719
2.5272e-02,2.90688
2.5304e-02,3.06625
2.5336e-02,3.2075
2.5368e-02,3.41656
2.5400e-02,3.62906
2.5432e-02,3.82063
2.5464e-02,4.04719
2.5496e-02,4.24188
2.5528e-02,4.64188
2.5560e-02,4.87875
2.5592e-02,5.17188
2.5624e-02,5.4975
2.5656e-02,5.90969
2.5688e-02,6.14406
2.5720e-02,6.47875
2.5752e-02,6.72906
2.5784e-02,6.9625
2.5816e-02,7.20875
2.5848e-02,7.42313
2.5880e-02,7.6125
2.5912e-02,7.80469
2.5944e-02,7.95281
2.5976e-02,8.04469
2.6008e-02,8.14563
2.6040e-02,8.26656
2.6072e-02,8.35625
2.6104e-02,8.42813
2.6136e-02,8.47813
2.6168e-02,8.55125
2.6200e-02,8.61719
2.6232e-02,8.57219
2.6264e-02,8.52688
2.6296e-02,8.58313
2.6328e-02,8.6225
2.6360e-02,8.575
2.6392e-02,8.4925
2.6424e-02,8.3925
2.6456e-02,8.24875
2.6488e-02,8.10875
2.6520e-02,7.95063
2.6552e-02,7.78938
2.6584e-02,7.58281
2.6616e-02,7.38469
2.6648e-02,7.10188
2.6680e-02,6.75969
2.6712e-02,6.30656
2.6744e-02,5.92906
2.6776e-02,5.5225
2.6808e-02,5.06969
2.6840e-02,4.69406
2.6872e-02,4.29438
2.6904e-02,3.90188
2.6936e-02,3.51
2.6968e-02,3.14563
2.7000e-02,2.86125
2.7032e-02,2.58938
2.7064e-02,2.38688
2.7096e-02,2.15031
2.7128e-02,1.96281
2.7160e-02,1.76594
2.7192e-02,1.60188
2.7224e-02,1.49219
2.7256e-02,1.40688
2.7288e-02,1.33281
2.7320e-02,1.26156
2.7352e-02,1.23781
2.7384e-02,1.19719
2.7416e-02,1.19594
2.7448e-02,1.15344
2.7480e-02,1.12344
2.7512e-02,1.12
2.7544e-02,1.11469
2.7576e-02,1.11125
2.7608e-02,1.11188
2.7640e-02,1.105
2.7672e-02,1.05438
2.7704e-02,1.04531
2.7736e-02,1.04531
2.7768e-02,1.04719
2.7800e-02,1.04094
2.7832e-02,1.02031
2.7864e-02,0.9875
2.7896e-02,0.951563
2.7928e-02,0.937188
2.7960e-02,0.895938
2.7992e-02,0.860938
2.8024e-02,0.845938
2.8056e-02,0.8
2.8088e-02,0.760313
2.8120e-02,0.729375
2.8152e-02,0.712813
2.8184e-02,0.6825
2.8216e-02,0.65375
2.8248e-02,0.629063
2.8280e-02,0.614063
2.8312e-02,0.574063
2.8344e-02,0.557813
2.8376e-02,0.534063
2.8408e-02,0.49875
2.8440e-02,0.474688
2.8472e-02,0.474688
2.8504e-02,0.466563
2.8536e-02,0.439688
2.8568e-02,0.435313
2.8600e-02,0.416563
2.8632e-02,0.412813
2.8664e-02,0.400938
2.8696e-02,0.399063
2.8728e-02,0.378438
2.8760e-02,0.361875
2.8792e-02,0.367188
2.8824e-02,0.343125
2.8856e-02,0.325625
2.8888e-02,0.320938
2.8920e-02,0.320625
2.8952e-02,0.318438
2.8984e-02,0.31375
2.9016e-02,0.300625
2.9048e-02,0.287188
2.9080e-02,0.284063
2.9112e-02,0.265938
2.9144e-02,0.259688
2.9176e-02,0.242813
2.9208e-02,0.240625
2.9240e-02,0.241563
2.9272e-02,0.240938
2.9304e-02,0.238125
2.9336e-02,0.226875
2.9368e-02,0.212813
2.9400e-02,0.199063
2.9432e-02,0.198125
2.9464e-02,0.189688
2.9496e-02,0.194688
2.9528e-02,0.184063
2.9560e-02,0.184375
2.9592e-02,0.183438
2.9624e-02,0.173125
2.9656e-02,0.1725
2.9688e-02,0.17875
2.9720e-02,0.175625
2.9752e-02,0.175
2.9784e-02,0.165938
2.9816e-02,0.1775
2.9848e-02,0.160625
2.9880e-02,0.160313
2.9912e-02,0.160313
2.9944e-02,0.160313
2.9976e-02,0.160938
3.0008e-02,0.160313
3.0040e-02,0.165
3.0072e-02,0.169375
3.0104e-02,0.173438
3.0136e-02,0.164688
3.0168e-02,0.16125
3.0200e-02,0.160625
3.0232e-02,0.16125
3.0264e-02,0.160625
3.0296e-02,0.16
3.0328e-02,0.16
3.0360e-02,0.16125
3.0392e-02,0.172813
3.0424e-02,0.16125
3.0456e-02,0.160313
3.0488e-02,0.163125
3.0520e-02,0.166563
3.0552e-02,0.160938
3.0584e-02,0.161563
3.0616e-02,0.163438
3.0648e-02,0.165313
3.0680e-02,0.171875
3.0712e-02,0.175313
3.0744e-02,0.170938
3.0776e-02,0.178125
3.0808e-02,0.173438
3.0840e-02,0.175
3.0872e-02,0.184375
3.0904e-02,0.19625
3.0936e-02,0.197188
3.0968e-02,0.2
3.1000e-02,0.206563
3.1032e-02,0.22125
3.1064e-02,0.23
3.1096e-02,0.240625
3.1128e-02,0.240938
3.1160e-02,0.241563
3.1192e-02,0.244375
3.1224e-02,0.249688
3.1256e-02,0.251875
3.1288e-02,0.263125
3.1320e-02,0.284063
3.1352e-02,0.295
3.1384e-02,0.31875
3.1416e-02,0.320313
3.1448e-02,0.329375
3.1480e-02,0.33375
3.1512e-02,0.324688
3.1544e-02,0.324688
3.1576e-02,0.340938
3.1608e-02,0.360938
3.1640e-02,0.357188
3.1672e-02,0.358125
3.1704e-02,0.360313
3.1736e-02,0.350625
3.1768e-02,0.348125
3.1800e-02,0.34875
3.1832e-02,0.341563
3.1864e-02,0.340313
3.1896e-02,0.32
3.1928e-02,0.319688
3.1960e-02,0.31375
3.1992e-02,0.302813
3.2024e-02,0.287188
3.2056e-02,0.270625
3.2088e-02,0.255
3.2120e-02,0.241563
3.2152e-02,0.241875
3.2184e-02,0.23625
3.2216e-02,0.23
3.2248e-02,0.215625
3.2280e-02,0.195625
3.2312e-02,0.185625
3.2344e-02,0.1675
3.2376e-02,0.160313
3.2408e-02,0.160313
3.2440e-02,0.160313
3.2472e-02,0.160313
3.2504e-02,0.16
3.2536e-02,0.160313
3.2568e-02,0.15625
3.2600e-02,0.149063
3.2632e-02,0.141563
3.2664e-02,0.13875
3.2696e-02,0.143438
3.2728e-02,0.149688
3.2760e-02,0.1525
3.2792e-02,0.150938
3.2824e-02,0.138125
3.2856e-02,0.14125
3.2888e-02,0.139375
3.2920e-02,0.14
3.2952e-02,0.137813
3.2984e-02,0.131563
3.3016e-02,0.138125
3.3048e-02,0.13875
3.3080e-02,0.135625
3.3112e-02,0.134688
3.3144e-02,0.136563
3.3176e-02,0.13
3.3208e-02,0.13375
3.3240e-02,0.143125
3.3272e-02,0.145625
3.3304e-02,0.134688
3.3336e-02,0.135938
3.3368e-02,0.135938
3.3400e-02,0.135313
3.3432e-02,0.140938
3.3464e-02,0.138438
3.3496e-02,0.13625
3.3528e-02,0.130938
3.3560e-02,0.130313
3.3592e-02,0.131563
3.3624e-02,0.132188
3.3656e-02,0.129063
3.3688e-02,0.131563
3.3720e-02,0.12875
3.3752e-02,0.12375
3.3784e-02,0.124375
3.3816e-02,0.126563
3.3848e-02,0.131875
3.3880e-02,0.130625
3.3912e-02,0.122188
3.3944e-02,0.118438
3.3976e-02,0.12625
3.4008e-02,0.1225
3.4040e-02,0.1225
3.4072e-02,0.12
3.4104e-02,0.120625
3.4136e-02,0.121563
3.4168e-02,0.121563
3.4200e-02,0.12875
3.4232e-02,0.1225
3.4264e-02,0.12125
3.4296e-02,0.124375
3.4328e-02,0.115938
3.4360e-02,0.120625
3.4392e-02,0.12375
3.4424e-02,0.120313
3.4456e-02,0.113438
3.4488e-02,0.110313
3.4520e-02,0.113125
3.4552e-02,0.116875
3.4584e-02,0.121563
3.4616e-02,0.125313
3.4648e-02,0.128125
3.4680e-02,0.124375
3.4712e-02,0.122813
3.4744e-02,0.12375
3.4776e-02,0.126875
3.4808e-02,0.12625
3.4840e-02,0.125313
3.4872e-02,0.126875
3.4904e-02,0.119375
3.4936e-02,0.118438
3.4968e-02,0.124688
3.5000e-02,0.12375
3.5032e-02,0.12625
3.5064e-02,0.117813
3.5096e-02,0.12625
3.5128e-02,0.121563
3.5160e-02,0.1225
3.5192e-02,0.125938
3.5224e-02,0.12625
3.5256e-02,0.129688
3.5288e-02,0.136875
3.5320e-02,0.124375
3.5352e-02,0.125
3.5384e-02,0.12625
3.5416e-02,0.128125
3.5448e-02,0.125
3.5480e-02,0.123438
3.5512e-02,0.127188
3.5544e-02,0.119688
3.5576e-02,0.122813
3.5608e-02,0.12375
3.5640e-02,0.115625
3.5672e-02,0.12125
3.5704e-02,0.125625
3.5736e-02,0.123438
3.5768e-02,0.112188
3.5800e-02,0.119063
3.5832e-02,0.124688
3.5864e-02,0.125
3.5896e-02,0.1225
3.5928e-02,0.120938
3.5960e-02,0.124063
3.5992e-02,0.126563
3.6024e-02,0.124375
3.6056e-02,0.125313
3.6088e-02,0.121563
3.6120e-02,0.119063
3.6152e-02,0.121563
3.6184e-02,0.125625
3.6216e-02,0.119688
3.6248e-02,0.1225
3.6280e-02,0.11
3.6312e-02,0.115313
3.6344e-02,0.115938
3.6376e-02,0.11375
3.6408e-02,0.118125
3.6440e-02,0.122188
3.6472e-02,0.123438
3.6504e-02,0.117188
3.6536e-02,0.124688
3.6568e-02,0.119688
3.6600e-02,0.115313
3.6632e-02,0.117813
3.6664e-02,0.123438
3.6696e-02,0.1275
3.6728e-02,0.12375
3.6760e-02,0.13
3.6792e-02,0.125313
3.6824e-02,0.13
3.6856e-02,0.129063
3.6888e-02,0.125313
3.6920e-02,0.122188
3.6952e-02,0.119375
3.6984e-02,0.1175
3.7016e-02,0.119688
3.7048e-02,0.123125
3.7080e-02,0.121875
3.7112e-02,0.124375
3.7144e-02,0.118438
3.7176e-02,0.120625
3.7208e-02,0.120938
3.7240e-02,0.115938
3.7272e-02,0.12
3.7304e-02,0.125
3.7336e-02,0.128125
3.7368e-02,0.13125
3.7400e-02,0.120938
3.7432e-02,0.125
3.7464e-02,0.11875
3.7496e-02,0.124375
3.7528e-02,0.125938
3.7560e-02,0.125
3.7592e-02,0.12875
3.7624e-02,0.124063
3.7656e-02,0.114688
3.7688e-02,0.118438
3.7720e-02,0.1175
3.7752e-02,0.122813
3.7784e-02,0.1275
3.7816e-02,0.124375
3.7848e-02,0.126563
3.7880e-02,0.12625
3.7912e-02,0.125
3.7944e-02,0.124063
3.7976e-02,0.123438
3.8008e-02,0.1225
3.8040e-02,0.124063
3.8072e-02,0.120938
3.8104e-02,0.126875
3.8136e-02,0.124063
3.8168e-02,0.135625
3.8200e-02,0.135
3.8232e-02,0.123438
3.8264e-02,0.124375
3.8296e-02,0.121563
3.8328e-02,0.120313
3.8360e-02,0.116563
3.8392e-02,0.118438
3.8424e-02,0.123125
3.8456e-02,0.129375
3.8488e-02,0.123125
3.8520e-02,0.12625
3.8552e-02,0.125938
3.8584e-02,0.127813
3.8616e-02,0.125938
3.8648e-02,0.117188
3.8680e-02,0.124063
3.8712e-02,0.121875
3.8744e-02,0.11875
3.8776e-02,0.11375
3.8808e-02,0.11875
3.8840e-02,0.126875
3.8872e-02,0.125625
3.8904e-02,0.1225
3.8936e-02,0.120313
3.8968e-02,0.115
3.9000e-02,0.122813
3.9032e-02,0.126875
3.9064e-02,0.127188
3.9096e-02,0.13125
3.9128e-02,0.124063
3.9160e-02,0.124688
3.9192e-02,0.127188
3.9224e-02,0.130313
3.9256e-02,0.127813
3.9288e-02,0.120938
3.9320e-02,0.123438
3.9352e-02,0.128438
3.9384e-02,0.117813
3.9416e-02,0.124063
3.9448e-02,0.126875
3.9480e-02,0.127813
3.9512e-02,0.123438
3.9544e-02,0.131875
3.9576e-02,0.135938
3.9608e-02,0.136563
3.9640e-02,0.129688
3.9672e-02,0.122188
3.9704e-02,0.13125
3.9736e-02,0.135625
3.9768e-02,0.126875
3.9800e-02,0.1275
3.9832e-02,0.129063
3.9864e-02,0.135313
3.9896e-02,0.129063
3.9928e-02,0.131875
3.9960e-02,0.135938
3.9992e-02,0.136563
4.0024e-02,0.129375
4.0056e-02,0.130313
4.0088e-02,0.133125
4.0120e-02,0.133125
4.0152e-02,0.140625
4.0184e-02,0.135938
4.0216e-02,0.137188
4.0248e-02,0.136563
4.0280e-02,0.137813
4.0312e-02,0.141875
4.0344e-02,0.139688
4.0376e-02,0.132813
4.0408e-02,0.137813
4.0440e-02,0.149688
4.0472e-02,0.144688
4.0504e-02,0.149688
4.0536e-02,0.14875
4.0568e-02,0.15125
4.0600e-02,0.146875
4.0632e-02,0.155625
4.0664e-02,0.152188
4.0696e-02,0.141563
4.0728e-02,0.145313
4.0760e-02,0.150625
4.0792e-02,0.155625
4.0824e-02,0.149688
4.0856e-02,0.160313
4.0888e-02,0.16
4.0920e-02,0.16
4.0952e-02,0.16
4.0984e-02,0.160313
4.1016e-02,0.16
4.1048e-02,0.16
4.1080e-02,0.16
4.1112e-02,0.160313
