Phys432_Jupyter/Zeeman/yellow_B_off.csv

Model,MSO2024
Firmware Version,1.52

Point Format,Y
Horizontal Units,S
Horizontal Scale,0.01
Sample Interval,3.2e-05
Filter Frequency,2e+08
Record Length,3125
Gating,0.0% to 100.0%
Probe Attenuation,1
Vertical Units,V
Vertical Offset,0
Vertical Scale,0.1
Label,
TIME,CH1
9.8400e-03,0.0495781
9.8720e-03,0.0497656
9.9040e-03,0.0527344
9.9360e-03,0.0521094
9.9680e-03,0.0544688
1.0000e-02,0.0548125
1.0032e-02,0.055375
1.0064e-02,0.0567813
1.0096e-02,0.0569844
1.0128e-02,0.0571406
1.0160e-02,0.0564375
1.0192e-02,0.0608438
1.0224e-02,0.0588281
1.0256e-02,0.0626719
1.0288e-02,0.0651094
1.0320e-02,0.0639375
1.0352e-02,0.0633281
1.0384e-02,0.06725
1.0416e-02,0.0668906
1.0448e-02,0.0685625
1.0480e-02,0.0723125
1.0512e-02,0.0726094
1.0544e-02,0.0759063
1.0576e-02,0.0754844
1.0608e-02,0.0759531
1.0640e-02,0.0769844
1.0672e-02,0.0796875
1.0704e-02,0.0786094
1.0736e-02,0.0828125
1.0768e-02,0.0830625
1.0800e-02,0.0851875
1.0832e-02,0.0855
1.0864e-02,0.085125
1.0896e-02,0.0840156
1.0928e-02,0.0825469
1.0960e-02,0.07875
1.0992e-02,0.0789844
1.1024e-02,0.0798125
1.1056e-02,0.0780938
1.1088e-02,0.0781406
1.1120e-02,0.0795156
1.1152e-02,0.0784531
1.1184e-02,0.0741875
1.1216e-02,0.0740625
1.1248e-02,0.0735938
1.1280e-02,0.0713438
1.1312e-02,0.0670781
1.1344e-02,0.0637188
1.1376e-02,0.0647031
1.1408e-02,0.0612344
1.1440e-02,0.0588281
1.1472e-02,0.0547813
1.1504e-02,0.0540313
1.1536e-02,0.0503906
1.1568e-02,0.0508281
1.1600e-02,0.0492344
1.1632e-02,0.0474531
1.1664e-02,0.0473906
1.1696e-02,0.0444375
1.1728e-02,0.0419375
1.1760e-02,0.0407969
1.1792e-02,0.0410781
1.1824e-02,0.04225
1.1856e-02,0.0426875
1.1888e-02,0.0387344
1.1920e-02,0.0380938
1.1952e-02,0.0372188
1.1984e-02,0.0386094
1.2016e-02,0.0395938
1.2048e-02,0.0390938
1.2080e-02,0.0370781
1.2112e-02,0.0354063
1.2144e-02,0.0331094
1.2176e-02,0.0332188
1.2208e-02,0.0327813
1.2240e-02,0.0349688
1.2272e-02,0.0344063
1.2304e-02,0.034625
1.2336e-02,0.0340938
1.2368e-02,0.0351719
1.2400e-02,0.0335781
1.2432e-02,0.0318906
1.2464e-02,0.0318281
1.2496e-02,0.0328438
1.2528e-02,0.0334531
1.2560e-02,0.0355
1.2592e-02,0.0347969
1.2624e-02,0.0343281
1.2656e-02,0.0354688
1.2688e-02,0.036875
1.2720e-02,0.03725
1.2752e-02,0.0366094
1.2784e-02,0.0353594
1.2816e-02,0.0344688
1.2848e-02,0.0358438
1.2880e-02,0.0370469
1.2912e-02,0.0349688
1.2944e-02,0.0350313
1.2976e-02,0.0339219
1.3008e-02,0.0346719
1.3040e-02,0.0359531
1.3072e-02,0.0359375
1.3104e-02,0.0360469
1.3136e-02,0.0360469
1.3168e-02,0.0344063
1.3200e-02,0.0356094
1.3232e-02,0.0352344
1.3264e-02,0.0359375
1.3296e-02,0.0357188
1.3328e-02,0.0356563
1.3360e-02,0.0362969
1.3392e-02,0.0344219
1.3424e-02,0.0347344
1.3456e-02,0.0334844
1.3488e-02,0.033875
1.3520e-02,0.0345156
1.3552e-02,0.0362188
1.3584e-02,0.0360313
1.3616e-02,0.03525
1.3648e-02,0.0348125
1.3680e-02,0.0328594
1.3712e-02,0.0332188
1.3744e-02,0.0322969
1.3776e-02,0.0321094
1.3808e-02,0.0333125
1.3840e-02,0.0320625
1.3872e-02,0.0317656
1.3904e-02,0.03025
1.3936e-02,0.0316406
1.3968e-02,0.0317031
1.4000e-02,0.0299844
1.4032e-02,0.0317656
1.4064e-02,0.0301875
1.4096e-02,0.0305781
1.4128e-02,0.0297031
1.4160e-02,0.0304688
1.4192e-02,0.0298125
1.4224e-02,0.0285625
1.4256e-02,0.0311094
1.4288e-02,0.0319531
1.4320e-02,0.0305313
1.4352e-02,0.0306563
1.4384e-02,0.0311406
1.4416e-02,0.0303281
1.4448e-02,0.0305938
1.4480e-02,0.0293281
1.4512e-02,0.0284688
1.4544e-02,0.0290156
1.4576e-02,0.0296094
1.4608e-02,0.0284375
1.4640e-02,0.0274688
1.4672e-02,0.0266875
1.4704e-02,0.0282344
1.4736e-02,0.0273438
1.4768e-02,0.0287969
1.4800e-02,0.0290313
1.4832e-02,0.0290625
1.4864e-02,0.0279531
1.4896e-02,0.0287969
1.4928e-02,0.0278438
1.4960e-02,0.0297969
1.4992e-02,0.0297656
1.5024e-02,0.0309844
1.5056e-02,0.0310156
1.5088e-02,0.0310469
1.5120e-02,0.0304375
1.5152e-02,0.0311719
1.5184e-02,0.0286406
1.5216e-02,0.0287656
1.5248e-02,0.0293281
1.5280e-02,0.0285156
1.5312e-02,0.0279688
1.5344e-02,0.0280625
1.5376e-02,0.028375
1.5408e-02,0.028625
1.5440e-02,0.0282969
1.5472e-02,0.0281094
1.5504e-02,0.02625
1.5536e-02,0.0275781
1.5568e-02,0.0285938
1.5600e-02,0.0281875
1.5632e-02,0.0288125
1.5664e-02,0.0284531
1.5696e-02,0.0280938
1.5728e-02,0.0297813
1.5760e-02,0.0289844
1.5792e-02,0.0299375
1.5824e-02,0.0301719
1.5856e-02,0.0287656
1.5888e-02,0.02825
1.5920e-02,0.0282656
1.5952e-02,0.0282813
1.5984e-02,0.0280781
1.6016e-02,0.0283594
1.6048e-02,0.028625
1.6080e-02,0.0282969
1.6112e-02,0.0284375
1.6144e-02,0.0296094
1.6176e-02,0.0283125
1.6208e-02,0.0279531
1.6240e-02,0.0276406
1.6272e-02,0.0289844
1.6304e-02,0.0281094
1.6336e-02,0.029375
1.6368e-02,0.0306875
1.6400e-02,0.0309375
1.6432e-02,0.0293438
1.6464e-02,0.0296094
1.6496e-02,0.0283906
1.6528e-02,0.0284531
1.6560e-02,0.0281406
1.6592e-02,0.0279219
1.6624e-02,0.0280469
1.6656e-02,0.0279688
1.6688e-02,0.0288125
1.6720e-02,0.0295313
1.6752e-02,0.0276875
1.6784e-02,0.0281875
1.6816e-02,0.0279375
1.6848e-02,0.03
1.6880e-02,0.0287188
1.6912e-02,0.02925
1.6944e-02,0.0282656
1.6976e-02,0.0283906
1.7008e-02,0.0291719
1.7040e-02,0.0282031
1.7072e-02,0.0291406
1.7104e-02,0.0279219
1.7136e-02,0.0282656
1.7168e-02,0.0290781
1.7200e-02,0.0282344
1.7232e-02,0.02825
1.7264e-02,0.0281563
1.7296e-02,0.0277656
1.7328e-02,0.028625
1.7360e-02,0.0305781
1.7392e-02,0.0316094
1.7424e-02,0.031375
1.7456e-02,0.0316563
1.7488e-02,0.0313125
1.7520e-02,0.0309531
1.7552e-02,0.0307344
1.7584e-02,0.0310938
1.7616e-02,0.0302813
1.7648e-02,0.0301875
1.7680e-02,0.0292813
1.7712e-02,0.030625
1.7744e-02,0.030625
1.7776e-02,0.0308125
1.7808e-02,0.0308438
1.7840e-02,0.0308125
1.7872e-02,0.0306563
1.7904e-02,0.0317813
1.7936e-02,0.0318125
1.7968e-02,0.0318125
1.8000e-02,0.0315
1.8032e-02,0.0298594
1.8064e-02,0.0315156
1.8096e-02,0.0319375
1.8128e-02,0.0320938
1.8160e-02,0.0320469
1.8192e-02,0.0322656
1.8224e-02,0.0323906
1.8256e-02,0.0321406
1.8288e-02,0.0320938
1.8320e-02,0.0330938
1.8352e-02,0.0319844
1.8384e-02,0.0328125
1.8416e-02,0.0335469
1.8448e-02,0.0353906
1.8480e-02,0.0359688
1.8512e-02,0.03625
1.8544e-02,0.0365469
1.8576e-02,0.0344063
1.8608e-02,0.03725
1.8640e-02,0.0365156
1.8672e-02,0.0365781
1.8704e-02,0.0358594
1.8736e-02,0.0354219
1.8768e-02,0.0363438
1.8800e-02,0.0382656
1.8832e-02,0.0359219
1.8864e-02,0.0359375
1.8896e-02,0.0368438
1.8928e-02,0.0360469
1.8960e-02,0.0354844
1.8992e-02,0.0361875
1.9024e-02,0.0361875
1.9056e-02,0.037375
1.9088e-02,0.0376719
1.9120e-02,0.0378594
1.9152e-02,0.0407031
1.9184e-02,0.0424219
1.9216e-02,0.0445781
1.9248e-02,0.0464688
1.9280e-02,0.0447656
1.9312e-02,0.0450938
1.9344e-02,0.0466094
1.9376e-02,0.0490469
1.9408e-02,0.0490156
1.9440e-02,0.0484063
1.9472e-02,0.05
1.9504e-02,0.0484688
1.9536e-02,0.0511563
1.9568e-02,0.0527656
1.9600e-02,0.0569063
1.9632e-02,0.0564844
1.9664e-02,0.0587188
1.9696e-02,0.058625
1.9728e-02,0.0610313
1.9760e-02,0.0624688
1.9792e-02,0.0641719
1.9824e-02,0.0659375
1.9856e-02,0.068875
1.9888e-02,0.0744219
1.9920e-02,0.0789375
1.9952e-02,0.0842344
1.9984e-02,0.0867344
2.0016e-02,0.0903125
2.0048e-02,0.0902813
2.0080e-02,0.0965156
2.0112e-02,0.0984063
2.0144e-02,0.103375
2.0176e-02,0.107172
2.0208e-02,0.110266
2.0240e-02,0.116469
2.0272e-02,0.126781
2.0304e-02,0.129781
2.0336e-02,0.136672
2.0368e-02,0.132641
2.0400e-02,0.135688
2.0432e-02,0.141516
2.0464e-02,0.139328
2.0496e-02,0.141328
2.0528e-02,0.143844
2.0560e-02,0.143672
2.0592e-02,0.144109
2.0624e-02,0.143984
2.0656e-02,0.140859
2.0688e-02,0.145609
2.0720e-02,0.151406
2.0752e-02,0.152563
2.0784e-02,0.160938
2.0816e-02,0.167516
2.0848e-02,0.170906
2.0880e-02,0.178016
2.0912e-02,0.181906
2.0944e-02,0.196453
2.0976e-02,0.208031
2.1008e-02,0.218609
2.1040e-02,0.23
2.1072e-02,0.250078
2.1104e-02,0.263578
2.1136e-02,0.276016
2.1168e-02,0.291203
2.1200e-02,0.304672
2.1232e-02,0.322016
2.1264e-02,0.336891
2.1296e-02,0.348844
2.1328e-02,0.357953
2.1360e-02,0.367813
2.1392e-02,0.381406
2.1424e-02,0.384688
2.1456e-02,0.387406
2.1488e-02,0.388438
2.1520e-02,0.387625
2.1552e-02,0.376672
2.1584e-02,0.370906
2.1616e-02,0.361453
2.1648e-02,0.347859
2.1680e-02,0.339031
2.1712e-02,0.320125
2.1744e-02,0.299047
2.1776e-02,0.277797
2.1808e-02,0.255563
2.1840e-02,0.234109
2.1872e-02,0.215703
2.1904e-02,0.199453
2.1936e-02,0.17975
2.1968e-02,0.163734
2.2000e-02,0.152844
2.2032e-02,0.145203
2.2064e-02,0.135813
2.2096e-02,0.124172
2.2128e-02,0.117672
2.2160e-02,0.108641
2.2192e-02,0.101
2.2224e-02,0.0989219
2.2256e-02,0.0994688
2.2288e-02,0.0966875
2.2320e-02,0.0962031
2.2352e-02,0.0969219
2.2384e-02,0.0989531
2.2416e-02,0.094625
2.2448e-02,0.0955625
2.2480e-02,0.0948594
2.2512e-02,0.0949219
2.2544e-02,0.0915156
2.2576e-02,0.0921094
2.2608e-02,0.0892969
2.2640e-02,0.0864688
2.2672e-02,0.0858281
2.2704e-02,0.0868438
2.2736e-02,0.0868594
2.2768e-02,0.0824531
2.2800e-02,0.0800938
2.2832e-02,0.077625
2.2864e-02,0.0744063
2.2896e-02,0.0732188
2.2928e-02,0.0689375
2.2960e-02,0.0647656
2.2992e-02,0.0626719
2.3024e-02,0.0584844
2.3056e-02,0.0549844
2.3088e-02,0.0526875
2.3120e-02,0.0521875
2.3152e-02,0.0508438
2.3184e-02,0.0483438
2.3216e-02,0.0479375
2.3248e-02,0.0466406
2.3280e-02,0.0441875
2.3312e-02,0.0432344
2.3344e-02,0.0400625
2.3376e-02,0.039
2.3408e-02,0.0420469
2.3440e-02,0.0397656
2.3472e-02,0.03925
2.3504e-02,0.0391406
2.3536e-02,0.0377188
2.3568e-02,0.0375781
2.3600e-02,0.0375
2.3632e-02,0.03975
2.3664e-02,0.0398281
2.3696e-02,0.0395625
2.3728e-02,0.0390781
2.3760e-02,0.0370625
2.3792e-02,0.0377188
2.3824e-02,0.0361875
2.3856e-02,0.0355156
2.3888e-02,0.0351875
2.3920e-02,0.036375
2.3952e-02,0.038125
2.3984e-02,0.0374063
2.4016e-02,0.0373906
2.4048e-02,0.03575
2.4080e-02,0.0372969
2.4112e-02,0.0370313
2.4144e-02,0.0375469
2.4176e-02,0.0366094
2.4208e-02,0.0362188
2.4240e-02,0.0376875
2.4272e-02,0.0368125
2.4304e-02,0.039625
2.4336e-02,0.0371875
2.4368e-02,0.0361563
2.4400e-02,0.0367188
2.4432e-02,0.0359531
2.4464e-02,0.0358594
2.4496e-02,0.0343125
2.4528e-02,0.0338281
2.4560e-02,0.0348438
2.4592e-02,0.0352344
2.4624e-02,0.0339844
2.4656e-02,0.0330625
2.4688e-02,0.0324063
2.4720e-02,0.0338906
2.4752e-02,0.0330313
2.4784e-02,0.0324375
2.4816e-02,0.0317969
2.4848e-02,0.0315313
2.4880e-02,0.0320938
2.4912e-02,0.0314531
2.4944e-02,0.0307969
2.4976e-02,0.0309844
2.5008e-02,0.0307656
2.5040e-02,0.032125
2.5072e-02,0.031625
2.5104e-02,0.031375
2.5136e-02,0.0306406
2.5168e-02,0.0308125
2.5200e-02,0.030375
2.5232e-02,0.0315313
2.5264e-02,0.031
2.5296e-02,0.0316563
2.5328e-02,0.03175
2.5360e-02,0.0348281
2.5392e-02,0.034625
2.5424e-02,0.0332188
2.5456e-02,0.0314375
2.5488e-02,0.0312031
2.5520e-02,0.0315
2.5552e-02,0.0321094
2.5584e-02,0.0326094
2.5616e-02,0.0314219
2.5648e-02,0.0319375
2.5680e-02,0.0315625
2.5712e-02,0.031375
2.5744e-02,0.0320938
2.5776e-02,0.031625
2.5808e-02,0.0316094
2.5840e-02,0.0323906
2.5872e-02,0.0341719
2.5904e-02,0.0337188
2.5936e-02,0.0341094
2.5968e-02,0.0360469
2.6000e-02,0.0358594
2.6032e-02,0.0362344
2.6064e-02,0.0365781
2.6096e-02,0.0352969
2.6128e-02,0.0358281
2.6160e-02,0.0367813
2.6192e-02,0.0405156
2.6224e-02,0.0412188
2.6256e-02,0.0426094
2.6288e-02,0.0410625
2.6320e-02,0.0462344
2.6352e-02,0.0467031
2.6384e-02,0.0475313
2.6416e-02,0.0474844
2.6448e-02,0.0477813
2.6480e-02,0.0485
2.6512e-02,0.0485938
2.6544e-02,0.0501719
2.6576e-02,0.0512031
2.6608e-02,0.0510313
2.6640e-02,0.0521719
2.6672e-02,0.0517188
2.6704e-02,0.0515938
2.6736e-02,0.0520156
2.6768e-02,0.0510156
2.6800e-02,0.0506094
2.6832e-02,0.0490156
2.6864e-02,0.0493906
2.6896e-02,0.0473438
2.6928e-02,0.0453438
2.6960e-02,0.0430156
2.6992e-02,0.0430313
2.7024e-02,0.0418125
2.7056e-02,0.0427813
2.7088e-02,0.0408906
2.7120e-02,0.0424844
2.7152e-02,0.0406563
2.7184e-02,0.0386094
2.7216e-02,0.0372969
2.7248e-02,0.0354063
2.7280e-02,0.0357813
2.7312e-02,0.0376094
2.7344e-02,0.037
2.7376e-02,0.0366406
2.7408e-02,0.0356406
2.7440e-02,0.0359375
2.7472e-02,0.0353281
2.7504e-02,0.0357031
2.7536e-02,0.03575
2.7568e-02,0.0360313
2.7600e-02,0.0356094
2.7632e-02,0.036125
2.7664e-02,0.0355469
2.7696e-02,0.035875
2.7728e-02,0.0359688
2.7760e-02,0.0371406
2.7792e-02,0.0372188
2.7824e-02,0.0399375
2.7856e-02,0.0405156
2.7888e-02,0.0393594
2.7920e-02,0.0381563
2.7952e-02,0.0371719
2.7984e-02,0.03875
2.8016e-02,0.0395781
2.8048e-02,0.03925
2.8080e-02,0.0397031
2.8112e-02,0.0391563
2.8144e-02,0.039
2.8176e-02,0.0421094
2.8208e-02,0.0402969
2.8240e-02,0.0398594
2.8272e-02,0.039375
2.8304e-02,0.0391875
2.8336e-02,0.0405313
2.8368e-02,0.0405469
2.8400e-02,0.0416563
2.8432e-02,0.0448125
2.8464e-02,0.0465469
2.8496e-02,0.0477656
2.8528e-02,0.0489063
2.8560e-02,0.0502813
2.8592e-02,0.0490781
2.8624e-02,0.0479531
2.8656e-02,0.0510469
2.8688e-02,0.0496094
2.8720e-02,0.0529375
2.8752e-02,0.0514219
2.8784e-02,0.05125
2.8816e-02,0.0485938
2.8848e-02,0.0477344
2.8880e-02,0.0479063
2.8912e-02,0.0465625
2.8944e-02,0.0473125
2.8976e-02,0.046375
2.9008e-02,0.0437031
2.9040e-02,0.044375
2.9072e-02,0.0451406
2.9104e-02,0.0423281
2.9136e-02,0.0430313
2.9168e-02,0.0405313
2.9200e-02,0.0394063
2.9232e-02,0.0365781
2.9264e-02,0.0374844
2.9296e-02,0.0367031
2.9328e-02,0.0359063
2.9360e-02,0.0358438
2.9392e-02,0.0351406
2.9424e-02,0.0339063
2.9456e-02,0.0348125
2.9488e-02,0.0335156
2.9520e-02,0.0330781
2.9552e-02,0.0339531
2.9584e-02,0.0342344
2.9616e-02,0.0333438
2.9648e-02,0.0323438
2.9680e-02,0.0338438
2.9712e-02,0.0354375
2.9744e-02,0.0379219
2.9776e-02,0.0374063
2.9808e-02,0.0381875
2.9840e-02,0.0385313
2.9872e-02,0.0366094
2.9904e-02,0.0361875
2.9936e-02,0.0369063
2.9968e-02,0.0378125
3.0000e-02,0.0365156
3.0032e-02,0.0389688
3.0064e-02,0.0400625
3.0096e-02,0.0398281
3.0128e-02,0.0405781
3.0160e-02,0.0422969
3.0192e-02,0.0435938
3.0224e-02,0.0459531
3.0256e-02,0.0466406
3.0288e-02,0.0473438
3.0320e-02,0.047625
3.0352e-02,0.0497188
3.0384e-02,0.05025
3.0416e-02,0.053625
3.0448e-02,0.0562656
3.0480e-02,0.056625
3.0512e-02,0.0620469
3.0544e-02,0.064
3.0576e-02,0.0632344
3.0608e-02,0.0650156
3.0640e-02,0.06725
3.0672e-02,0.0708594
3.0704e-02,0.0739531
3.0736e-02,0.0768281
3.0768e-02,0.0779688
3.0800e-02,0.07825
3.0832e-02,0.0851406
3.0864e-02,0.0880156
3.0896e-02,0.0906875
3.0928e-02,0.0950625
3.0960e-02,0.0997344
3.0992e-02,0.107188
3.1024e-02,0.113859
3.1056e-02,0.121297
3.1088e-02,0.126594
3.1120e-02,0.134359
3.1152e-02,0.150031
3.1184e-02,0.161109
3.1216e-02,0.176547
3.1248e-02,0.190656
3.1280e-02,0.20875
3.1312e-02,0.220875
3.1344e-02,0.233781
3.1376e-02,0.249797
3.1408e-02,0.269859
3.1440e-02,0.29175
3.1472e-02,0.304891
3.1504e-02,0.319641
3.1536e-02,0.328625
3.1568e-02,0.337125
3.1600e-02,0.345016
3.1632e-02,0.349094
3.1664e-02,0.352188
3.1696e-02,0.358563
3.1728e-02,0.350328
3.1760e-02,0.343984
3.1792e-02,0.340734
3.1824e-02,0.328453
3.1856e-02,0.313922
3.1888e-02,0.299344
3.1920e-02,0.288125
3.1952e-02,0.264516
3.1984e-02,0.245656
3.2016e-02,0.230125
3.2048e-02,0.204766
3.2080e-02,0.182203
3.2112e-02,0.170203
3.2144e-02,0.153938
3.2176e-02,0.1375
3.2208e-02,0.122125
3.2240e-02,0.110516
3.2272e-02,0.0993125
3.2304e-02,0.0950469
3.2336e-02,0.0884219
3.2368e-02,0.0796875
3.2400e-02,0.0727656
3.2432e-02,0.0655313
3.2464e-02,0.0619844
3.2496e-02,0.0593594
3.2528e-02,0.055
3.2560e-02,0.0522813
3.2592e-02,0.0503438
3.2624e-02,0.0482188
3.2656e-02,0.0470156
3.2688e-02,0.0466094
3.2720e-02,0.0471094
3.2752e-02,0.0459688
3.2784e-02,0.0455781
3.2816e-02,0.0438125
3.2848e-02,0.0434063
3.2880e-02,0.0434844
3.2912e-02,0.0424531
3.2944e-02,0.0414844
3.2976e-02,0.0435
3.3008e-02,0.0434219
3.3040e-02,0.0403125
3.3072e-02,0.040875
3.3104e-02,0.0402656
3.3136e-02,0.0406406
3.3168e-02,0.0398594
3.3200e-02,0.0388438
3.3232e-02,0.0381719
3.3264e-02,0.0400469
3.3296e-02,0.0416094
3.3328e-02,0.0427813
3.3360e-02,0.0425781
3.3392e-02,0.0437031
3.3424e-02,0.0438906
3.3456e-02,0.0432188
3.3488e-02,0.0440625
3.3520e-02,0.0443906
3.3552e-02,0.0451719
3.3584e-02,0.0448906
3.3616e-02,0.04825
3.3648e-02,0.0475625
3.3680e-02,0.0475938
3.3712e-02,0.0499375
3.3744e-02,0.0528125
3.3776e-02,0.0530313
3.3808e-02,0.0564844
3.3840e-02,0.0577813
3.3872e-02,0.0590156
3.3904e-02,0.0592969
3.3936e-02,0.0627656
3.3968e-02,0.0657969
3.4000e-02,0.0684375
3.4032e-02,0.0696094
3.4064e-02,0.0729219
3.4096e-02,0.0776406
3.4128e-02,0.0801719
3.4160e-02,0.0826406
3.4192e-02,0.0843438
3.4224e-02,0.0836719
3.4256e-02,0.0831875
3.4288e-02,0.0823281
3.4320e-02,0.0791875
3.4352e-02,0.077
3.4384e-02,0.078875
3.4416e-02,0.0752969
3.4448e-02,0.0738594
3.4480e-02,0.0697813
3.4512e-02,0.0678906
3.4544e-02,0.0655156
3.4576e-02,0.062125
3.4608e-02,0.0595938
3.4640e-02,0.056125
3.4672e-02,0.0574219
3.4704e-02,0.0524688
3.4736e-02,0.0502969
3.4768e-02,0.0465625
3.4800e-02,0.0438906
3.4832e-02,0.0432813
3.4864e-02,0.0408281
3.4896e-02,0.0403594
3.4928e-02,0.0386406
3.4960e-02,0.0378906
3.4992e-02,0.0372031
3.5024e-02,0.0376094
3.5056e-02,0.0365156
3.5088e-02,0.035875
3.5120e-02,0.0344219
3.5152e-02,0.0344375
3.5184e-02,0.0350156
3.5216e-02,0.0354531
3.5248e-02,0.0343125
3.5280e-02,0.0343125
3.5312e-02,0.0325625
3.5344e-02,0.0333594
3.5376e-02,0.0343594
3.5408e-02,0.0344844
3.5440e-02,0.0342031
3.5472e-02,0.0342969
3.5504e-02,0.0354219
3.5536e-02,0.0358281
3.5568e-02,0.035875
3.5600e-02,0.0343438
3.5632e-02,0.0350469
3.5664e-02,0.0358906
3.5696e-02,0.0361094
3.5728e-02,0.037
3.5760e-02,0.035875
3.5792e-02,0.0365313
3.5824e-02,0.0356094
3.5856e-02,0.0365781
3.5888e-02,0.0361875
3.5920e-02,0.0359375
3.5952e-02,0.0354531
3.5984e-02,0.0341406
3.6016e-02,0.0336406
3.6048e-02,0.0341719
3.6080e-02,0.0331563
3.6112e-02,0.0325313
3.6144e-02,0.0339375
3.6176e-02,0.0316406
3.6208e-02,0.0304844
3.6240e-02,0.0310313
3.6272e-02,0.0291094
3.6304e-02,0.0293594
3.6336e-02,0.0289063
3.6368e-02,0.0287031
3.6400e-02,0.0291094
3.6432e-02,0.0300313
3.6464e-02,0.0302344
3.6496e-02,0.0288125
3.6528e-02,0.0280469
3.6560e-02,0.0278594
3.6592e-02,0.0282188
3.6624e-02,0.0307656
3.6656e-02,0.0315
3.6688e-02,0.0314375
3.6720e-02,0.0318906
3.6752e-02,0.0305
3.6784e-02,0.0295469
3.6816e-02,0.0308125
3.6848e-02,0.0307031
3.6880e-02,0.0293281
3.6912e-02,0.0292344
3.6944e-02,0.0293438
3.6976e-02,0.0288438
3.7008e-02,0.0292188
3.7040e-02,0.0299844
3.7072e-02,0.0298438
3.7104e-02,0.0310938
3.7136e-02,0.0342344
3.7168e-02,0.032625
3.7200e-02,0.0330313
3.7232e-02,0.0319844
3.7264e-02,0.0319375
3.7296e-02,0.0319844
3.7328e-02,0.0317969
3.7360e-02,0.0318906
3.7392e-02,0.0324375
3.7424e-02,0.0325469
3.7456e-02,0.0317188
3.7488e-02,0.0305
3.7520e-02,0.0297813
3.7552e-02,0.0282031
3.7584e-02,0.0291094
3.7616e-02,0.0284688
3.7648e-02,0.0286094
3.7680e-02,0.02875
3.7712e-02,0.0294531
3.7744e-02,0.0289531
3.7776e-02,0.0286563
3.7808e-02,0.02925
3.7840e-02,0.0300625
3.7872e-02,0.0294219
3.7904e-02,0.029
3.7936e-02,0.0295313
3.7968e-02,0.0293125
3.8000e-02,0.0283125
3.8032e-02,0.0280781
3.8064e-02,0.029875
3.8096e-02,0.0307188
3.8128e-02,0.0304219
3.8160e-02,0.0300313
3.8192e-02,0.02925
3.8224e-02,0.0308906
3.8256e-02,0.0298438
3.8288e-02,0.0306719
3.8320e-02,0.0305469
3.8352e-02,0.0299844
3.8384e-02,0.0299375
3.8416e-02,0.0303906
3.8448e-02,0.0301094
3.8480e-02,0.0294063
3.8512e-02,0.0288125
3.8544e-02,0.0288906
3.8576e-02,0.0274844
3.8608e-02,0.0275781
3.8640e-02,0.0279844
3.8672e-02,0.0291875
3.8704e-02,0.0296406
3.8736e-02,0.0296094
3.8768e-02,0.0300156
3.8800e-02,0.0313594
3.8832e-02,0.0296094
3.8864e-02,0.028375
3.8896e-02,0.0284375
3.8928e-02,0.0290781
3.8960e-02,0.0303125
3.8992e-02,0.031875
3.9024e-02,0.030125
3.9056e-02,0.0301875
3.9088e-02,0.0284063
3.9120e-02,0.0300938
3.9152e-02,0.0300938
3.9184e-02,0.0313906
3.9216e-02,0.0318125
3.9248e-02,0.0302344
3.9280e-02,0.0299375
3.9312e-02,0.0294531
3.9344e-02,0.0291094
3.9376e-02,0.0280469
3.9408e-02,0.0279844
3.9440e-02,0.0285
3.9472e-02,0.0280156
3.9504e-02,0.0300469
3.9536e-02,0.0309688
3.9568e-02,0.0315
3.9600e-02,0.030875
3.9632e-02,0.0304063
3.9664e-02,0.0297969
3.9696e-02,0.0310313
3.9728e-02,0.0308594
3.9760e-02,0.0321875
3.9792e-02,0.0320313
3.9824e-02,0.0321563
3.9856e-02,0.0320625
3.9888e-02,0.0322813
3.9920e-02,0.0330313
3.9952e-02,0.0329688
3.9984e-02,0.0323906
4.0016e-02,0.0316406
4.0048e-02,0.0305313
4.0080e-02,0.0322969
4.0112e-02,0.0326094
4.0144e-02,0.0331563
4.0176e-02,0.03425
4.0208e-02,0.0360625
4.0240e-02,0.0356563
4.0272e-02,0.0362344
4.0304e-02,0.0372188
