Phys432_Jupyter/Zeeman/yellow_B_on_vertical.csv

Model,MSO2024
Firmware Version,1.52

Point Format,Y
Horizontal Units,S
Horizontal Scale,0.004
Sample Interval,1.28e-05
Filter Frequency,2e+08
Record Length,3125
Gating,0.0% to 100.0%
Probe Attenuation,1
Vertical Units,V
Vertical Offset,0
Vertical Scale,0.02
Label,
TIME,CH1
3.984e-02,0.0209281
3.985e-02,0.0216031
3.987e-02,0.02165
3.988e-02,0.0216906
3.989e-02,0.022275
3.990e-02,0.0226906
3.992e-02,0.0228531
3.993e-02,0.0226969
3.994e-02,0.02225
3.996e-02,0.0220719
3.997e-02,0.0220469
3.998e-02,0.0223812
3.999e-02,0.0223437
4.001e-02,0.0229156
4.002e-02,0.0238625
4.003e-02,0.0240187
4.004e-02,0.0236969
4.006e-02,0.0239906
4.007e-02,0.0240531
4.008e-02,0.0243469
4.010e-02,0.0248281
4.011e-02,0.0252875
4.012e-02,0.0248906
4.013e-02,0.0256969
4.015e-02,0.0259656
4.016e-02,0.0262562
4.017e-02,0.0273031
4.019e-02,0.0269
4.020e-02,0.0261656
4.021e-02,0.0265531
4.022e-02,0.0269406
4.024e-02,0.0264594
4.025e-02,0.0263062
4.026e-02,0.0258281
4.028e-02,0.0254844
4.029e-02,0.0257219
4.030e-02,0.0267062
4.031e-02,0.0270281
4.033e-02,0.0266344
4.034e-02,0.0267156
4.035e-02,0.0266062
4.036e-02,0.026925
4.038e-02,0.0275062
4.039e-02,0.026925
4.040e-02,0.0271875
4.042e-02,0.0271437
4.043e-02,0.0272906
4.044e-02,0.0268625
4.045e-02,0.0274187
4.047e-02,0.0275969
4.048e-02,0.0276875
4.049e-02,0.0283062
4.051e-02,0.0283969
4.052e-02,0.0288156
4.053e-02,0.0289844
4.054e-02,0.0297719
4.056e-02,0.0314406
4.057e-02,0.0309594
4.058e-02,0.0307281
4.060e-02,0.0299469
4.061e-02,0.0307562
4.062e-02,0.0306687
4.063e-02,0.0305562
4.065e-02,0.0312562
4.066e-02,0.03125
4.067e-02,0.0314781
4.068e-02,0.0319281
4.070e-02,0.0318562
4.071e-02,0.0320375
4.072e-02,0.0323969
4.074e-02,0.0320219
4.075e-02,0.0328937
4.076e-02,0.03295
4.077e-02,0.0326344
4.079e-02,0.0339906
4.080e-02,0.0342469
4.081e-02,0.0347656
4.083e-02,0.0353156
4.084e-02,0.0353844
4.085e-02,0.0352094
4.086e-02,0.0364469
4.088e-02,0.0368625
4.089e-02,0.0372156
4.090e-02,0.0372375
4.092e-02,0.0376031
4.093e-02,0.0382344
4.094e-02,0.0392594
4.095e-02,0.0396281
4.097e-02,0.0401937
4.098e-02,0.0418625
4.099e-02,0.0427219
4.100e-02,0.0441312
4.102e-02,0.0458812
4.103e-02,0.0469094
4.104e-02,0.0477906
4.106e-02,0.0480469
4.107e-02,0.0476812
4.108e-02,0.0489062
4.109e-02,0.0492469
4.111e-02,0.0511625
4.112e-02,0.0524406
4.113e-02,0.0539281
4.115e-02,0.0546937
4.116e-02,0.0553344
4.117e-02,0.0548094
4.118e-02,0.0550969
4.120e-02,0.0555875
4.121e-02,0.0552531
4.122e-02,0.0559719
4.124e-02,0.0564
4.125e-02,0.0578156
4.126e-02,0.0591969
4.127e-02,0.0588344
4.129e-02,0.0589812
4.130e-02,0.0595094
4.131e-02,0.0597937
4.132e-02,0.0597187
4.134e-02,0.059625
4.135e-02,0.0601437
4.136e-02,0.06115
4.138e-02,0.0605875
4.139e-02,0.0613281
4.140e-02,0.0614031
4.141e-02,0.0610219
4.143e-02,0.0619437
4.144e-02,0.0621719
4.145e-02,0.0619562
4.147e-02,0.0613781
4.148e-02,0.0607687
4.149e-02,0.0611062
4.150e-02,0.0617031
4.152e-02,0.0608844
4.153e-02,0.060375
4.154e-02,0.0598656
4.156e-02,0.0590812
4.157e-02,0.0591281
4.158e-02,0.0577844
4.159e-02,0.0549344
4.161e-02,0.0531094
4.162e-02,0.0533187
4.163e-02,0.0535969
4.164e-02,0.0534125
4.166e-02,0.0530687
4.167e-02,0.0521594
4.168e-02,0.050975
4.170e-02,0.04985
4.171e-02,0.0483125
4.172e-02,0.0465812
4.173e-02,0.0450062
4.175e-02,0.0440031
4.176e-02,0.0421125
4.177e-02,0.0412906
4.179e-02,0.0414
4.180e-02,0.0403594
4.181e-02,0.0400375
4.182e-02,0.0395062
4.184e-02,0.0382969
4.185e-02,0.0379406
4.186e-02,0.0368687
4.188e-02,0.0352375
4.189e-02,0.0346062
4.190e-02,0.0347719
4.191e-02,0.0335281
4.193e-02,0.03255
4.194e-02,0.0322062
4.195e-02,0.0319469
4.196e-02,0.031275
4.198e-02,0.0298125
4.199e-02,0.0289531
4.200e-02,0.0293312
4.202e-02,0.0297719
4.203e-02,0.0301844
4.204e-02,0.0299625
4.205e-02,0.0298156
4.207e-02,0.0297875
4.208e-02,0.0287531
4.209e-02,0.0274344
4.211e-02,0.0264906
4.212e-02,0.0263469
4.213e-02,0.026475
4.214e-02,0.0267719
4.216e-02,0.0263437
4.217e-02,0.0262437
4.218e-02,0.0264312
4.220e-02,0.0268406
4.221e-02,0.0265812
4.222e-02,0.0264156
4.223e-02,0.0259187
4.225e-02,0.0252219
4.226e-02,0.0256656
4.227e-02,0.0250781
4.228e-02,0.0245906
4.230e-02,0.0247781
4.231e-02,0.0248406
4.232e-02,0.0242094
4.234e-02,0.0237687
4.235e-02,0.0232094
4.236e-02,0.0229469
4.237e-02,0.0220969
4.239e-02,0.0219344
4.240e-02,0.0221031
4.241e-02,0.0223125
4.243e-02,0.0221625
4.244e-02,0.0211937
4.245e-02,0.0217187
4.246e-02,0.0219812
4.248e-02,0.0216687
4.249e-02,0.0210781
4.250e-02,0.0208594
4.252e-02,0.021475
4.253e-02,0.0220656
4.254e-02,0.022575
4.255e-02,0.022225
4.257e-02,0.0219906
4.258e-02,0.0217656
4.259e-02,0.0213125
4.260e-02,0.02175
4.262e-02,0.0218125
4.263e-02,0.0219062
4.264e-02,0.021575
4.266e-02,0.0212625
4.267e-02,0.0206656
4.268e-02,0.020175
4.269e-02,0.0206594
4.271e-02,0.0203187
4.272e-02,0.0209062
4.273e-02,0.02115
4.275e-02,0.0205562
4.276e-02,0.0199875
4.277e-02,0.0196812
4.278e-02,0.0197344
4.280e-02,0.0198687
4.281e-02,0.0198344
4.282e-02,0.0193844
4.284e-02,0.0191531
4.285e-02,0.0192125
4.286e-02,0.0190469
4.287e-02,0.0183594
4.289e-02,0.0178562
4.290e-02,0.0178937
4.291e-02,0.0187406
4.292e-02,0.0189437
4.294e-02,0.0192812
4.295e-02,0.0190375
4.296e-02,0.0187281
4.298e-02,0.0188562
4.299e-02,0.0192437
4.300e-02,0.0199344
4.301e-02,0.0200094
4.303e-02,0.0198781
4.304e-02,0.0192156
4.305e-02,0.0191531
4.307e-02,0.0195031
4.308e-02,0.0199625
4.309e-02,0.0200719
4.310e-02,0.0194625
4.312e-02,0.0190937
4.313e-02,0.0191969
4.314e-02,0.0192844
4.316e-02,0.0197219
4.317e-02,0.0201469
4.318e-02,0.0202156
4.319e-02,0.0200031
4.321e-02,0.01955
4.322e-02,0.0199125
4.323e-02,0.0196437
4.324e-02,0.0189562
4.326e-02,0.0193687
4.327e-02,0.0197937
4.328e-02,0.0196719
4.330e-02,0.0189125
4.331e-02,0.0188687
4.332e-02,0.0185094
4.333e-02,0.0184
4.335e-02,0.0190125
4.336e-02,0.0192687
4.337e-02,0.0195969
4.339e-02,0.0199469
4.340e-02,0.0194375
4.341e-02,0.0195531
4.342e-02,0.019675
4.344e-02,0.0201406
4.345e-02,0.0198375
4.346e-02,0.02005
4.348e-02,0.0199656
4.349e-02,0.0194656
4.350e-02,0.0189375
4.351e-02,0.0187937
4.353e-02,0.0191844
4.354e-02,0.0196156
4.355e-02,0.0193844
4.356e-02,0.0190375
4.358e-02,0.0195687
4.359e-02,0.0196687
4.360e-02,0.0199375
4.362e-02,0.0201219
4.363e-02,0.0200625
4.364e-02,0.0202312
4.365e-02,0.019625
4.367e-02,0.0197656
4.368e-02,0.0204312
4.369e-02,0.0203531
4.371e-02,0.0196875
4.372e-02,0.0191125
4.373e-02,0.0187906
4.374e-02,0.0186
4.376e-02,0.019125
4.377e-02,0.0194781
4.378e-02,0.02015
4.380e-02,0.0200219
4.381e-02,0.0200281
4.382e-02,0.0202
4.383e-02,0.0205375
4.385e-02,0.0201656
4.386e-02,0.0199781
4.387e-02,0.0204781
4.388e-02,0.0209625
4.390e-02,0.021025
4.391e-02,0.0213594
4.392e-02,0.0211156
4.394e-02,0.0205906
4.395e-02,0.0203094
4.396e-02,0.020275
4.397e-02,0.0201219
4.399e-02,0.0198469
4.400e-02,0.0192781
4.401e-02,0.0198656
4.403e-02,0.0199156
4.404e-02,0.0200781
4.405e-02,0.0195219
4.406e-02,0.0195625
4.408e-02,0.0197812
4.409e-02,0.0196875
4.410e-02,0.0195562
4.412e-02,0.0194531
4.413e-02,0.0193
4.414e-02,0.0191937
4.415e-02,0.0193187
4.417e-02,0.0208094
4.418e-02,0.0207312
4.419e-02,0.020375
4.420e-02,0.0202594
4.422e-02,0.0203312
4.423e-02,0.0202844
4.424e-02,0.0204187
4.426e-02,0.0210937
4.427e-02,0.0209594
4.428e-02,0.0207625
4.429e-02,0.0203281
4.431e-02,0.02035
4.432e-02,0.0205781
4.433e-02,0.020325
4.435e-02,0.02005
4.436e-02,0.0196875
4.437e-02,0.0195031
4.438e-02,0.0191
4.440e-02,0.0191219
4.441e-02,0.0198812
4.442e-02,0.0200219
4.444e-02,0.0203281
4.445e-02,0.0203344
4.446e-02,0.0196094
4.447e-02,0.0196937
4.449e-02,0.0198687
4.450e-02,0.0190562
4.451e-02,0.0200094
4.452e-02,0.0215219
4.454e-02,0.0213187
4.455e-02,0.0212469
4.456e-02,0.0210281
4.458e-02,0.020475
4.459e-02,0.0205094
4.460e-02,0.0208687
4.461e-02,0.0201437
4.463e-02,0.0201062
4.464e-02,0.0200219
4.465e-02,0.0200844
4.467e-02,0.0212344
4.468e-02,0.0207156
4.469e-02,0.0201437
4.470e-02,0.019975
4.472e-02,0.0197625
4.473e-02,0.0198031
4.474e-02,0.0202844
4.476e-02,0.01985
4.477e-02,0.0204875
4.478e-02,0.0203219
4.479e-02,0.0199
4.481e-02,0.0197312
4.482e-02,0.0197625
4.483e-02,0.0202562
4.484e-02,0.0206187
4.486e-02,0.0205375
4.487e-02,0.0203437
4.488e-02,0.0203219
4.490e-02,0.0200219
4.491e-02,0.0195781
4.492e-02,0.0197937
4.493e-02,0.0199562
4.495e-02,0.0199062
4.496e-02,0.0202094
4.497e-02,0.0200187
4.499e-02,0.02015
4.500e-02,0.0199844
4.501e-02,0.0208906
4.502e-02,0.0211594
4.504e-02,0.0212375
4.505e-02,0.0213625
4.506e-02,0.0215094
4.508e-02,0.0215844
4.509e-02,0.0218031
4.510e-02,0.0218625
4.511e-02,0.0224625
4.513e-02,0.0219187
4.514e-02,0.0215312
4.515e-02,0.0213594
4.516e-02,0.0212625
4.518e-02,0.0206562
4.519e-02,0.0214969
4.520e-02,0.0220937
4.522e-02,0.0222687
4.523e-02,0.0221844
4.524e-02,0.0218969
4.525e-02,0.0216656
4.527e-02,0.0221562
4.528e-02,0.0223375
4.529e-02,0.0225281
4.531e-02,0.0227625
4.532e-02,0.02295
4.533e-02,0.023625
4.534e-02,0.0244531
4.536e-02,0.0241344
4.537e-02,0.0239531
4.538e-02,0.0247812
4.540e-02,0.0244344
4.541e-02,0.0235625
4.542e-02,0.022775
4.543e-02,0.0220625
4.545e-02,0.0224969
4.546e-02,0.0230625
4.547e-02,0.0235906
4.548e-02,0.0243906
4.550e-02,0.0248062
4.551e-02,0.0256187
4.552e-02,0.0253031
4.554e-02,0.025075
4.555e-02,0.0248031
4.556e-02,0.0243125
4.557e-02,0.0240781
4.559e-02,0.0245625
4.560e-02,0.0256281
4.561e-02,0.0259844
4.563e-02,0.0260344
4.564e-02,0.0263687
4.565e-02,0.0269281
4.566e-02,0.0282437
4.568e-02,0.0288375
4.569e-02,0.0290812
4.570e-02,0.0293906
4.572e-02,0.0294281
4.573e-02,0.0296437
4.574e-02,0.0297375
4.575e-02,0.029975
4.577e-02,0.030025
4.578e-02,0.0293312
4.579e-02,0.0288531
4.580e-02,0.0289937
4.582e-02,0.0289687
4.583e-02,0.0289219
4.584e-02,0.0290937
4.586e-02,0.0295031
4.587e-02,0.0294
4.588e-02,0.0296469
4.589e-02,0.0307062
4.591e-02,0.0309656
4.592e-02,0.0316812
4.593e-02,0.0325344
4.595e-02,0.0324437
4.596e-02,0.0324719
4.597e-02,0.0321344
4.598e-02,0.0316812
4.600e-02,0.0316156
4.601e-02,0.0320937
4.602e-02,0.0324687
4.604e-02,0.0319312
4.605e-02,0.0318187
4.606e-02,0.032725
4.607e-02,0.0340594
4.609e-02,0.0350469
4.610e-02,0.03525
4.611e-02,0.0359781
4.612e-02,0.0366094
4.614e-02,0.03665
4.615e-02,0.0370687
4.616e-02,0.0370469
4.618e-02,0.0373344
4.619e-02,0.0368312
4.620e-02,0.0366562
4.621e-02,0.036375
4.623e-02,0.0362656
4.624e-02,0.03605
4.625e-02,0.0380156
4.627e-02,0.0391687
4.628e-02,0.0390187
4.629e-02,0.0391406
4.630e-02,0.0411562
4.632e-02,0.0414187
4.633e-02,0.0422687
4.634e-02,0.0431719
4.636e-02,0.0427875
4.637e-02,0.0439562
4.638e-02,0.0442281
4.639e-02,0.0455312
4.641e-02,0.0442812
4.642e-02,0.04405
4.643e-02,0.0446406
4.644e-02,0.0459687
4.646e-02,0.0469156
4.647e-02,0.0488812
4.648e-02,0.0498469
4.650e-02,0.0501969
4.651e-02,0.0505
4.652e-02,0.0515187
4.653e-02,0.0522062
4.655e-02,0.0537969
4.656e-02,0.0543812
4.657e-02,0.0549594
4.659e-02,0.0556312
4.660e-02,0.0559156
4.661e-02,0.0575562
4.662e-02,0.0581375
4.664e-02,0.0582
4.665e-02,0.0579312
4.666e-02,0.0589625
4.668e-02,0.0595344
4.669e-02,0.0586875
4.670e-02,0.0581156
4.671e-02,0.0576125
4.673e-02,0.057075
4.674e-02,0.0563406
4.675e-02,0.0557312
4.676e-02,0.0551875
4.678e-02,0.0553
4.679e-02,0.0557062
4.680e-02,0.0563156
4.682e-02,0.0567031
4.683e-02,0.056375
4.684e-02,0.0554125
4.685e-02,0.0567594
4.687e-02,0.0566875
4.688e-02,0.0571687
4.689e-02,0.0565375
4.691e-02,0.0550094
4.692e-02,0.0545
4.693e-02,0.0530812
4.694e-02,0.0516469
4.696e-02,0.0517187
4.697e-02,0.0507437
4.698e-02,0.050375
4.700e-02,0.0500937
4.701e-02,0.0495406
4.702e-02,0.0482969
4.703e-02,0.046575
4.705e-02,0.04555
4.706e-02,0.0443
4.707e-02,0.0432969
4.708e-02,0.0423781
4.710e-02,0.0411031
4.711e-02,0.0402031
4.712e-02,0.0395656
4.714e-02,0.0388687
4.715e-02,0.0392562
4.716e-02,0.0391594
4.717e-02,0.0389312
4.719e-02,0.0369906
4.720e-02,0.03705
4.721e-02,0.0372687
4.723e-02,0.0375562
4.724e-02,0.0384031
4.725e-02,0.0375625
4.726e-02,0.037275
4.728e-02,0.0370594
4.729e-02,0.0358687
4.730e-02,0.0343687
4.732e-02,0.0339406
4.733e-02,0.0330281
4.734e-02,0.0326562
4.735e-02,0.0320531
4.737e-02,0.0311125
4.738e-02,0.0302281
4.739e-02,0.0308312
4.740e-02,0.0308375
4.742e-02,0.0298187
4.743e-02,0.0295281
4.744e-02,0.0297187
4.746e-02,0.0297406
4.747e-02,0.0301031
4.748e-02,0.0296687
4.749e-02,0.0299156
4.751e-02,0.0299219
4.752e-02,0.0299844
4.753e-02,0.0293187
4.755e-02,0.0297281
4.756e-02,0.0288344
4.757e-02,0.028275
4.758e-02,0.0282594
4.760e-02,0.0278969
4.761e-02,0.0277437
4.762e-02,0.0278875
4.764e-02,0.0279375
4.765e-02,0.0281437
4.766e-02,0.02765
4.767e-02,0.0273562
4.769e-02,0.0275281
4.770e-02,0.0272437
4.771e-02,0.0270562
4.772e-02,0.0272719
4.774e-02,0.0280781
4.775e-02,0.0285219
4.776e-02,0.0289125
4.778e-02,0.0281375
4.779e-02,0.0279594
4.780e-02,0.027875
4.781e-02,0.0283344
4.783e-02,0.0281875
4.784e-02,0.0281406
4.785e-02,0.0276562
4.787e-02,0.0267875
4.788e-02,0.0267156
4.789e-02,0.0269562
4.790e-02,0.0271375
4.792e-02,0.0268406
4.793e-02,0.0261344
4.794e-02,0.025575
4.796e-02,0.0257281
4.797e-02,0.0259469
4.798e-02,0.0261406
4.799e-02,0.027
4.801e-02,0.0266062
4.802e-02,0.0265
4.803e-02,0.0265656
4.804e-02,0.0265875
4.806e-02,0.0256875
4.807e-02,0.0254
4.808e-02,0.0247281
4.810e-02,0.0248156
4.811e-02,0.0252875
4.812e-02,0.0253406
4.813e-02,0.0256656
4.815e-02,0.0250281
4.816e-02,0.0242844
4.817e-02,0.0237406
4.819e-02,0.02345
4.820e-02,0.0238812
4.821e-02,0.0242062
4.822e-02,0.0237031
4.824e-02,0.0230156
4.825e-02,0.0227437
4.826e-02,0.0218562
4.828e-02,0.02165
4.829e-02,0.0218031
4.830e-02,0.0216937
4.831e-02,0.0217531
4.833e-02,0.0220219
4.834e-02,0.0215344
4.835e-02,0.0218531
4.836e-02,0.0210875
4.838e-02,0.0204281
4.839e-02,0.0208562
4.840e-02,0.0218844
4.842e-02,0.0216844
4.843e-02,0.0214687
4.844e-02,0.0218375
4.845e-02,0.021875
4.847e-02,0.0215906
4.848e-02,0.0221844
4.849e-02,0.0219906
4.851e-02,0.0215094
4.852e-02,0.0209719
4.853e-02,0.0203937
4.854e-02,0.0206156
4.856e-02,0.020975
4.857e-02,0.0210906
4.858e-02,0.0210562
4.860e-02,0.021175
4.861e-02,0.0212094
4.862e-02,0.0214062
4.863e-02,0.0210375
4.865e-02,0.0205812
4.866e-02,0.020675
4.867e-02,0.0209625
4.868e-02,0.0205906
4.870e-02,0.0204906
4.871e-02,0.0208406
4.872e-02,0.0208062
4.874e-02,0.0204562
4.875e-02,0.0208656
4.876e-02,0.0208531
4.877e-02,0.0204031
4.879e-02,0.0206625
4.880e-02,0.0210062
4.881e-02,0.0212219
4.883e-02,0.0214937
4.884e-02,0.0215062
4.885e-02,0.0214531
4.886e-02,0.0212125
4.888e-02,0.0209125
4.889e-02,0.0211812
4.890e-02,0.0210375
4.892e-02,0.0211844
4.893e-02,0.0208219
4.894e-02,0.0202
4.895e-02,0.0197687
4.897e-02,0.0202344
4.898e-02,0.0203906
4.899e-02,0.0202312
4.900e-02,0.0200687
4.902e-02,0.0204125
4.903e-02,0.0209062
4.904e-02,0.0216281
4.906e-02,0.0217062
4.907e-02,0.0216687
4.908e-02,0.021
4.909e-02,0.0209219
4.911e-02,0.0211625
4.912e-02,0.0220531
4.913e-02,0.0221937
4.915e-02,0.0223844
4.916e-02,0.0223969
4.917e-02,0.0233031
4.918e-02,0.0235469
4.920e-02,0.0241
4.921e-02,0.0233687
4.922e-02,0.0231187
4.924e-02,0.023275
4.925e-02,0.0231437
4.926e-02,0.0226281
4.927e-02,0.0219469
4.929e-02,0.0214219
4.930e-02,0.0211812
4.931e-02,0.0208094
4.932e-02,0.0205875
4.934e-02,0.0208719
4.935e-02,0.020775
4.936e-02,0.0209062
4.938e-02,0.0212031
4.939e-02,0.0208875
4.940e-02,0.020875
4.941e-02,0.0203344
4.943e-02,0.0207062
4.944e-02,0.021
4.945e-02,0.0211094
4.947e-02,0.0209344
4.948e-02,0.0207656
4.949e-02,0.0210406
4.950e-02,0.0217406
4.952e-02,0.0209812
4.953e-02,0.0208969
4.954e-02,0.0208375
4.956e-02,0.0207406
4.957e-02,0.0206312
4.958e-02,0.0215719
4.959e-02,0.0215344
4.961e-02,0.0213875
4.962e-02,0.0221437
4.963e-02,0.0220062
4.964e-02,0.0217562
4.966e-02,0.0219625
4.967e-02,0.0228906
4.968e-02,0.0233187
4.970e-02,0.0240844
4.971e-02,0.023625
4.972e-02,0.0233719
4.973e-02,0.0235125
4.975e-02,0.0234812
4.976e-02,0.022925
4.977e-02,0.0235437
4.979e-02,0.0236781
4.980e-02,0.0232187
4.981e-02,0.0229437
4.982e-02,0.0229031
4.984e-02,0.0231469
4.985e-02,0.0233719
4.986e-02,0.0238125
4.988e-02,0.0247125
4.989e-02,0.0244469
4.990e-02,0.0248656
4.991e-02,0.02525
4.993e-02,0.0248312
4.994e-02,0.0246812
4.995e-02,0.024325
4.996e-02,0.0243437
4.998e-02,0.0247375
4.999e-02,0.0248937
5.000e-02,0.0255
5.002e-02,0.0255406
5.003e-02,0.02605
5.004e-02,0.0267156
5.005e-02,0.0270187
5.007e-02,0.0271344
5.008e-02,0.027075
5.009e-02,0.0274656
5.011e-02,0.0269844
5.012e-02,0.0270531
5.013e-02,0.026775
5.014e-02,0.027375
5.016e-02,0.0276656
5.017e-02,0.0289219
5.018e-02,0.0299344
5.020e-02,0.0302281
5.021e-02,0.0303062
5.022e-02,0.0304969
5.023e-02,0.0313219
5.025e-02,0.0316594
5.026e-02,0.0325656
5.027e-02,0.0324156
5.028e-02,0.0336062
5.030e-02,0.035175
5.031e-02,0.0356625
5.032e-02,0.0360781
5.034e-02,0.0368094
5.035e-02,0.038125
5.036e-02,0.0389031
5.037e-02,0.0406375
5.039e-02,0.0413125
5.040e-02,0.0410937
5.041e-02,0.0408312
5.043e-02,0.0409625
5.044e-02,0.0411531
5.045e-02,0.0417781
5.046e-02,0.0425094
5.048e-02,0.0437656
5.049e-02,0.0445687
5.050e-02,0.0451437
5.052e-02,0.0453219
5.053e-02,0.0465375
5.054e-02,0.0480219
5.055e-02,0.0492344
5.057e-02,0.0512312
5.058e-02,0.0523812
5.059e-02,0.0533812
5.060e-02,0.0520906
5.062e-02,0.05215
5.063e-02,0.053225
5.064e-02,0.0536437
5.066e-02,0.0544062
5.067e-02,0.0551281
5.068e-02,0.0557219
5.069e-02,0.0557
5.071e-02,0.0578062
5.072e-02,0.0586062
5.073e-02,0.0570937
5.075e-02,0.0561594
5.076e-02,0.0557156
5.077e-02,0.0549656
5.078e-02,0.0548
5.080e-02,0.0552125
5.081e-02,0.0565125
5.082e-02,0.0573031
5.084e-02,0.0570406
5.085e-02,0.0575406
5.086e-02,0.0566
5.087e-02,0.0566687
5.089e-02,0.0561969
5.090e-02,0.0548562
5.091e-02,0.0545656
5.092e-02,0.0536031
5.094e-02,0.0520625
5.095e-02,0.05125
5.096e-02,0.050125
5.098e-02,0.0502437
5.099e-02,0.0497469
5.100e-02,0.0490531
5.101e-02,0.0483656
5.103e-02,0.0465375
5.104e-02,0.04565
5.105e-02,0.0443875
5.107e-02,0.0431687
5.108e-02,0.0431687
5.109e-02,0.0418094
5.110e-02,0.0407094
5.112e-02,0.0400875
5.113e-02,0.0392562
5.114e-02,0.0382625
5.116e-02,0.037025
5.117e-02,0.0369875
5.118e-02,0.0366312
5.119e-02,0.0361562
5.121e-02,0.035325
5.122e-02,0.0344781
5.123e-02,0.03335
5.124e-02,0.0323781
5.126e-02,0.0319156
5.127e-02,0.0317156
5.128e-02,0.0316906
5.130e-02,0.030825
5.131e-02,0.0306125
5.132e-02,0.030675
5.133e-02,0.0297875
5.135e-02,0.0292594
5.136e-02,0.0282719
5.137e-02,0.0275687
5.139e-02,0.028125
5.140e-02,0.0279781
5.141e-02,0.027775
5.142e-02,0.0278281
5.144e-02,0.0274437
5.145e-02,0.0269625
5.146e-02,0.026675
5.148e-02,0.0256687
5.149e-02,0.0250812
5.150e-02,0.0242875
5.151e-02,0.0232344
5.153e-02,0.0230594
5.154e-02,0.0231594
5.155e-02,0.0228469
5.156e-02,0.0221406
5.158e-02,0.0217406
5.159e-02,0.0216656
5.160e-02,0.0214187
5.162e-02,0.0212344
5.163e-02,0.0219094
5.164e-02,0.0216656
5.165e-02,0.0215469
5.167e-02,0.0219719
5.168e-02,0.021625
5.169e-02,0.0216219
5.171e-02,0.0215562
5.172e-02,0.021725
5.173e-02,0.0217281
5.174e-02,0.0215281
5.176e-02,0.0216
5.177e-02,0.0216531
5.178e-02,0.0219594
5.180e-02,0.0222531
5.181e-02,0.0216844
5.182e-02,0.0218437
5.183e-02,0.0226937
5.185e-02,0.0224156
5.186e-02,0.0224125
5.187e-02,0.0224
5.188e-02,0.0224156
5.190e-02,0.0224312
5.191e-02,0.0220844
5.192e-02,0.0220031
5.194e-02,0.0216469
5.195e-02,0.02225
5.196e-02,0.0219844
5.197e-02,0.0215094
5.199e-02,0.0212719
5.200e-02,0.0204937
5.201e-02,0.0199344
5.203e-02,0.0199281
5.204e-02,0.0209
5.205e-02,0.0217531
5.206e-02,0.022325
5.208e-02,0.0224156
5.209e-02,0.0219375
5.210e-02,0.0226062
5.212e-02,0.0228344
5.213e-02,0.0225594
5.214e-02,0.0217312
5.215e-02,0.0212906
5.217e-02,0.0217062
5.218e-02,0.0220281
5.219e-02,0.0217031
5.220e-02,0.0216094
5.222e-02,0.0214969
5.223e-02,0.0214906
5.224e-02,0.0208031
5.226e-02,0.02045
5.227e-02,0.0204812
5.228e-02,0.0206906
5.229e-02,0.0205406
5.231e-02,0.0209437
5.232e-02,0.0208625
5.233e-02,0.0209344
5.235e-02,0.0209031
5.236e-02,0.0213156
5.237e-02,0.0221375
5.238e-02,0.0230781
5.240e-02,0.0230375
5.241e-02,0.0223094
5.242e-02,0.0220969
5.244e-02,0.022075
5.245e-02,0.0225031
5.246e-02,0.0223125
5.247e-02,0.0215469
5.249e-02,0.0209406
5.250e-02,0.0212875
5.251e-02,0.0211875
5.252e-02,0.0213187
5.254e-02,0.0211469
5.255e-02,0.0204031
5.256e-02,0.0200312
5.258e-02,0.0197219
5.259e-02,0.0199312
