Phys432_Jupyter/Zeeman/yellow_B_on.csv

Model,MSO2024
Firmware Version,1.52

Point Format,Y
Horizontal Units,S
Horizontal Scale,0.01
Sample Interval,3.2e-05
Filter Frequency,2e+08
Record Length,3125
Gating,0.0% to 100.0%
Probe Attenuation,1
Vertical Units,V
Vertical Offset,0
Vertical Scale,0.05
Label,
TIME,CH1
9.8400e-03,0.0733359
9.8720e-03,0.0769297
9.9040e-03,0.0764453
9.9360e-03,0.075625
9.9680e-03,0.0761094
1.0000e-02,0.0783281
1.0032e-02,0.0804766
1.0064e-02,0.0831406
1.0096e-02,0.0839063
1.0128e-02,0.0867031
1.0160e-02,0.0916641
1.0192e-02,0.0966406
1.0224e-02,0.0973828
1.0256e-02,0.0964219
1.0288e-02,0.106391
1.0320e-02,0.110281
1.0352e-02,0.112734
1.0384e-02,0.115453
1.0416e-02,0.128539
1.0448e-02,0.132008
1.0480e-02,0.139891
1.0512e-02,0.143422
1.0544e-02,0.149383
1.0576e-02,0.162031
1.0608e-02,0.16607
1.0640e-02,0.163
1.0672e-02,0.167172
1.0704e-02,0.176406
1.0736e-02,0.180953
1.0768e-02,0.184148
1.0800e-02,0.186422
1.0832e-02,0.184469
1.0864e-02,0.189836
1.0896e-02,0.189469
1.0928e-02,0.194336
1.0960e-02,0.197328
1.0992e-02,0.19957
1.1024e-02,0.19475
1.1056e-02,0.193906
1.1088e-02,0.188586
1.1120e-02,0.187063
1.1152e-02,0.185641
1.1184e-02,0.177281
1.1216e-02,0.173711
1.1248e-02,0.167672
1.1280e-02,0.160914
1.1312e-02,0.149484
1.1344e-02,0.143656
1.1376e-02,0.140211
1.1408e-02,0.131672
1.1440e-02,0.121156
1.1472e-02,0.10832
1.1504e-02,0.103969
1.1536e-02,0.0985859
1.1568e-02,0.0947813
1.1600e-02,0.0886719
1.1632e-02,0.0828359
1.1664e-02,0.0761484
1.1696e-02,0.0753594
1.1728e-02,0.0720859
1.1760e-02,0.0668281
1.1792e-02,0.0628281
1.1824e-02,0.0592109
1.1856e-02,0.0596484
1.1888e-02,0.0559219
1.1920e-02,0.0546328
1.1952e-02,0.0549766
1.1984e-02,0.0518672
1.2016e-02,0.0490938
1.2048e-02,0.0469453
1.2080e-02,0.0474688
1.2112e-02,0.0453906
1.2144e-02,0.0438906
1.2176e-02,0.0433984
1.2208e-02,0.0433906
1.2240e-02,0.0430391
1.2272e-02,0.0410313
1.2304e-02,0.0425547
1.2336e-02,0.0410703
1.2368e-02,0.0432266
1.2400e-02,0.0405
1.2432e-02,0.0389063
1.2464e-02,0.0407969
1.2496e-02,0.0425234
1.2528e-02,0.0389688
1.2560e-02,0.0386953
1.2592e-02,0.0405938
1.2624e-02,0.0438828
1.2656e-02,0.0437266
1.2688e-02,0.0436797
1.2720e-02,0.0466172
1.2752e-02,0.0479922
1.2784e-02,0.0464766
1.2816e-02,0.0454453
1.2848e-02,0.0444922
1.2880e-02,0.04725
1.2912e-02,0.0468438
1.2944e-02,0.0466563
1.2976e-02,0.0448828
1.3008e-02,0.0444609
1.3040e-02,0.0478203
1.3072e-02,0.0475625
1.3104e-02,0.0507578
1.3136e-02,0.0501328
1.3168e-02,0.0531328
1.3200e-02,0.0502344
1.3232e-02,0.0493594
1.3264e-02,0.0496406
1.3296e-02,0.0505391
1.3328e-02,0.0514531
1.3360e-02,0.0505859
1.3392e-02,0.0506875
1.3424e-02,0.0498594
1.3456e-02,0.0511641
1.3488e-02,0.0528359
1.3520e-02,0.0543125
1.3552e-02,0.0518672
1.3584e-02,0.0495703
1.3616e-02,0.0516172
1.3648e-02,0.0510234
1.3680e-02,0.0540391
1.3712e-02,0.0539922
1.3744e-02,0.0557266
1.3776e-02,0.0563516
1.3808e-02,0.0549844
1.3840e-02,0.0542891
1.3872e-02,0.0570547
1.3904e-02,0.0580313
1.3936e-02,0.0597344
1.3968e-02,0.0637266
1.4000e-02,0.0653203
1.4032e-02,0.0684219
1.4064e-02,0.0716875
1.4096e-02,0.07275
1.4128e-02,0.0770313
1.4160e-02,0.0799688
1.4192e-02,0.0825078
1.4224e-02,0.0827656
1.4256e-02,0.0882891
1.4288e-02,0.0934219
1.4320e-02,0.098375
1.4352e-02,0.101383
1.4384e-02,0.10182
1.4416e-02,0.106828
1.4448e-02,0.111969
1.4480e-02,0.111445
1.4512e-02,0.114852
1.4544e-02,0.116328
1.4576e-02,0.1165
1.4608e-02,0.111711
1.4640e-02,0.110703
1.4672e-02,0.108836
1.4704e-02,0.106156
1.4736e-02,0.105516
1.4768e-02,0.105227
1.4800e-02,0.101508
1.4832e-02,0.0952656
1.4864e-02,0.0921328
1.4896e-02,0.0905781
1.4928e-02,0.0892656
1.4960e-02,0.0809922
1.4992e-02,0.0759844
1.5024e-02,0.0715313
1.5056e-02,0.0651328
1.5088e-02,0.0614609
1.5120e-02,0.0578359
1.5152e-02,0.0556172
1.5184e-02,0.0552266
1.5216e-02,0.0545547
1.5248e-02,0.0492266
1.5280e-02,0.0457266
1.5312e-02,0.0455156
1.5344e-02,0.0421797
1.5376e-02,0.0440859
1.5408e-02,0.0428125
1.5440e-02,0.0456875
1.5472e-02,0.0425469
1.5504e-02,0.0426797
1.5536e-02,0.0442031
1.5568e-02,0.0442969
1.5600e-02,0.0453906
1.5632e-02,0.0438281
1.5664e-02,0.0422578
1.5696e-02,0.0406953
1.5728e-02,0.0443125
1.5760e-02,0.0417109
1.5792e-02,0.0429297
1.5824e-02,0.042375
1.5856e-02,0.0410859
1.5888e-02,0.0422266
1.5920e-02,0.0427734
1.5952e-02,0.0415156
1.5984e-02,0.03875
1.6016e-02,0.0407734
1.6048e-02,0.0399297
1.6080e-02,0.0414531
1.6112e-02,0.0405156
1.6144e-02,0.0382188
1.6176e-02,0.0355469
1.6208e-02,0.0374063
1.6240e-02,0.0367656
1.6272e-02,0.0371406
1.6304e-02,0.0345078
1.6336e-02,0.0333359
1.6368e-02,0.0323359
1.6400e-02,0.0328359
1.6432e-02,0.0327891
1.6464e-02,0.0314297
1.6496e-02,0.0309375
1.6528e-02,0.0292734
1.6560e-02,0.0293281
1.6592e-02,0.0298125
1.6624e-02,0.0303125
1.6656e-02,0.0322031
1.6688e-02,0.0331875
1.6720e-02,0.0309453
1.6752e-02,0.0308516
1.6784e-02,0.0299219
1.6816e-02,0.0283203
1.6848e-02,0.0307891
1.6880e-02,0.0314453
1.6912e-02,0.0310938
1.6944e-02,0.0346797
1.6976e-02,0.0362578
1.7008e-02,0.0325781
1.7040e-02,0.0313047
1.7072e-02,0.0296328
1.7104e-02,0.0307344
1.7136e-02,0.0318828
1.7168e-02,0.0325781
1.7200e-02,0.0318516
1.7232e-02,0.0317891
1.7264e-02,0.0309375
1.7296e-02,0.0297266
1.7328e-02,0.0311172
1.7360e-02,0.0305859
1.7392e-02,0.0304688
1.7424e-02,0.03175
1.7456e-02,0.0321406
1.7488e-02,0.0335469
1.7520e-02,0.0353438
1.7552e-02,0.0336094
1.7584e-02,0.0335625
1.7616e-02,0.0350078
1.7648e-02,0.0390391
1.7680e-02,0.0363203
1.7712e-02,0.0350234
1.7744e-02,0.0379609
1.7776e-02,0.0374297
1.7808e-02,0.0371328
1.7840e-02,0.0358438
1.7872e-02,0.0374609
1.7904e-02,0.0374922
1.7936e-02,0.0369297
1.7968e-02,0.0379609
1.8000e-02,0.0371875
1.8032e-02,0.0374453
1.8064e-02,0.0375547
1.8096e-02,0.0361172
1.8128e-02,0.0379766
1.8160e-02,0.03625
1.8192e-02,0.0347969
1.8224e-02,0.0332969
1.8256e-02,0.0333828
1.8288e-02,0.0321172
1.8320e-02,0.0323516
1.8352e-02,0.0317109
1.8384e-02,0.0327266
1.8416e-02,0.0327422
1.8448e-02,0.0328203
1.8480e-02,0.0339063
1.8512e-02,0.0337188
1.8544e-02,0.0314844
1.8576e-02,0.0310156
1.8608e-02,0.0319375
1.8640e-02,0.0324297
1.8672e-02,0.0321328
1.8704e-02,0.0303359
1.8736e-02,0.0289219
1.8768e-02,0.0307031
1.8800e-02,0.0279688
1.8832e-02,0.0285234
1.8864e-02,0.0287578
1.8896e-02,0.0287969
1.8928e-02,0.0309844
1.8960e-02,0.0316172
1.8992e-02,0.0302656
1.9024e-02,0.0296797
1.9056e-02,0.0286953
1.9088e-02,0.0310156
1.9120e-02,0.0316875
1.9152e-02,0.0321094
1.9184e-02,0.0307188
1.9216e-02,0.033
1.9248e-02,0.0321094
1.9280e-02,0.0325547
1.9312e-02,0.0315781
1.9344e-02,0.0329766
1.9376e-02,0.0325234
1.9408e-02,0.0328203
1.9440e-02,0.0326875
1.9472e-02,0.0325859
1.9504e-02,0.0351484
1.9536e-02,0.0359297
1.9568e-02,0.0326172
1.9600e-02,0.0318438
1.9632e-02,0.0334063
1.9664e-02,0.0356172
1.9696e-02,0.0346875
1.9728e-02,0.0356719
1.9760e-02,0.0370547
1.9792e-02,0.037875
1.9824e-02,0.0383047
1.9856e-02,0.0404844
1.9888e-02,0.0419141
1.9920e-02,0.0460938
1.9952e-02,0.0461953
1.9984e-02,0.046
2.0016e-02,0.0465156
2.0048e-02,0.0451484
2.0080e-02,0.045625
2.0112e-02,0.0482891
2.0144e-02,0.0501094
2.0176e-02,0.0483125
2.0208e-02,0.0471016
2.0240e-02,0.0490391
2.0272e-02,0.0515313
2.0304e-02,0.0563984
2.0336e-02,0.0536172
2.0368e-02,0.0504141
2.0400e-02,0.0532734
2.0432e-02,0.0511875
2.0464e-02,0.0513438
2.0496e-02,0.0576016
2.0528e-02,0.0550781
2.0560e-02,0.0545156
2.0592e-02,0.0557656
2.0624e-02,0.0548281
2.0656e-02,0.0587344
2.0688e-02,0.0603906
2.0720e-02,0.0602266
2.0752e-02,0.0632109
2.0784e-02,0.0676563
2.0816e-02,0.0694844
2.0848e-02,0.0731172
2.0880e-02,0.0759219
2.0912e-02,0.0783594
2.0944e-02,0.0866016
2.0976e-02,0.096125
2.1008e-02,0.0950859
2.1040e-02,0.10432
2.1072e-02,0.106227
2.1104e-02,0.106359
2.1136e-02,0.107297
2.1168e-02,0.116383
2.1200e-02,0.117688
2.1232e-02,0.126328
2.1264e-02,0.126227
2.1296e-02,0.124578
2.1328e-02,0.124258
2.1360e-02,0.122664
2.1392e-02,0.123047
2.1424e-02,0.118938
2.1456e-02,0.115898
2.1488e-02,0.109211
2.1520e-02,0.101875
2.1552e-02,0.0972578
2.1584e-02,0.0940156
2.1616e-02,0.0923984
2.1648e-02,0.0843047
2.1680e-02,0.0797734
2.1712e-02,0.0781563
2.1744e-02,0.0762109
2.1776e-02,0.0747188
2.1808e-02,0.0677422
2.1840e-02,0.0620469
2.1872e-02,0.0596328
2.1904e-02,0.0562266
2.1936e-02,0.0533281
2.1968e-02,0.0514141
2.2000e-02,0.0492109
2.2032e-02,0.0495469
2.2064e-02,0.0478672
2.2096e-02,0.0457969
2.2128e-02,0.0454297
2.2160e-02,0.0459688
2.2192e-02,0.0477734
2.2224e-02,0.0481328
2.2256e-02,0.0453438
2.2288e-02,0.0425313
2.2320e-02,0.0413828
2.2352e-02,0.0402422
2.2384e-02,0.0415
2.2416e-02,0.0417578
2.2448e-02,0.0385234
2.2480e-02,0.0369375
2.2512e-02,0.0366484
2.2544e-02,0.0372188
2.2576e-02,0.0407813
2.2608e-02,0.0399453
2.2640e-02,0.0396172
2.2672e-02,0.0388047
2.2704e-02,0.0397266
2.2736e-02,0.0389375
2.2768e-02,0.0421016
2.2800e-02,0.0422031
2.2832e-02,0.0435703
2.2864e-02,0.0423828
2.2896e-02,0.0466172
2.2928e-02,0.0460938
2.2960e-02,0.0471563
2.2992e-02,0.0467969
2.3024e-02,0.0483984
2.3056e-02,0.0499688
2.3088e-02,0.0521406
2.3120e-02,0.0529922
2.3152e-02,0.0547188
2.3184e-02,0.0529844
2.3216e-02,0.0547422
2.3248e-02,0.0571641
2.3280e-02,0.0586797
2.3312e-02,0.0581094
2.3344e-02,0.0628594
2.3376e-02,0.0652813
2.3408e-02,0.0683203
2.3440e-02,0.0690703
2.3472e-02,0.0727813
2.3504e-02,0.0785859
2.3536e-02,0.0809375
2.3568e-02,0.0833906
2.3600e-02,0.0858828
2.3632e-02,0.0906406
2.3664e-02,0.0946406
2.3696e-02,0.0982969
2.3728e-02,0.101406
2.3760e-02,0.108383
2.3792e-02,0.115891
2.3824e-02,0.120555
2.3856e-02,0.123922
2.3888e-02,0.130727
2.3920e-02,0.133734
2.3952e-02,0.138859
2.3984e-02,0.146977
2.4016e-02,0.159188
2.4048e-02,0.171156
2.4080e-02,0.174641
2.4112e-02,0.179406
2.4144e-02,0.1895
2.4176e-02,0.197297
2.4208e-02,0.200289
2.4240e-02,0.200172
2.4272e-02,0.202914
2.4304e-02,0.19993
2.4336e-02,0.198617
2.4368e-02,0.197148
2.4400e-02,0.194414
2.4432e-02,0.188234
2.4464e-02,0.192602
2.4496e-02,0.180469
2.4528e-02,0.172313
2.4560e-02,0.166797
2.4592e-02,0.16125
2.4624e-02,0.152625
2.4656e-02,0.144703
2.4688e-02,0.135867
2.4720e-02,0.128656
2.4752e-02,0.119344
2.4784e-02,0.116734
2.4816e-02,0.109742
2.4848e-02,0.0983125
2.4880e-02,0.0883672
2.4912e-02,0.0815859
2.4944e-02,0.0784531
2.4976e-02,0.0746406
2.5008e-02,0.0722344
2.5040e-02,0.0660234
2.5072e-02,0.0616563
2.5104e-02,0.0607891
2.5136e-02,0.0608125
2.5168e-02,0.0601094
2.5200e-02,0.0587891
2.5232e-02,0.0597969
2.5264e-02,0.0589453
2.5296e-02,0.0566875
2.5328e-02,0.0542422
2.5360e-02,0.0560859
2.5392e-02,0.0542266
2.5424e-02,0.0523438
2.5456e-02,0.0522813
2.5488e-02,0.0503359
2.5520e-02,0.0491406
2.5552e-02,0.0493594
2.5584e-02,0.0481641
2.5616e-02,0.0479219
2.5648e-02,0.0474844
2.5680e-02,0.0456641
2.5712e-02,0.0450469
2.5744e-02,0.0449844
2.5776e-02,0.0474453
2.5808e-02,0.0465938
2.5840e-02,0.0450938
2.5872e-02,0.0440859
2.5904e-02,0.0429766
2.5936e-02,0.0460625
2.5968e-02,0.0485
2.6000e-02,0.0461563
2.6032e-02,0.0436797
2.6064e-02,0.0442813
2.6096e-02,0.0450469
2.6128e-02,0.0458359
2.6160e-02,0.0459141
2.6192e-02,0.0491719
2.6224e-02,0.050125
2.6256e-02,0.0527266
2.6288e-02,0.0519453
2.6320e-02,0.0510313
2.6352e-02,0.0538359
2.6384e-02,0.0541797
2.6416e-02,0.0533906
2.6448e-02,0.0545938
2.6480e-02,0.0535859
2.6512e-02,0.0552813
2.6544e-02,0.0590703
2.6576e-02,0.0609219
2.6608e-02,0.0607969
2.6640e-02,0.0600938
2.6672e-02,0.0622656
2.6704e-02,0.0667891
2.6736e-02,0.0661406
2.6768e-02,0.0688047
2.6800e-02,0.0725859
2.6832e-02,0.0772422
2.6864e-02,0.0790859
2.6896e-02,0.0808047
2.6928e-02,0.0848125
2.6960e-02,0.0871406
2.6992e-02,0.0906641
2.7024e-02,0.0937109
2.7056e-02,0.0990234
2.7088e-02,0.10332
2.7120e-02,0.103875
2.7152e-02,0.108875
2.7184e-02,0.110602
2.7216e-02,0.114203
2.7248e-02,0.11493
2.7280e-02,0.116031
2.7312e-02,0.117438
2.7344e-02,0.119859
2.7376e-02,0.121102
2.7408e-02,0.119117
2.7440e-02,0.110844
2.7472e-02,0.10593
2.7504e-02,0.102563
2.7536e-02,0.0965625
2.7568e-02,0.0923828
2.7600e-02,0.0871016
2.7632e-02,0.0785391
2.7664e-02,0.0751406
2.7696e-02,0.0716953
2.7728e-02,0.069
2.7760e-02,0.0639453
2.7792e-02,0.0607188
2.7824e-02,0.0535781
2.7856e-02,0.0524375
2.7888e-02,0.0551094
2.7920e-02,0.0544297
2.7952e-02,0.0522031
2.7984e-02,0.0505156
2.8016e-02,0.04725
2.8048e-02,0.0463516
2.8080e-02,0.0525703
2.8112e-02,0.0505781
2.8144e-02,0.0522813
2.8176e-02,0.0504141
2.8208e-02,0.0506875
2.8240e-02,0.0494531
2.8272e-02,0.0512578
2.8304e-02,0.0544375
2.8336e-02,0.0531172
2.8368e-02,0.0518594
2.8400e-02,0.0476797
2.8432e-02,0.0493906
2.8464e-02,0.0490781
2.8496e-02,0.0518359
2.8528e-02,0.0510156
2.8560e-02,0.0522266
2.8592e-02,0.0517188
2.8624e-02,0.0525
2.8656e-02,0.0522422
2.8688e-02,0.0485781
2.8720e-02,0.0459219
2.8752e-02,0.0437266
2.8784e-02,0.0431172
2.8816e-02,0.04375
2.8848e-02,0.0427813
2.8880e-02,0.0422578
2.8912e-02,0.0410547
2.8944e-02,0.0380547
2.8976e-02,0.0346563
2.9008e-02,0.0328359
2.9040e-02,0.0348438
2.9072e-02,0.0334844
2.9104e-02,0.0315
2.9136e-02,0.0312031
2.9168e-02,0.0308359
2.9200e-02,0.0330938
2.9232e-02,0.0330625
2.9264e-02,0.0323047
2.9296e-02,0.0316563
2.9328e-02,0.0331328
2.9360e-02,0.0314531
2.9392e-02,0.031875
2.9424e-02,0.0331484
2.9456e-02,0.0333359
2.9488e-02,0.0337266
2.9520e-02,0.0358203
2.9552e-02,0.0356094
2.9584e-02,0.0361016
2.9616e-02,0.0339688
2.9648e-02,0.0348906
2.9680e-02,0.0353047
2.9712e-02,0.0327734
2.9744e-02,0.0306953
2.9776e-02,0.0326406
2.9808e-02,0.0352969
2.9840e-02,0.0320469
2.9872e-02,0.0326406
2.9904e-02,0.0350625
2.9936e-02,0.0335859
2.9968e-02,0.0341719
3.0000e-02,0.0337422
3.0032e-02,0.0329844
3.0064e-02,0.0324453
3.0096e-02,0.0347031
3.0128e-02,0.0350078
3.0160e-02,0.0354453
3.0192e-02,0.0370391
3.0224e-02,0.0393203
3.0256e-02,0.0363828
3.0288e-02,0.0339688
3.0320e-02,0.0383047
3.0352e-02,0.0407266
3.0384e-02,0.0392031
3.0416e-02,0.0373047
3.0448e-02,0.0378672
3.0480e-02,0.0373906
3.0512e-02,0.0390078
3.0544e-02,0.0415
3.0576e-02,0.0428203
3.0608e-02,0.0426172
3.0640e-02,0.0440078
3.0672e-02,0.0437109
3.0704e-02,0.0431953
3.0736e-02,0.0446875
3.0768e-02,0.0460703
3.0800e-02,0.0468516
3.0832e-02,0.0470859
3.0864e-02,0.0451406
3.0896e-02,0.0486094
3.0928e-02,0.0462266
3.0960e-02,0.0486641
3.0992e-02,0.0516953
3.1024e-02,0.053
3.1056e-02,0.0548125
3.1088e-02,0.0553672
3.1120e-02,0.0564844
3.1152e-02,0.0587891
3.1184e-02,0.0639141
3.1216e-02,0.0632969
3.1248e-02,0.0643594
3.1280e-02,0.0733281
3.1312e-02,0.0755391
3.1344e-02,0.0792891
3.1376e-02,0.0829219
3.1408e-02,0.0898828
3.1440e-02,0.0962109
3.1472e-02,0.103227
3.1504e-02,0.106945
3.1536e-02,0.110336
3.1568e-02,0.113664
3.1600e-02,0.117523
3.1632e-02,0.11718
3.1664e-02,0.116953
3.1696e-02,0.117805
3.1728e-02,0.118109
3.1760e-02,0.119266
3.1792e-02,0.11318
3.1824e-02,0.111516
3.1856e-02,0.109578
3.1888e-02,0.104164
3.1920e-02,0.0996328
3.1952e-02,0.0931641
3.1984e-02,0.087
3.2016e-02,0.0844766
3.2048e-02,0.0778359
3.2080e-02,0.0696641
3.2112e-02,0.066625
3.2144e-02,0.0645938
3.2176e-02,0.0614141
3.2208e-02,0.0573359
3.2240e-02,0.0519375
3.2272e-02,0.0484609
3.2304e-02,0.0461016
3.2336e-02,0.0462656
3.2368e-02,0.0453516
3.2400e-02,0.0423594
3.2432e-02,0.0412734
3.2464e-02,0.0413047
3.2496e-02,0.0418203
3.2528e-02,0.0429219
3.2560e-02,0.0405703
3.2592e-02,0.0403047
3.2624e-02,0.0416797
3.2656e-02,0.0420078
3.2688e-02,0.0423828
3.2720e-02,0.0430156
3.2752e-02,0.0418359
3.2784e-02,0.0427734
3.2816e-02,0.040375
3.2848e-02,0.0395391
3.2880e-02,0.0397188
3.2912e-02,0.0436797
3.2944e-02,0.0407891
3.2976e-02,0.0406563
3.3008e-02,0.0423281
3.3040e-02,0.0430859
3.3072e-02,0.0441172
3.3104e-02,0.0445547
3.3136e-02,0.04525
3.3168e-02,0.0478672
3.3200e-02,0.0491641
3.3232e-02,0.0496094
3.3264e-02,0.0501016
3.3296e-02,0.0524297
3.3328e-02,0.0550547
3.3360e-02,0.0545625
3.3392e-02,0.0538516
3.3424e-02,0.0550078
3.3456e-02,0.059375
3.3488e-02,0.0593438
3.3520e-02,0.0587031
3.3552e-02,0.0590156
3.3584e-02,0.0615
3.3616e-02,0.0612969
3.3648e-02,0.0634297
3.3680e-02,0.0627031
3.3712e-02,0.06575
3.3744e-02,0.0723672
3.3776e-02,0.0787344
3.3808e-02,0.0873359
3.3840e-02,0.0945
3.3872e-02,0.0983984
3.3904e-02,0.105492
3.3936e-02,0.111633
3.3968e-02,0.120477
3.4000e-02,0.129563
3.4032e-02,0.140227
3.4064e-02,0.150508
3.4096e-02,0.160719
3.4128e-02,0.167609
3.4160e-02,0.171859
3.4192e-02,0.179305
3.4224e-02,0.186844
3.4256e-02,0.194
3.4288e-02,0.196719
3.4320e-02,0.199477
3.4352e-02,0.197922
3.4384e-02,0.195344
3.4416e-02,0.185344
3.4448e-02,0.180031
3.4480e-02,0.171891
3.4512e-02,0.162852
3.4544e-02,0.156023
3.4576e-02,0.142719
3.4608e-02,0.12918
3.4640e-02,0.12275
3.4672e-02,0.106219
3.4704e-02,0.0961797
3.4736e-02,0.0886016
3.4768e-02,0.0807656
3.4800e-02,0.0702031
3.4832e-02,0.0653672
3.4864e-02,0.0660313
3.4896e-02,0.0604531
3.4928e-02,0.0562422
3.4960e-02,0.0531953
3.4992e-02,0.0488594
3.5024e-02,0.0461641
3.5056e-02,0.047875
3.5088e-02,0.0446016
3.5120e-02,0.0432188
3.5152e-02,0.0421875
3.5184e-02,0.0419453
3.5216e-02,0.0394922
3.5248e-02,0.0394063
3.5280e-02,0.0387422
3.5312e-02,0.0389141
3.5344e-02,0.0387734
3.5376e-02,0.0387109
3.5408e-02,0.0418203
3.5440e-02,0.0431328
3.5472e-02,0.0443984
3.5504e-02,0.0444063
3.5536e-02,0.0437734
3.5568e-02,0.0416172
3.5600e-02,0.0436563
3.5632e-02,0.0433125
3.5664e-02,0.0453125
3.5696e-02,0.0452188
3.5728e-02,0.0449922
3.5760e-02,0.0455938
3.5792e-02,0.0445391
3.5824e-02,0.0445313
3.5856e-02,0.0488281
3.5888e-02,0.0482109
3.5920e-02,0.0493906
3.5952e-02,0.0485859
3.5984e-02,0.0502734
3.6016e-02,0.0479453
3.6048e-02,0.0466953
3.6080e-02,0.0480234
3.6112e-02,0.0492656
3.6144e-02,0.0509844
3.6176e-02,0.0530156
3.6208e-02,0.0522891
3.6240e-02,0.0519531
3.6272e-02,0.0518516
3.6304e-02,0.0561797
3.6336e-02,0.0614063
3.6368e-02,0.0608125
3.6400e-02,0.0592734
3.6432e-02,0.0599766
3.6464e-02,0.0646797
3.6496e-02,0.068875
3.6528e-02,0.0715
3.6560e-02,0.0767813
3.6592e-02,0.0818281
3.6624e-02,0.0853438
3.6656e-02,0.0839375
3.6688e-02,0.0853047
3.6720e-02,0.0895938
3.6752e-02,0.102344
3.6784e-02,0.108438
3.6816e-02,0.109336
3.6848e-02,0.113625
3.6880e-02,0.113828
3.6912e-02,0.113188
3.6944e-02,0.113844
3.6976e-02,0.114875
3.7008e-02,0.10982
3.7040e-02,0.107453
3.7072e-02,0.108547
3.7104e-02,0.100297
3.7136e-02,0.0959531
3.7168e-02,0.0910625
3.7200e-02,0.08925
3.7232e-02,0.0851641
3.7264e-02,0.0790938
3.7296e-02,0.0762188
3.7328e-02,0.0699219
3.7360e-02,0.0621484
3.7392e-02,0.0595781
3.7424e-02,0.0560625
3.7456e-02,0.0524297
3.7488e-02,0.0503516
3.7520e-02,0.0478984
3.7552e-02,0.0452109
3.7584e-02,0.0454141
3.7616e-02,0.0463438
3.7648e-02,0.0436563
3.7680e-02,0.0433672
3.7712e-02,0.0425859
3.7744e-02,0.0413594
3.7776e-02,0.045125
3.7808e-02,0.0444297
3.7840e-02,0.0448594
3.7872e-02,0.0486094
3.7904e-02,0.0479609
3.7936e-02,0.0451797
3.7968e-02,0.0438828
3.8000e-02,0.0437031
3.8032e-02,0.0449297
3.8064e-02,0.04525
3.8096e-02,0.0472031
3.8128e-02,0.0420469
3.8160e-02,0.0412969
3.8192e-02,0.0390391
3.8224e-02,0.0399531
3.8256e-02,0.0370078
3.8288e-02,0.0359531
3.8320e-02,0.0329219
3.8352e-02,0.0328438
3.8384e-02,0.0353125
3.8416e-02,0.0344063
3.8448e-02,0.0325938
3.8480e-02,0.0307188
3.8512e-02,0.0298594
3.8544e-02,0.0329375
3.8576e-02,0.0328984
3.8608e-02,0.0344297
3.8640e-02,0.0333281
3.8672e-02,0.0353203
3.8704e-02,0.0349297
3.8736e-02,0.0333672
3.8768e-02,0.0288594
3.8800e-02,0.0287734
3.8832e-02,0.0306328
3.8864e-02,0.0318984
3.8896e-02,0.0306484
3.8928e-02,0.0291094
3.8960e-02,0.0309219
3.8992e-02,0.0301406
3.9024e-02,0.0312734
3.9056e-02,0.03025
3.9088e-02,0.0312031
3.9120e-02,0.0295313
3.9152e-02,0.032375
3.9184e-02,0.03275
3.9216e-02,0.0331172
3.9248e-02,0.0330703
3.9280e-02,0.0335391
3.9312e-02,0.0336875
3.9344e-02,0.0316563
3.9376e-02,0.0344141
3.9408e-02,0.0361094
3.9440e-02,0.0370781
3.9472e-02,0.0390781
3.9504e-02,0.0392344
3.9536e-02,0.0379063
3.9568e-02,0.0380234
3.9600e-02,0.0365938
3.9632e-02,0.0352813
3.9664e-02,0.0357969
3.9696e-02,0.0346016
3.9728e-02,0.0340313
3.9760e-02,0.0332656
3.9792e-02,0.0327031
3.9824e-02,0.0373047
3.9856e-02,0.0348516
3.9888e-02,0.0339688
3.9920e-02,0.0333359
3.9952e-02,0.0343672
3.9984e-02,0.0333438
4.0016e-02,0.0336328
4.0048e-02,0.0361563
4.0080e-02,0.0342344
4.0112e-02,0.0329375
4.0144e-02,0.0332422
4.0176e-02,0.03325
4.0208e-02,0.03275
4.0240e-02,0.0310078
4.0272e-02,0.0284609
4.0304e-02,0.0289453
