Phys432_Jupyter/Zeeman/yellow_B_on_horizontal.csv

Model,MSO2024
Firmware Version,1.52

Point Format,Y
Horizontal Units,S
Horizontal Scale,0.01
Sample Interval,3.2e-05
Filter Frequency,2e+08
Record Length,3125
Gating,0.0% to 100.0%
Probe Attenuation,1
Vertical Units,V
Vertical Offset,0
Vertical Scale,0.02
Label,
TIME,CH1
9.8400e-03,0.0239656
9.8720e-03,0.0254812
9.9040e-03,0.0249187
9.9360e-03,0.0253687
9.9680e-03,0.0253312
1.0000e-02,0.0247656
1.0032e-02,0.0241531
1.0064e-02,0.0234906
1.0096e-02,0.0246125
1.0128e-02,0.0246844
1.0160e-02,0.0235187
1.0192e-02,0.0237031
1.0224e-02,0.0237625
1.0256e-02,0.0250594
1.0288e-02,0.0245
1.0320e-02,0.0249875
1.0352e-02,0.02405
1.0384e-02,0.0246094
1.0416e-02,0.024875
1.0448e-02,0.0252719
1.0480e-02,0.0252
1.0512e-02,0.0247469
1.0544e-02,0.0240687
1.0576e-02,0.0230094
1.0608e-02,0.02215
1.0640e-02,0.0227781
1.0672e-02,0.0229344
1.0704e-02,0.0235625
1.0736e-02,0.0223594
1.0768e-02,0.022425
1.0800e-02,0.0227781
1.0832e-02,0.0214062
1.0864e-02,0.0223781
1.0896e-02,0.022325
1.0928e-02,0.0237031
1.0960e-02,0.0230406
1.0992e-02,0.0236875
1.1024e-02,0.0221437
1.1056e-02,0.0238437
1.1088e-02,0.0223312
1.1120e-02,0.0224312
1.1152e-02,0.0222094
1.1184e-02,0.0216687
1.1216e-02,0.0220375
1.1248e-02,0.0221531
1.1280e-02,0.0225312
1.1312e-02,0.0229062
1.1344e-02,0.02285
1.1376e-02,0.02325
1.1408e-02,0.023
1.1440e-02,0.0237625
1.1472e-02,0.023125
1.1504e-02,0.0234656
1.1536e-02,0.0235594
1.1568e-02,0.02235
1.1600e-02,0.023575
1.1632e-02,0.024425
1.1664e-02,0.023975
1.1696e-02,0.0239437
1.1728e-02,0.022875
1.1760e-02,0.0231594
1.1792e-02,0.0228937
1.1824e-02,0.0215437
1.1856e-02,0.022275
1.1888e-02,0.0230875
1.1920e-02,0.0234
1.1952e-02,0.02265
1.1984e-02,0.0233687
1.2016e-02,0.0227562
1.2048e-02,0.0218062
1.2080e-02,0.0210906
1.2112e-02,0.0216594
1.2144e-02,0.0232906
1.2176e-02,0.0232812
1.2208e-02,0.0235187
1.2240e-02,0.0229344
1.2272e-02,0.0227062
1.2304e-02,0.0217875
1.2336e-02,0.0216812
1.2368e-02,0.0231719
1.2400e-02,0.023325
1.2432e-02,0.0227312
1.2464e-02,0.0226031
1.2496e-02,0.0233719
1.2528e-02,0.0225937
1.2560e-02,0.0226094
1.2592e-02,0.0230625
1.2624e-02,0.0238219
1.2656e-02,0.0229594
1.2688e-02,0.022825
1.2720e-02,0.0224875
1.2752e-02,0.0224156
1.2784e-02,0.0222969
1.2816e-02,0.0223062
1.2848e-02,0.02185
1.2880e-02,0.0217906
1.2912e-02,0.02215
1.2944e-02,0.0223875
1.2976e-02,0.0230781
1.3008e-02,0.0221594
1.3040e-02,0.0216062
1.3072e-02,0.0235719
1.3104e-02,0.0238219
1.3136e-02,0.0242031
1.3168e-02,0.0240187
1.3200e-02,0.0239469
1.3232e-02,0.0237937
1.3264e-02,0.0250437
1.3296e-02,0.0248594
1.3328e-02,0.02585
1.3360e-02,0.0254875
1.3392e-02,0.0254344
1.3424e-02,0.0248625
1.3456e-02,0.0242187
1.3488e-02,0.0241375
1.3520e-02,0.0229969
1.3552e-02,0.0227687
1.3584e-02,0.0232187
1.3616e-02,0.0236469
1.3648e-02,0.0230062
1.3680e-02,0.0234219
1.3712e-02,0.0231344
1.3744e-02,0.0241562
1.3776e-02,0.0227656
1.3808e-02,0.0222125
1.3840e-02,0.0216281
1.3872e-02,0.0215781
1.3904e-02,0.0199937
1.3936e-02,0.0206969
1.3968e-02,0.022175
1.4000e-02,0.0212625
1.4032e-02,0.02055
1.4064e-02,0.0203375
1.4096e-02,0.0196469
1.4128e-02,0.0201125
1.4160e-02,0.0194
1.4192e-02,0.0188156
1.4224e-02,0.0176406
1.4256e-02,0.0180281
1.4288e-02,0.0188031
1.4320e-02,0.0199719
1.4352e-02,0.0192062
1.4384e-02,0.0189906
1.4416e-02,0.0184187
1.4448e-02,0.0197094
1.4480e-02,0.0192
1.4512e-02,0.0195344
1.4544e-02,0.0191937
1.4576e-02,0.018225
1.4608e-02,0.01835
1.4640e-02,0.018525
1.4672e-02,0.0190625
1.4704e-02,0.0186562
1.4736e-02,0.018325
1.4768e-02,0.0188437
1.4800e-02,0.0183094
1.4832e-02,0.0188125
1.4864e-02,0.0184781
1.4896e-02,0.0168312
1.4928e-02,0.0183812
1.4960e-02,0.0174844
1.4992e-02,0.0178625
1.5024e-02,0.0179812
1.5056e-02,0.0189375
1.5088e-02,0.0195
1.5120e-02,0.0188531
1.5152e-02,0.0188
1.5184e-02,0.0181
1.5216e-02,0.0182906
1.5248e-02,0.0181687
1.5280e-02,0.0178031
1.5312e-02,0.0176344
1.5344e-02,0.0172719
1.5376e-02,0.0177812
1.5408e-02,0.0175687
1.5440e-02,0.0175469
1.5472e-02,0.0177625
1.5504e-02,0.0189094
1.5536e-02,0.0187031
1.5568e-02,0.0185812
1.5600e-02,0.018375
1.5632e-02,0.0179625
1.5664e-02,0.0176312
1.5696e-02,0.0175594
1.5728e-02,0.0178344
1.5760e-02,0.0173437
1.5792e-02,0.0174219
1.5824e-02,0.0174062
1.5856e-02,0.0167687
1.5888e-02,0.0169156
1.5920e-02,0.0178344
1.5952e-02,0.017925
1.5984e-02,0.0186281
1.6016e-02,0.0183937
1.6048e-02,0.0188906
1.6080e-02,0.0198781
1.6112e-02,0.018825
1.6144e-02,0.0184531
1.6176e-02,0.0185
1.6208e-02,0.0184875
1.6240e-02,0.0179031
1.6272e-02,0.0171344
1.6304e-02,0.0173437
1.6336e-02,0.0170625
1.6368e-02,0.0163906
1.6400e-02,0.0167187
1.6432e-02,0.0181156
1.6464e-02,0.0192969
1.6496e-02,0.0179875
1.6528e-02,0.0183656
1.6560e-02,0.0182062
1.6592e-02,0.0185094
1.6624e-02,0.018275
1.6656e-02,0.0184219
1.6688e-02,0.0177469
1.6720e-02,0.0179094
1.6752e-02,0.0176
1.6784e-02,0.0171187
1.6816e-02,0.0176687
1.6848e-02,0.0185406
1.6880e-02,0.0190969
1.6912e-02,0.0203437
1.6944e-02,0.0195312
1.6976e-02,0.0191937
1.7008e-02,0.0193437
1.7040e-02,0.0187125
1.7072e-02,0.0184875
1.7104e-02,0.019025
1.7136e-02,0.0191937
1.7168e-02,0.0193687
1.7200e-02,0.0192
1.7232e-02,0.0183281
1.7264e-02,0.0169656
1.7296e-02,0.0175094
1.7328e-02,0.0177219
1.7360e-02,0.0185344
1.7392e-02,0.0173844
1.7424e-02,0.0185
1.7456e-02,0.0187656
1.7488e-02,0.0185687
1.7520e-02,0.018125
1.7552e-02,0.0182875
1.7584e-02,0.0183344
1.7616e-02,0.0182406
1.7648e-02,0.0172719
1.7680e-02,0.0181187
1.7712e-02,0.018075
1.7744e-02,0.0182312
1.7776e-02,0.0171937
1.7808e-02,0.0179625
1.7840e-02,0.0182562
1.7872e-02,0.0183656
1.7904e-02,0.0178625
1.7936e-02,0.0182156
1.7968e-02,0.0177781
1.8000e-02,0.017575
1.8032e-02,0.0186031
1.8064e-02,0.0186156
1.8096e-02,0.0182437
1.8128e-02,0.0186375
1.8160e-02,0.0183719
1.8192e-02,0.0193781
1.8224e-02,0.0184844
1.8256e-02,0.0192281
1.8288e-02,0.0184094
1.8320e-02,0.0189062
1.8352e-02,0.0188562
1.8384e-02,0.0189281
1.8416e-02,0.0203062
1.8448e-02,0.0203031
1.8480e-02,0.0193094
1.8512e-02,0.0191281
1.8544e-02,0.0196469
1.8576e-02,0.0193812
1.8608e-02,0.0191312
1.8640e-02,0.0192812
1.8672e-02,0.0189625
1.8704e-02,0.0188687
1.8736e-02,0.0190812
1.8768e-02,0.018575
1.8800e-02,0.0189781
1.8832e-02,0.0195562
1.8864e-02,0.0193094
1.8896e-02,0.0193594
1.8928e-02,0.0206594
1.8960e-02,0.0205312
1.8992e-02,0.0202625
1.9024e-02,0.020125
1.9056e-02,0.0193531
1.9088e-02,0.0191469
1.9120e-02,0.020325
1.9152e-02,0.0204125
1.9184e-02,0.0200406
1.9216e-02,0.0194062
1.9248e-02,0.0202094
1.9280e-02,0.0191469
1.9312e-02,0.0187062
1.9344e-02,0.019525
1.9376e-02,0.0190687
1.9408e-02,0.0194906
1.9440e-02,0.02045
1.9472e-02,0.0204062
1.9504e-02,0.0195844
1.9536e-02,0.0208156
1.9568e-02,0.0199
1.9600e-02,0.0198562
1.9632e-02,0.0208062
1.9664e-02,0.0207937
1.9696e-02,0.0197156
1.9728e-02,0.0215062
1.9760e-02,0.0205875
1.9792e-02,0.0207781
1.9824e-02,0.0209125
1.9856e-02,0.0209625
1.9888e-02,0.020975
1.9920e-02,0.0208656
1.9952e-02,0.0214094
1.9984e-02,0.0220094
2.0016e-02,0.0217562
2.0048e-02,0.0206969
2.0080e-02,0.0213094
2.0112e-02,0.0206594
2.0144e-02,0.0207406
2.0176e-02,0.0206187
2.0208e-02,0.020675
2.0240e-02,0.021075
2.0272e-02,0.0204187
2.0304e-02,0.019875
2.0336e-02,0.0201187
2.0368e-02,0.0204219
2.0400e-02,0.0193437
2.0432e-02,0.0204437
2.0464e-02,0.0212594
2.0496e-02,0.0210875
2.0528e-02,0.0210281
2.0560e-02,0.0227312
2.0592e-02,0.0236437
2.0624e-02,0.0225812
2.0656e-02,0.0225969
2.0688e-02,0.0217781
2.0720e-02,0.0219125
2.0752e-02,0.0236437
2.0784e-02,0.0233719
2.0816e-02,0.0243219
2.0848e-02,0.0252969
2.0880e-02,0.0259625
2.0912e-02,0.0273875
2.0944e-02,0.027225
2.0976e-02,0.0286344
2.1008e-02,0.0298906
2.1040e-02,0.0304562
2.1072e-02,0.0312375
2.1104e-02,0.0324594
2.1136e-02,0.0325406
2.1168e-02,0.0316
2.1200e-02,0.0310406
2.1232e-02,0.0330531
2.1264e-02,0.0346281
2.1296e-02,0.0360844
2.1328e-02,0.0367094
2.1360e-02,0.0376687
2.1392e-02,0.0387469
2.1424e-02,0.0401937
2.1456e-02,0.0408906
2.1488e-02,0.0404187
2.1520e-02,0.0423344
2.1552e-02,0.0439687
2.1584e-02,0.0462531
2.1616e-02,0.04865
2.1648e-02,0.0518125
2.1680e-02,0.0536844
2.1712e-02,0.0586719
2.1744e-02,0.0611125
2.1776e-02,0.0620531
2.1808e-02,0.0666094
2.1840e-02,0.0688687
2.1872e-02,0.0720156
2.1904e-02,0.0701531
2.1936e-02,0.0729687
2.1968e-02,0.0786281
2.2000e-02,0.0813687
2.2032e-02,0.0814812
2.2064e-02,0.0835844
2.2096e-02,0.0852125
2.2128e-02,0.0878
2.2160e-02,0.0890656
2.2192e-02,0.0882187
2.2224e-02,0.0907187
2.2256e-02,0.0881062
2.2288e-02,0.0885
2.2320e-02,0.0900875
2.2352e-02,0.0923562
2.2384e-02,0.0923
2.2416e-02,0.0883344
2.2448e-02,0.0865531
2.2480e-02,0.083875
2.2512e-02,0.0818406
2.2544e-02,0.079775
2.2576e-02,0.0772719
2.2608e-02,0.0748937
2.2640e-02,0.0720656
2.2672e-02,0.0674031
2.2704e-02,0.0636812
2.2736e-02,0.062425
2.2768e-02,0.0566406
2.2800e-02,0.0541031
2.2832e-02,0.0530156
2.2864e-02,0.0491719
2.2896e-02,0.0466312
2.2928e-02,0.0424969
2.2960e-02,0.0425625
2.2992e-02,0.0388812
2.3024e-02,0.0350656
2.3056e-02,0.0346125
2.3088e-02,0.0331312
2.3120e-02,0.0327656
2.3152e-02,0.0323062
2.3184e-02,0.0309844
2.3216e-02,0.0299594
2.3248e-02,0.0286031
2.3280e-02,0.0285281
2.3312e-02,0.02895
2.3344e-02,0.0286031
2.3376e-02,0.0286625
2.3408e-02,0.0273906
2.3440e-02,0.0257656
2.3472e-02,0.0259937
2.3504e-02,0.0259312
2.3536e-02,0.0250906
2.3568e-02,0.0243375
2.3600e-02,0.0242125
2.3632e-02,0.0237344
2.3664e-02,0.0243281
2.3696e-02,0.0236656
2.3728e-02,0.0222344
2.3760e-02,0.0217125
2.3792e-02,0.0215969
2.3824e-02,0.0221281
2.3856e-02,0.021925
2.3888e-02,0.0210844
2.3920e-02,0.0211969
2.3952e-02,0.0230219
2.3984e-02,0.0214656
2.4016e-02,0.0206406
2.4048e-02,0.0208969
2.4080e-02,0.0218844
2.4112e-02,0.0209844
2.4144e-02,0.0204
2.4176e-02,0.0206562
2.4208e-02,0.0201562
2.4240e-02,0.0187469
2.4272e-02,0.0191719
2.4304e-02,0.0201906
2.4336e-02,0.0199719
2.4368e-02,0.0188969
2.4400e-02,0.0199
2.4432e-02,0.0203219
2.4464e-02,0.0206656
2.4496e-02,0.0199344
2.4528e-02,0.0195719
2.4560e-02,0.0191562
2.4592e-02,0.0194812
2.4624e-02,0.0200656
2.4656e-02,0.0193281
2.4688e-02,0.0200281
2.4720e-02,0.0196656
2.4752e-02,0.0191594
2.4784e-02,0.0209844
2.4816e-02,0.0198375
2.4848e-02,0.0198312
2.4880e-02,0.0206687
2.4912e-02,0.0209687
2.4944e-02,0.0202281
2.4976e-02,0.0192531
2.5008e-02,0.0189656
2.5040e-02,0.0182562
2.5072e-02,0.0186031
2.5104e-02,0.0194312
2.5136e-02,0.0192125
2.5168e-02,0.0204812
2.5200e-02,0.0210656
2.5232e-02,0.0203531
2.5264e-02,0.019625
2.5296e-02,0.0207156
2.5328e-02,0.02135
2.5360e-02,0.0216812
2.5392e-02,0.0207719
2.5424e-02,0.0205969
2.5456e-02,0.0197406
2.5488e-02,0.0199937
2.5520e-02,0.0193156
2.5552e-02,0.0189156
2.5584e-02,0.0184156
2.5616e-02,0.0189406
2.5648e-02,0.0191937
2.5680e-02,0.01905
2.5712e-02,0.0194625
2.5744e-02,0.0185906
2.5776e-02,0.0191375
2.5808e-02,0.0207125
2.5840e-02,0.0206937
2.5872e-02,0.0202625
2.5904e-02,0.0206094
2.5936e-02,0.0206781
2.5968e-02,0.0228937
2.6000e-02,0.0224125
2.6032e-02,0.0219219
2.6064e-02,0.0213469
2.6096e-02,0.021525
2.6128e-02,0.0218312
2.6160e-02,0.0223187
2.6192e-02,0.02095
2.6224e-02,0.0221562
2.6256e-02,0.0228531
2.6288e-02,0.0222937
2.6320e-02,0.0225062
2.6352e-02,0.0212531
2.6384e-02,0.0222906
2.6416e-02,0.021825
2.6448e-02,0.0209406
2.6480e-02,0.022625
2.6512e-02,0.0232375
2.6544e-02,0.0226312
2.6576e-02,0.021875
2.6608e-02,0.0202125
2.6640e-02,0.0207219
2.6672e-02,0.0214187
2.6704e-02,0.0217187
2.6736e-02,0.0218437
2.6768e-02,0.0198937
2.6800e-02,0.0197562
2.6832e-02,0.0197969
2.6864e-02,0.0196875
2.6896e-02,0.0185719
2.6928e-02,0.0183094
2.6960e-02,0.0186875
2.6992e-02,0.01955
2.7024e-02,0.0190125
2.7056e-02,0.019175
2.7088e-02,0.0192344
2.7120e-02,0.0187719
2.7152e-02,0.0194875
2.7184e-02,0.0197469
2.7216e-02,0.0190625
2.7248e-02,0.0184
2.7280e-02,0.019
2.7312e-02,0.0182469
2.7344e-02,0.0191969
2.7376e-02,0.0192375
2.7408e-02,0.0188469
2.7440e-02,0.0192312
2.7472e-02,0.0186219
2.7504e-02,0.0174469
2.7536e-02,0.0175875
2.7568e-02,0.0184125
2.7600e-02,0.0189906
2.7632e-02,0.0189469
2.7664e-02,0.0192625
2.7696e-02,0.0192906
2.7728e-02,0.0197187
2.7760e-02,0.019575
2.7792e-02,0.0184562
2.7824e-02,0.0196781
2.7856e-02,0.0191281
2.7888e-02,0.0185937
2.7920e-02,0.0188937
2.7952e-02,0.0195062
2.7984e-02,0.0196437
2.8016e-02,0.020375
2.8048e-02,0.0205562
2.8080e-02,0.0208562
2.8112e-02,0.0199062
2.8144e-02,0.020325
2.8176e-02,0.0201437
2.8208e-02,0.0191781
2.8240e-02,0.019925
2.8272e-02,0.0196906
2.8304e-02,0.0199125
2.8336e-02,0.0194906
2.8368e-02,0.0186906
2.8400e-02,0.0193375
2.8432e-02,0.0194406
2.8464e-02,0.0211719
2.8496e-02,0.021525
2.8528e-02,0.0208906
2.8560e-02,0.0207562
2.8592e-02,0.0207812
2.8624e-02,0.0199312
2.8656e-02,0.0200344
2.8688e-02,0.0203156
2.8720e-02,0.0205687
2.8752e-02,0.0212531
2.8784e-02,0.0221781
2.8816e-02,0.0218187
2.8848e-02,0.0214719
2.8880e-02,0.0217969
2.8912e-02,0.0239594
2.8944e-02,0.0224344
2.8976e-02,0.0218562
2.9008e-02,0.0211719
2.9040e-02,0.0215969
2.9072e-02,0.0204094
2.9104e-02,0.0203906
2.9136e-02,0.0206219
2.9168e-02,0.0201219
2.9200e-02,0.0197094
2.9232e-02,0.0196625
2.9264e-02,0.0203344
2.9296e-02,0.0207844
2.9328e-02,0.020325
2.9360e-02,0.0201531
2.9392e-02,0.0209937
2.9424e-02,0.0215562
2.9456e-02,0.0221625
2.9488e-02,0.0215875
2.9520e-02,0.0207281
2.9552e-02,0.0212875
2.9584e-02,0.0222
2.9616e-02,0.0230344
2.9648e-02,0.0241281
2.9680e-02,0.0234812
2.9712e-02,0.0245
2.9744e-02,0.024675
2.9776e-02,0.0243562
2.9808e-02,0.0245812
2.9840e-02,0.0233719
2.9872e-02,0.0227969
2.9904e-02,0.0234156
2.9936e-02,0.0237656
2.9968e-02,0.0217594
3.0000e-02,0.0221437
3.0032e-02,0.0224594
3.0064e-02,0.0216
3.0096e-02,0.0215594
3.0128e-02,0.0222312
3.0160e-02,0.0223937
3.0192e-02,0.0218937
3.0224e-02,0.0226094
3.0256e-02,0.0224812
3.0288e-02,0.0228656
3.0320e-02,0.0233656
3.0352e-02,0.0231719
3.0384e-02,0.0233781
3.0416e-02,0.0224219
3.0448e-02,0.0223469
3.0480e-02,0.0230812
3.0512e-02,0.0228062
3.0544e-02,0.02305
3.0576e-02,0.0227219
3.0608e-02,0.0234375
3.0640e-02,0.023375
3.0672e-02,0.0217062
3.0704e-02,0.0216156
3.0736e-02,0.0232187
3.0768e-02,0.0233687
3.0800e-02,0.0222969
3.0832e-02,0.0214594
3.0864e-02,0.0217812
3.0896e-02,0.0223219
3.0928e-02,0.0226406
3.0960e-02,0.022625
3.0992e-02,0.0232375
3.1024e-02,0.0229937
3.1056e-02,0.0216937
3.1088e-02,0.0215031
3.1120e-02,0.0227687
3.1152e-02,0.0221562
3.1184e-02,0.0235
3.1216e-02,0.0232844
3.1248e-02,0.0250531
3.1280e-02,0.0264594
3.1312e-02,0.0264469
3.1344e-02,0.0252625
3.1376e-02,0.0261375
3.1408e-02,0.0268469
3.1440e-02,0.0267875
3.1472e-02,0.0269219
3.1504e-02,0.0277656
3.1536e-02,0.0282
3.1568e-02,0.0309219
3.1600e-02,0.0310906
3.1632e-02,0.0321187
3.1664e-02,0.0315687
3.1696e-02,0.0337656
3.1728e-02,0.0353437
3.1760e-02,0.0377344
3.1792e-02,0.0379125
3.1824e-02,0.0405156
3.1856e-02,0.0411719
3.1888e-02,0.0428875
3.1920e-02,0.0447906
3.1952e-02,0.0484
3.1984e-02,0.0525031
3.2016e-02,0.0571844
3.2048e-02,0.0618312
3.2080e-02,0.0636281
3.2112e-02,0.065375
3.2144e-02,0.0697969
3.2176e-02,0.0745156
3.2208e-02,0.0768656
3.2240e-02,0.08055
3.2272e-02,0.0832375
3.2304e-02,0.0861187
3.2336e-02,0.0885875
3.2368e-02,0.08895
3.2400e-02,0.0894437
3.2432e-02,0.0883312
3.2464e-02,0.0865406
3.2496e-02,0.0854969
3.2528e-02,0.081225
3.2560e-02,0.0781219
3.2592e-02,0.0746375
3.2624e-02,0.0704375
3.2656e-02,0.070325
3.2688e-02,0.0674062
3.2720e-02,0.0615406
3.2752e-02,0.0587687
3.2784e-02,0.0548687
3.2816e-02,0.0519844
3.2848e-02,0.0475281
3.2880e-02,0.0446656
3.2912e-02,0.0408562
3.2944e-02,0.0380125
3.2976e-02,0.034575
3.3008e-02,0.0305406
3.3040e-02,0.0303781
3.3072e-02,0.0280406
3.3104e-02,0.0262594
3.3136e-02,0.0253281
3.3168e-02,0.0252531
3.3200e-02,0.0253344
3.3232e-02,0.0258031
3.3264e-02,0.0244219
3.3296e-02,0.0245875
3.3328e-02,0.0242531
3.3360e-02,0.0244969
3.3392e-02,0.0247812
3.3424e-02,0.0239937
3.3456e-02,0.0230437
3.3488e-02,0.0242156
3.3520e-02,0.0230875
3.3552e-02,0.0230437
3.3584e-02,0.0228094
3.3616e-02,0.0236
3.3648e-02,0.0242625
3.3680e-02,0.0247469
3.3712e-02,0.0245562
3.3744e-02,0.0243
3.3776e-02,0.0253219
3.3808e-02,0.024325
3.3840e-02,0.0234219
3.3872e-02,0.0246594
3.3904e-02,0.0226406
3.3936e-02,0.0223844
3.3968e-02,0.0232469
3.4000e-02,0.0225094
3.4032e-02,0.0232531
3.4064e-02,0.0234375
3.4096e-02,0.0222219
3.4128e-02,0.0216937
3.4160e-02,0.023575
3.4192e-02,0.0257187
3.4224e-02,0.0249
3.4256e-02,0.0233937
3.4288e-02,0.0234344
3.4320e-02,0.0234187
3.4352e-02,0.0227969
3.4384e-02,0.022625
3.4416e-02,0.0221594
3.4448e-02,0.022125
3.4480e-02,0.0218875
3.4512e-02,0.0223312
3.4544e-02,0.0224844
3.4576e-02,0.0229562
3.4608e-02,0.0236844
3.4640e-02,0.0245375
3.4672e-02,0.0252844
3.4704e-02,0.025225
3.4736e-02,0.0250094
3.4768e-02,0.0244437
3.4800e-02,0.0232437
3.4832e-02,0.022275
3.4864e-02,0.0216656
3.4896e-02,0.0227781
3.4928e-02,0.0219375
3.4960e-02,0.0226781
3.4992e-02,0.0231125
3.5024e-02,0.0237969
3.5056e-02,0.0232781
3.5088e-02,0.0236812
3.5120e-02,0.0219469
3.5152e-02,0.0231562
3.5184e-02,0.0219
3.5216e-02,0.0216
3.5248e-02,0.0220844
3.5280e-02,0.0225
3.5312e-02,0.0206875
3.5344e-02,0.020525
3.5376e-02,0.0207594
3.5408e-02,0.0206469
3.5440e-02,0.0201344
3.5472e-02,0.02135
3.5504e-02,0.0217656
3.5536e-02,0.0221344
3.5568e-02,0.0212594
3.5600e-02,0.0207031
3.5632e-02,0.0212187
3.5664e-02,0.0226094
3.5696e-02,0.0220062
3.5728e-02,0.0223562
3.5760e-02,0.0222531
3.5792e-02,0.0236187
3.5824e-02,0.0236219
3.5856e-02,0.024775
3.5888e-02,0.0239469
3.5920e-02,0.0232125
3.5952e-02,0.0230562
3.5984e-02,0.0225312
3.6016e-02,0.0204937
3.6048e-02,0.020475
3.6080e-02,0.0221875
3.6112e-02,0.0227031
3.6144e-02,0.0225875
3.6176e-02,0.0226219
3.6208e-02,0.0216219
3.6240e-02,0.0220125
3.6272e-02,0.0224156
3.6304e-02,0.0215281
3.6336e-02,0.02045
3.6368e-02,0.0205437
3.6400e-02,0.0207844
3.6432e-02,0.0206656
3.6464e-02,0.0207437
3.6496e-02,0.0206406
3.6528e-02,0.0195812
3.6560e-02,0.0191312
3.6592e-02,0.019225
3.6624e-02,0.01895
3.6656e-02,0.0181937
3.6688e-02,0.019125
3.6720e-02,0.0185594
3.6752e-02,0.0187406
3.6784e-02,0.0195687
3.6816e-02,0.0189937
3.6848e-02,0.0189
3.6880e-02,0.0187375
3.6912e-02,0.0196312
3.6944e-02,0.0185
3.6976e-02,0.0180437
3.7008e-02,0.0189562
3.7040e-02,0.0182562
3.7072e-02,0.018375
3.7104e-02,0.0188375
3.7136e-02,0.018675
3.7168e-02,0.0183094
3.7200e-02,0.0187594
3.7232e-02,0.0188312
3.7264e-02,0.0174594
3.7296e-02,0.018
3.7328e-02,0.018575
3.7360e-02,0.0195531
3.7392e-02,0.0207656
3.7424e-02,0.0199437
3.7456e-02,0.0193281
3.7488e-02,0.0199719
3.7520e-02,0.0203875
3.7552e-02,0.019725
3.7584e-02,0.0197187
3.7616e-02,0.0197531
3.7648e-02,0.0194094
3.7680e-02,0.0187187
3.7712e-02,0.0196469
3.7744e-02,0.0198969
3.7776e-02,0.0202219
3.7808e-02,0.0201062
3.7840e-02,0.0190594
3.7872e-02,0.0182219
3.7904e-02,0.0182031
3.7936e-02,0.0187312
3.7968e-02,0.0185719
3.8000e-02,0.0185062
3.8032e-02,0.01855
3.8064e-02,0.0186344
3.8096e-02,0.0173594
3.8128e-02,0.0178281
3.8160e-02,0.0177437
3.8192e-02,0.018275
3.8224e-02,0.0186031
3.8256e-02,0.018725
3.8288e-02,0.0190969
3.8320e-02,0.0183
3.8352e-02,0.0182437
3.8384e-02,0.0181844
3.8416e-02,0.0179062
3.8448e-02,0.0173562
3.8480e-02,0.018475
3.8512e-02,0.0187656
3.8544e-02,0.019
3.8576e-02,0.0182
3.8608e-02,0.01775
3.8640e-02,0.0173969
3.8672e-02,0.0167312
3.8704e-02,0.0170344
3.8736e-02,0.0175531
3.8768e-02,0.0188531
3.8800e-02,0.0181094
3.8832e-02,0.0181844
3.8864e-02,0.0182437
3.8896e-02,0.0188031
3.8928e-02,0.0180312
3.8960e-02,0.0175344
3.8992e-02,0.01845
3.9024e-02,0.0189094
3.9056e-02,0.0186562
3.9088e-02,0.0181969
3.9120e-02,0.0171344
3.9152e-02,0.017475
3.9184e-02,0.0182781
3.9216e-02,0.0187156
3.9248e-02,0.0183937
3.9280e-02,0.0193594
3.9312e-02,0.0196812
3.9344e-02,0.0197969
3.9376e-02,0.0193594
3.9408e-02,0.0199469
3.9440e-02,0.0204156
3.9472e-02,0.019725
3.9504e-02,0.0184781
3.9536e-02,0.0189719
3.9568e-02,0.0194812
3.9600e-02,0.0200937
3.9632e-02,0.0191812
3.9664e-02,0.0183156
3.9696e-02,0.0183656
3.9728e-02,0.0182781
3.9760e-02,0.0179594
3.9792e-02,0.0187906
3.9824e-02,0.0178906
3.9856e-02,0.0191375
3.9888e-02,0.0198687
3.9920e-02,0.0192437
3.9952e-02,0.0193219
3.9984e-02,0.0190844
4.0016e-02,0.0189344
4.0048e-02,0.0198062
4.0080e-02,0.0193437
4.0112e-02,0.0198281
4.0144e-02,0.0201937
4.0176e-02,0.019275
4.0208e-02,0.018975
4.0240e-02,0.0186
